waveforms/add.s.vcd
$date
2022-10-24T11:18+0000
$end
$version
0.2
$end
$comment

$end
$timescale 1ns  $end
$scope module Tile $end
 $var wire 1 ; io_regsWriteEnable $end
 $var wire 32 = io_regsReadData $end
 $var wire 32 S io_IMEMAddress $end
 $var wire 1 c io_regsDeviceWriteEnable $end
 $var wire 32 "3 io_DMEMAddress $end
 $var wire 32 "\ io_DMEMWriteData $end
 $var wire 1 "b CPU $end
 $var wire 32 "j io_regsDeviceWriteData $end
 $var wire 5 "n io_regsDeviceWriteAddress $end
 $var wire 1 #% clock $end
 $var wire 32 #* io_currentPC $end
 $var wire 5 #/ io_regsAddress $end
 $var wire 1 #D io_DMEMWriteEnable $end
 $var wire 32 #F io_memDeviceWriteAddress $end
 $var wire 32 #\ io_IMEMWriteData $end
 $var wire 32 #` io_memDeviceWriteData $end
 $var wire 32 $! io_DMEMReadData $end
 $var wire 1 $( reset $end
 $var wire 1 $1 io_setup $end
 $var wire 1 $= io_memDeviceWriteEnable $end
 $var wire 32 $Z io_regsWriteData $end
  $scope module CPU.MEMBarrier $end
  $upscope $end
  $scope module CPU.EX $end
  $upscope $end
  $scope module CPU.EXBarrier $end
  $upscope $end
  $scope module CPU.MEM $end
  $upscope $end
  $scope module CPU.WB $end
  $upscope $end
  $scope module CPU.JBarrier $end
  $upscope $end
  $scope module CPU.IDBarrier $end
  $upscope $end
  $scope module CPU.ID $end
  $upscope $end
  $scope module CPU.ID.registers $end
  $upscope $end
  $scope module CPU.IFBarrier $end
  $upscope $end
  $scope module CPU.IF $end
  $upscope $end
  $scope module CPU.IF.IMEM $end
  $upscope $end
  $scope module CPU.MEM.DMEM $end
  $upscope $end
  $scope module CPU.ID.Decoder $end
  $upscope $end
  $scope module CPU $end
   $var wire 1 ' IDBarrier $end
   $var wire 32 9 testHarness_setupSignals_IMEMsignals_address $end
   $var wire 32 @ testHarness_setupSignals_IMEMsignals_instruction $end
   $var wire 1 P testHarness_regUpdates_writeEnable $end
   $var wire 1 g ID $end
   $var wire 1 "" testHarness_memUpdates_writeEnable $end
   $var wire 32 "8 testHarness_regUpdates_writeData $end
   $var wire 5 "9 testHarness_regUpdates_writeAddress $end
   $var wire 5 "; testHarness_setupSignals_registerSignals_readAddress $end
   $var wire 32 "@ testHarness_testReadouts_registerRead $end
   $var wire 32 "K testHarness_currentPC $end
   $var wire 1 "P IF $end
   $var wire 32 "] testHarness_memUpdates_writeAddress $end
   $var wire 1 "d IFBarrier $end
   $var wire 1 "e testHarness_setupSignals_DMEMsignals_setup $end
   $var wire 1 "g JBarrier $end
   $var wire 32 "t testHarness_testReadouts_DMEMread $end
   $var wire 32 "x testHarness_setupSignals_DMEMsignals_dataIn $end
   $var wire 1 #! testHarness_setupSignals_IMEMsignals_setup $end
   $var wire 1 #? clock $end
   $var wire 32 #B testHarness_setupSignals_DMEMsignals_dataAddress $end
   $var wire 1 #L testHarness_setupSignals_registerSignals_setup $end
   $var wire 1 #O MEM $end
   $var wire 1 #d testHarness_setupSignals_registerSignals_writeEnable $end
   $var wire 1 #e WB $end
   $var wire 1 #f EXBarrier $end
   $var wire 1 #~ EX $end
   $var wire 32 $; testHarness_memUpdates_writeData $end
   $var wire 32 $I testHarness_setupSignals_registerSignals_writeData $end
   $var wire 1 $T reset $end
   $var wire 1 $U MEMBarrier $end
   $var wire 1 $[ testHarness_setupSignals_DMEMsignals_writeEnable $end
    $scope module ID $end
     $var wire 1 ! testHarness_registerSetup_writeEnable $end
     $var wire 12 & io_ex_writeAddress $end
     $var wire 32 ) io_ex_writeData $end
     $var wire 32 3 io_out_op2 $end
     $var wire 32 6 io_wb_writeData $end
     $var wire 12 < _GEN_21 $end
     $var wire 12 R _GEN_15 $end
     $var wire 12 Z io_out_writeAddress $end
     $var wire 4 \ io_out_aluOP $end
     $var wire 32 _ b $end
     $var wire 32 e testHarness_registerPeek $end
     $var wire 32 i _GEN_1 $end
     $var wire 1 j io_stall $end
     $var wire 1 m io_wb_writeEnable $end
     $var wire 1 o io_outJ_jump $end
     $var wire 32 u io_out_memData $end
     $var wire 1 | reset $end
     $var wire 1 "! testHarness_testUpdates_writeEnable $end
     $var wire 32 "& immediate $end
     $var wire 32 "( savedInstruction_instruction $end
     $var wire 32 "/ io_outJ_nextPC $end
     $var wire 1 "0 sigEX_STALL $end
     $var wire 32 "1 testHarness_registerSetup_writeData $end
     $var wire 5 ": testHarness_testUpdates_writeAddress $end
     $var wire 5 "? rdaddress $end
     $var wire 1 "S io_mem_memRead $end
     $var wire 32 "W io_out_op1 $end
     $var wire 1 "^ io_ex_memRead $end
     $var wire 1 "h stalled $end
     $var wire 5 "q io_mem_writeAddress $end
     $var wire 32 "s a $end
     $var wire 1 "| io_mem_regWrite $end
     $var wire 12 "} _GEN_17 $end
     $var wire 1 "~ io_ex_regWrite $end
     $var wire 5 #+ testHarness_registerSetup_readAddress $end
     $var wire 1 #- _GEN_3 $end
     $var wire 5 #. _GEN_11 $end
     $var wire 32 #7 io_in_instruction_instruction $end
     $var wire 5 #8 rs2address $end
     $var wire 1 #9 registers $end
     $var wire 1 #: io_out_memRead $end
     $var wire 1 #< io_out_regWrite $end
     $var wire 32 #I io_mem_writeData $end
     $var wire 5 #N io_wb_writeAddress $end
     $var wire 1 #Y sigMEM_STALL $end
     $var wire 1 #i Decoder $end
     $var wire 2 #k _GEN_19 $end
     $var wire 5 #p rs1address $end
     $var wire 1 $$ stalled2 $end
     $var wire 1 $2 io_out_memWrite $end
     $var wire 1 $5 testHarness_registerSetup_setup $end
     $var wire 12 $8 _GEN_16 $end
     $var wire 32 $9 testHarness_testUpdates_writeData $end
     $var wire 1 $B clock $end
     $var wire 32 $D io_in_pc $end
      $scope module registers $end
       $var wire 1 , testHarness_testUpdates_writeEnable $end
       $var wire 1 . testHarness_setup_setup $end
       $var wire 32 > testHarness_testUpdates_writeData $end
       $var wire 5 A readAddress1 $end
       $var wire 1 G clock $end
       $var wire 32 J io_readData1 $end
       $var wire 32 N registerFile $end
       $var wire 1 Y testHarness_setup_writeEnable $end
       $var wire 1 n writeEnable $end
       $var wire 5 y io_readAddress1 $end
       $var wire 5 "> testHarness_testUpdates_writeAddress $end
       $var wire 1 "Q io_writeEnable $end
       $var wire 32 "m testHarness_setup_writeData $end
       $var wire 32 #& io_writeData $end
       $var wire 5 #K testHarness_setup_readAddress $end
       $var wire 32 #Q io_readData2 $end
       $var wire 5 #U writeAddress $end
       $var wire 5 #q io_writeAddress $end
       $var wire 5 #s io_readAddress2 $end
        $scope module registerFile $end
          $scope module _T_33 $end
           $var wire 1 % en $end
           $var wire 1 0 pipeline_valid_0 $end
           $var wire 1 C clk $end
           $var wire 5 "E pipeline_addr_0 $end
           $var wire 1 "O mask $end
           $var wire 1 "w valid $end
           $var wire 5 #E addr $end
           $var wire 32 #h pipeline_data_0 $end
           $var wire 32 $< data $end
          $upscope $end
          $scope module _T_41 $end
           $var wire 32 q data $end
           $var wire 1 "B en $end
           $var wire 1 #6 clk $end
           $var wire 5 $/ addr $end
          $upscope $end
          $scope module _T_38 $end
           $var wire 1 "# clk $end
           $var wire 1 "p en $end
           $var wire 5 #) addr $end
           $var wire 32 $) data $end
          $upscope $end
        $upscope $end
      $upscope $end
      $scope module Decoder $end
       $var wire 1 8 io_controlSignals_memWrite $end
       $var wire 1 H io_controlSignals_memRead $end
       $var wire 1 "A io_op2Select $end
       $var wire 2 "M decodedControlSignals_6 $end
       $var wire 1 #4 io_controlSignals_regWrite $end
       $var wire 4 #T io_ALUop $end
       $var wire 1 #V io_op1Select $end
       $var wire 32 #Z io_instruction_instruction $end
       $var wire 1 $* io_controlSignals_jump $end
       $var wire 3 $F io_branchType $end
       $var wire 1 $P io_controlSignals_branch $end
       $var wire 3 $Q io_immType $end
      $upscope $end
    $upscope $end
    $scope module MEM $end
     $var wire 1 E io_out_memRead $end
     $var wire 1 ] DMEM $end
     $var wire 32 d testHarness_testUpdates_writeAddress $end
     $var wire 1 s io_in_regWrite $end
     $var wire 32 "C io_in_memData $end
     $var wire 5 "J io_out_writeAddress $end
     $var wire 32 "N testHarness_DMEMsetup_dataAddress $end
     $var wire 32 "R io_in_writeData $end
     $var wire 1 "Y io_out_regWrite $end
     $var wire 1 "_ io_in_memWrite $end
     $var wire 1 #@ testHarness_testUpdates_writeEnable $end
     $var wire 32 #G io_out_writeData $end
     $var wire 1 #M testHarness_DMEMsetup_writeEnable $end
     $var wire 32 #[ testHarness_DMEMpeek $end
     $var wire 32 #m io_dmemReadResult $end
     $var wire 1 $" testHarness_DMEMsetup_setup $end
     $var wire 32 $. testHarness_testUpdates_writeData $end
     $var wire 1 $7 clock $end
     $var wire 1 $K io_in_memRead $end
     $var wire 32 $O testHarness_DMEMsetup_dataIn $end
     $var wire 12 $W io_in_writeAddress $end
      $scope module DMEM $end
       $var wire 32 / testHarness_testUpdates_writeData $end
       $var wire 1 7 _GEN_6 $end
       $var wire 12 B data__T_24_addr_pipe_0 $end
       $var wire 1 V testHarness_testUpdates_writeEnable $end
       $var wire 32 ` testHarness_setup_dataAddress $end
       $var wire 12 a io_dataAddress $end
       $var wire 32 h testHarness_testUpdates_writeAddress $end
       $var wire 32 "' addressSource $end
       $var wire 32 "6 data $end
       $var wire 1 "f io_writeEnable $end
       $var wire 1 #A testHarness_setup_writeEnable $end
       $var wire 1 #C testHarness_setup_setup $end
       $var wire 1 #o clock $end
       $var wire 32 $' testHarness_setup_dataIn $end
       $var wire 32 $4 io_dataIn $end
       $var wire 32 $? io_dataOut $end
        $scope module data $end
          $scope module _T_26 $end
           $var wire 1 " clk $end
           $var wire 12 w addr $end
           $var wire 32 "* pipeline_data_0 $end
           $var wire 1 "` pipeline_valid_0 $end
           $var wire 32 "r data $end
           $var wire 1 #g en $end
           $var wire 12 #x pipeline_addr_0 $end
           $var wire 1 $+ valid $end
           $var wire 1 $C mask $end
          $upscope $end
          $scope module _T_24 $end
           $var wire 32 U data $end
           $var wire 1 #' clk $end
           $var wire 1 #n en $end
           $var wire 12 #z addr $end
          $upscope $end
        $upscope $end
      $upscope $end
    $upscope $end
    $scope module IF $end
     $var wire 1 # io_stall $end
     $var wire 1 ( testHarness_IMEMsetup_setup $end
     $var wire 1 ^ IMEM $end
     $var wire 32 l testHarness_IMEMsetup_instruction $end
     $var wire 32 "- io_inJ_nextPC $end
     $var wire 1 "= io_inJ_jump $end
     $var wire 32 "T _GEN_2 $end
     $var wire 1 "U clock $end
     $var wire 32 "Z instruction_instruction $end
     $var wire 32 "[ testHarness_PC $end
     $var wire 1 #R reset $end
     $var wire 32 #a testHarness_IMEMsetup_address $end
     $var wire 1 #v stalled $end
     $var wire 32 #w lastInstruction_instruction $end
     $var wire 32 $> io_out_pc $end
     $var wire 32 $@ io_out_instruction_instruction $end
     $var wire 32 $G pc $end
     $var wire 32 $R _GEN_0 $end
      $scope module IMEM $end
       $var wire 32 Q testHarness_setupSignals_instruction $end
       $var wire 12 [ instructions__T_20_addr_pipe_0 $end
       $var wire 1 "7 clock $end
       $var wire 32 "o testHarness_setupSignals_address $end
       $var wire 1 ## _GEN_4 $end
       $var wire 32 #, io_instruction $end
       $var wire 1 #J testHarness_setupSignals_setup $end
       $var wire 32 #y addressSource $end
       $var wire 32 $, testHarness_requestedAddress $end
       $var wire 32 $A io_instructionAddress $end
       $var wire 32 $J instructions $end
        $scope module instructions $end
          $scope module _T_18 $end
           $var wire 1 4 valid $end
           $var wire 1 K mask $end
           $var wire 1 r pipeline_valid_0 $end
           $var wire 12 "G addr $end
           $var wire 1 "L clk $end
           $var wire 32 #5 data $end
           $var wire 12 #; pipeline_addr_0 $end
           $var wire 32 $0 pipeline_data_0 $end
           $var wire 1 $E en $end
          $upscope $end
          $scope module _T_20 $end
           $var wire 1 "5 en $end
           $var wire 12 "i addr $end
           $var wire 1 #2 clk $end
           $var wire 32 #_ data $end
          $upscope $end
        $upscope $end
      $upscope $end
    $upscope $end
    $scope module IFBarrier $end
     $var wire 32 $ io_in_instruction_instruction $end
     $var wire 32 O io_out_instruction_instruction $end
     $var wire 1 #0 clock $end
     $var wire 32 #1 pc $end
     $var wire 32 #X io_in_pc $end
     $var wire 32 $6 io_out_pc $end
     $var wire 1 $: reset $end
    $upscope $end
    $scope module MEMBarrier $end
     $var wire 32 * regs_writeData $end
     $var wire 5 F io_out_writeAddress $end
     $var wire 1 p io_out_regWrite $end
     $var wire 32 t io_in_writeData $end
     $var wire 1 v io_in_memRead $end
     $var wire 1 { regs_memRead $end
     $var wire 1 #= io_out_memRead $end
     $var wire 1 #] io_in_regWrite $end
     $var wire 32 #^ io_out_writeData $end
     $var wire 5 #r io_in_writeAddress $end
     $var wire 1 #t regs_regWrite $end
     $var wire 1 #| clock $end
     $var wire 5 #} regs_writeAddress $end
    $upscope $end
    $scope module EX $end
     $var wire 1 + io_in_regWrite $end
     $var wire 12 X io_in_writeAddress $end
     $var wire 1 x io_out_memWrite $end
     $var wire 1 "% io_in_memWrite $end
     $var wire 63 ") _GEN_0 $end
     $var wire 32 "I io_in_op2 $end
     $var wire 32 "a io_in_memData $end
     $var wire 32 "c io_out_memData $end
     $var wire 32 #W io_in_op1 $end
     $var wire 4 #b io_in_aluOP $end
     $var wire 12 #l io_out_writeAddress $end
     $var wire 1 $% io_in_memRead $end
     $var wire 1 $& io_out_memRead $end
     $var wire 32 $- io_out_writeData $end
     $var wire 1 $V io_out_regWrite $end
    $upscope $end
    $scope module EXBarrier $end
     $var wire 1 - regs_regWrite $end
     $var wire 1 : io_in_regWrite $end
     $var wire 1 b clock $end
     $var wire 12 z io_in_writeAddress $end
     $var wire 1 } io_out_regWrite $end
     $var wire 32 ~ io_in_writeData $end
     $var wire 1 ", regs_memWrite $end
     $var wire 32 ". regs_memData $end
     $var wire 1 "D io_in_memWrite $end
     $var wire 32 "F regs_writeData $end
     $var wire 1 "X io_in_memRead $end
     $var wire 1 "y io_out_memWrite $end
     $var wire 32 "{ io_out_memData $end
     $var wire 1 #P regs_memRead $end
     $var wire 12 $# regs_writeAddress $end
     $var wire 12 $3 io_out_writeAddress $end
     $var wire 1 $H io_out_memRead $end
     $var wire 32 $X io_in_memData $end
     $var wire 32 $Y io_out_writeData $end
    $upscope $end
    $scope module IDBarrier $end
     $var wire 12 1 io_in_writeAddress $end
     $var wire 1 2 regs_regWrite $end
     $var wire 32 ? io_out_memData $end
     $var wire 1 I regs_memRead $end
     $var wire 4 L io_out_aluOP $end
     $var wire 1 M io_in_memWrite $end
     $var wire 32 W regs_op2 $end
     $var wire 32 k io_in_op2 $end
     $var wire 1 "2 regs_memWrite $end
     $var wire 32 "< io_out_op1 $end
     $var wire 1 "k io_out_memRead $end
     $var wire 32 "l regs_op1 $end
     $var wire 4 "u regs_aluOP $end
     $var wire 4 "v io_in_aluOP $end
     $var wire 1 #" io_out_regWrite $end
     $var wire 1 #$ io_in_memRead $end
     $var wire 32 #( io_in_op1 $end
     $var wire 32 #> regs_memData $end
     $var wire 1 #H io_in_regWrite $end
     $var wire 12 #S regs_writeAddress $end
     $var wire 12 #c io_out_writeAddress $end
     $var wire 1 #{ io_out_memWrite $end
     $var wire 32 $M io_in_memData $end
     $var wire 32 $N io_out_op2 $end
     $var wire 1 $\ clock $end
    $upscope $end
    $scope module JBarrier $end
     $var wire 1 5 io_in_jump $end
     $var wire 32 D regs_nextPC $end
     $var wire 32 T io_out_nextPC $end
     $var wire 1 f regs_jump $end
     $var wire 32 "+ io_in_nextPC $end
     $var wire 1 "V clock $end
     $var wire 1 #u io_out_jump $end
    $upscope $end
    $scope module WB $end
     $var wire 5 "$ io_in_writeAddress $end
     $var wire 32 "4 io_out_writeData $end
     $var wire 1 "H io_out_writeEnable $end
     $var wire 1 "z io_in_regWrite $end
     $var wire 32 #3 io_in_writeData $end
     $var wire 32 #j io_dmemData $end
     $var wire 1 $L io_in_memRead $end
     $var wire 5 $S io_out_writeAddress $end
    $upscope $end
  $upscope $end
$upscope $end
$enddefinitions $end
$dumpvars
0o
0$%
0#D
b00000000000000000000000000000000 #h
b00000000000000000000000000000000 $I
b00000000000000000000000000000000 $,
b00000000000000000000000000000000 "j
0"P
b00000000000000000000000000000000 "8
0$U
0#t
0m
b00000000000000000000000000000000 "I
b00000000000000000000000000000000 "4
b00000000000000000000000000000000 Q
b00000000000000000000000000000000 #*
b00000 "9
b000000000000000000000000000000000000000000000000000000000000000 ")
0#!
b00000000000000000000000000000000 #w
b000000000000 $3
b00000000000000000000000000000000 $X
0"#
b00000000000000000000000000000000 $;
b00000000000000000000000000000000 #Z
b00000000000000000000000000000000 "\
b00000000000000000000000000000000 #(
b00000000000000000000000000000000 "*
0#O
0r
0]
0#2
b000000000000 #c
0"Q
0H
0+
b00000000000000000000000000000000 $
b00000000000000000000000000000000 "C
b00000000000000000000000000000000 "&
1"5
b00000 "n
0#M
0p
0$&
b000000000000 $W
b00000000000000000000000000000000 q
0"d
b00000000000000000000000000000000 ?
0"2
b00000000000000000000000000000000 $J
b00000000000000000000000000000000 T
b000000000000 [
0#0
b00000 #}
0$T
b00000 #K
0#A
0"`
b00000 y
b00000 #.
0#$
b00000000000000000000000000000000 e
0:
b00000000000000000000000000000000 3
0$"
b00000000000000000000000000000000 $)
b000000000000 <
b00000000000000000000000000000000 /
b00000000000000000000000000000000 "c
b00000000000000000000000000000000 "1
b00000000000000000000000000000000 #j
0#P
b00000000000000000000000000000000 "W
b00000000000000000000000000000000 t
b00000000000000000000000000000000 _
0$1
0"=
b00000000000000000000000000000000 #W
0#~
b00000000000000000000000000000000 $G
0;
b00000 $/
0#L
0$B
0"k
b00000 #N
b00000 ";
b00000000000000000000000000000000 "6
b00000000000000000000000000000000 S
b00000000000000000000000000000000 >
1$C
0#@
0"_
1"O
b00000000000000000000000000000000 $Z
b00000000000000000000000000000000 #y
b00000 F
0"~
b00000000000000000000000000000000 #G
b000000000000 X
0|
b000000000000 &
0-
b00000000000000000000000000000000 $9
b00000000000000000000000000000000 #X
0"z
b00000 #+
b00000 "J
b00000000000000000000000000000000 #&
b00000000000000000000000000000000 "(
0"Y
0#:
0n
0Y
b000000000000 "i
b00000000000000000000000000000000 =
0'
b000000000000 $#
b00000000000000000000000000000000 "T
b00000000000000000000000000000000 #5
0$=
0j
1K
b00000000000000000000000000000000 N
08
0#
b00000000000000000000000000000000 "m
0$\
b00000000000000000000000000000000 $Y
b00000000000000000000000000000000 $D
b00000000000000000000000000000000 #1
0#{
b00000000000000000000000000000000 $'
0",
b00000000000000000000000000000000 "3
b00000000000000000000000000000000 #F
0M
b000000000000 B
1##
0#o
0"y
0$P
0}
0#R
0#=
b00000000000000000000000000000000 ~
b0000 L
0$L
b00000 "E
0#9
0"X
0G
b00000000000000000000000000000000 @
b00000000000000000000000000000000 "t
b00000000000000000000000000000000 $!
b00000000000000000000000000000000 $6
0"L
b000000000000 "}
0"7
0#-
b00000 "$
b00000000000000000000000000000000 $O
0C
b00000000000000000000000000000000 #Q
0""
b000000000000 w
0$[
0"|
0"g
0#H
b00000000000000000000000000000000 l
17
0V
0#]
b00000000000000000000000000000000 O
b00 #k
b0000 "v
0#v
0$:
0#Y
b00000000000000000000000000000000 h
0#<
b00000 #)
b00000000000000000000000000000000 ".
0g
b00000000000000000000000000000000 6
b00000000000000000000000000000000 $A
05
b00000000000000000000000000000000 #`
b00000000000000000000000000000000 `
b000000000000 #;
0#'
0x
b00000000000000000000000000000000 $R
b00000000000000000000000000000000 "s
b00000 #r
b00000 $S
b00000 #U
b00000000000000000000000000000000 "o
0%
0v
b00000 #8
0#6
b00000000000000000000000000000000 #3
0"U
b00000000000000000000000000000000 "R
b000 $F
0$E
0!
0#d
b00000000000000000000000000000000 $-
0$(
b00000000000000000000000000000000 "N
b00000000000000000000000000000000 k
b00000 ">
0"f
b00000000000000000000000000000000 #a
b000000000000 #x
b00000000000000000000000000000000 9
0"w
0{
0f
b000000000000 #l
b000000000000 $8
0I
04
b00000000000000000000000000000000 #_
b00000000000000000000000000000000 $@
b00000 A
b00000000000000000000000000000000 J
b00000000000000000000000000000000 "a
b00000000000000000000000000000000 #B
b00000000000000000000000000000000 i
b00000000000000000000000000000000 "/
0#i
1#n
b0000 #T
0b
0"V
0E
00
b00000000000000000000000000000000 $<
b00000000000000000000000000000000 #[
0(
0#V
b00000000000000000000000000000000 "]
b00000000000000000000000000000000 )
b00000000000000000000000000000000 $4
b00000000000000000000000000000000 "r
b00000000000000000000000000000000 "@
b00000000000000000000000000000000 "+
0$7
b00000000000000000000000000000000 #>
b000 $Q
0#|
0$H
0#g
0$+
0#J
b00000000000000000000000000000000 "<
b00000000000000000000000000000000 "'
b00000000000000000000000000000000 D
b00 "M
0"e
b00000000000000000000000000000000 U
0"H
0"
b00000000000000000000000000000000 $.
b000000000000 "G
b00000 "q
b00000000000000000000000000000000 "l
b00000 #/
0P
0"D
0#%
b00000000000000000000000000000000 #^
b00000000000000000000000000000000 #I
b00000000000000000000000000000000 $?
b00000000000000000000000000000000 #,
b00000000000000000000000000000000 "K
b000000000000 Z
b000000000000 R
0$K
b00000000000000000000000000000000 d
b0000 \
0"B
0c
0"%
b00000000000000000000000000000000 "{
b00000000000000000000000000000000 *
b00000000000000000000000000000000 #\
b000000000000 1
b00000 #p
0#f
0"p
0$2
b00000000000000000000000000000000 u
0"h
b000000000000 #z
0"S
0#4
0$*
b00000000000000000000000000000000 #m
0"!
b00000000000000000000000000000000 $N
b00000000000000000000000000000000 "Z
b000000000000 a
b0000 #b
b00000000000000000000000000000000 #7
b000000000000 z
b0000 "u
0#u
b00000000000000000000000000000000 $>
02
0$V
b00000 #E
0"b
b00000 ":
0$$
0#C
0"0
b00000000000000000000000000000000 "-
b00000 #s
0.
b00000000000000000000000000000000 "x
0$5
0"^
0#?
b00000000000000000000000000000000 "F
b00000000000000000000000000000000 "[
0"A
0#"
b000000000000 #S
0#e
0s
0^
b00000 "?
b00000000000000000000000000000000 W
b00000 #q
b00000000000000000000000000000000 $M
0,
b00000000000000000000000000000000 $0
$end
#0
b00000000000000000000000000000100 $R
1#R
b00000000000000000000000000000100 "T
b1111 #T
1$(
1$T
b1111 \
b1111 "v
1|
1$:
#1
1#0
1#|
1"7
1#o
1$B
1"L
1"U
1b
1G
b1111 L
1#?
b1111 "u
1#2
1$\
1"V
1#6
1$7
1#'
1C
1"#
1"
b1111 #b
1#%
#6
0#0
0#|
0"V
0$\
0#?
0#%
0#6
0"7
0"#
0"L
0C
0#o
0$B
0"U
0#2
0#'
0$7
0"
0G
0b
#11
1#0
1#|
1"7
1#o
1$B
1"L
1"U
1b
1G
1#?
1#2
1$\
1"V
1#6
1$7
1#'
1C
1"#
1"
1#%
#16
0#0
0#|
0"V
0$\
0#?
0#%
0#6
0"7
0"#
0"L
0C
0#o
0$B
0"U
0#2
0#'
0$7
0"
0G
0b
#21
1#0
1#|
1"7
1#o
1$B
1"L
1"U
1b
1G
1#?
1#2
1$\
1"V
1#6
1$7
1#'
1C
1"#
1"
1#%
#26
0#0
0#|
0"V
0$\
0#?
0#%
0#6
0"7
0"#
0"L
0C
0#o
0$B
0"U
0#2
0#'
0$7
0"
0G
0b
#31
1#0
1#|
1"7
1#o
1$B
1"L
1"U
1b
1G
1#?
1#2
1$\
1"V
1#6
1$7
1#'
1C
1"#
1"
1#%
#36
0#0
0#|
0"V
0$\
0#?
0#%
0#6
0"7
0"#
0"L
0C
0#o
0$B
0"U
0#2
0#'
0$7
0"
0G
0b
#41
1#0
1#|
1"7
1#o
1$B
1"L
1"U
1b
1G
1#?
1#2
1$\
1"V
1#6
1$7
1#'
1C
1"#
1"
1#%
#46
0$\
1#C
b00000000000000000000000000010011 #7
0$:
0"#
b00000000000000000000000000000000 $R
1#L
1#4
0$B
0#2
1.
1(
1$E
b00000000000000000000000000010011 "Z
1$"
b00000000000000000000000000010011 O
0#%
0"7
b0000 "v
b00000000011000101000001010110011 #\
0C
1"A
b00000000000000000000000000010011 $
1#-
1#<
1$1
0G
0b
b00000000011000101000001010110011 @
b00000000011000101000001010110011 l
0#6
1"e
0#o
b00000000011000101000001010110011 Q
0$(
1#J
0#'
0$T
b0000 \
0#R
0#0
0#|
0"V
0|
b0000 #T
1#H
b00000000000000000000000000010011 $@
0#?
14
1$5
1#!
0"L
b00000000011000101000001010110011 #5
0"U
0$7
0"
b00000000000000000000000000010011 #Z
#51
b00000000011000101000001010110011 #,
b00000000011000101000001010110011 $0
1#"
1"7
b0000 #b
b00000000011000101000001010110011 #_
1G
1#?
1#2
1#6
1$7
1"#
1"
1#%
1#0
1#|
1+
1#o
1$B
1"L
1"U
1b
b00000000000000000000000000010011 #w
b0000 "u
1$\
1"V
1#'
1C
b0000 L
12
1r
#56
b00000000000000000000000000000100 #y
b00000000000000000000000000010011 l
0$\
b00000000000000000000000000010011 #5
0#6
0"#
0#o
0$B
b00000000000000000000000000000100 S
0#2
0#'
b00000000000000000000000000000100 #a
b00000000000000000000000000010011 Q
0#0
0#|
0"V
0#?
b000000000100 "G
0#%
0"7
0"L
b00000000000000000000000000010011 #\
0C
b00000000000000000000000000000100 "o
0"U
b00000000000000000000000000010011 @
0$7
0"
b00000000000000000000000000000100 9
0G
0b
#61
1#0
b00000000000000000000000000010011 $0
b000000000100 #;
1#|
1"7
1#o
1$B
1"L
b000000000100 "i
1"U
1b
1G
b00000000000000000000000000010011 #_
1#?
1#2
1$\
1"V
1#6
b000000000100 [
b00000000000000000000000000010011 #,
1$7
1#'
1C
1"#
1"
1#%
#66
0#0
0#|
0"V
b00000000000000000000000000001000 "o
0$\
b00000000000000000000000000001000 #y
0#?
0#%
b00000000000000000000000000001000 9
0#6
0"7
0"#
0"L
b00000000000000000000000000001000 #a
0C
0#o
0$B
0"U
0#2
0#'
0$7
0"
0G
0b
b00000000000000000000000000001000 S
b000000001000 "G
#71
1#0
1#|
1"7
1#o
1$B
b000000001000 "i
1"L
1"U
1b
1G
1#?
1#2
1$\
1"V
1#6
1$7
1#'
1C
1"#
b000000001000 #;
1"
b000000001000 [
1#%
#76
0#0
b00000000000000000000000000001100 9
0#|
0"V
b00000000000000000000000000001100 "o
0$\
0#?
0#%
0#6
0"7
b00000000000000000000000000001100 #a
0"#
0"L
b00000000000000000000000000001100 #y
0C
0#o
0$B
0"U
0#2
0#'
0$7
b000000001100 "G
0"
b00000000000000000000000000001100 S
0G
0b
#81
1#0
1#|
1"7
1#o
1$B
1"L
1"U
1b
b000000001100 "i
1G
1#?
1#2
b000000001100 #;
1$\
1"V
b000000001100 [
1#6
1$7
1#'
1C
1"#
1"
1#%
#86
0#0
0#|
0"V
b00000000000000000000000000010000 #y
0$\
b00000000000000000000000000010000 #a
b00000000000000000000000000010000 "o
b00000000000000000000000000010000 S
0#?
0#%
0#6
0"7
b000000010000 "G
0"#
0"L
0C
0#o
b00000000000000000000000000010000 9
0$B
0"U
0#2
0#'
0$7
0"
0G
0b
#91
1#0
1#|
1"7
1#o
1$B
1"L
1"U
1b
1G
b000000010000 [
1#?
b000000010000 #;
1#2
b000000010000 "i
1$\
1"V
1#6
1$7
1#'
1C
1"#
1"
1#%
#96
0$\
b00000000000000000000000000010100 #a
0#6
0"#
b00000000000000000000000000010100 S
0#o
b00000000000000000000000000010100 9
0$B
b00000000000000000000000000010100 "o
b00000000011000101000001110110011 #5
0#2
0#'
b00000000000000000000000000010100 #y
0#0
0#|
0"V
b00000000011000101000001110110011 Q
0#?
0#%
0"7
0"L
b000000010100 "G
0C
b00000000011000101000001110110011 #\
0"U
b00000000011000101000001110110011 @
0$7
b00000000011000101000001110110011 l
0"
0G
0b
#101
1#0
1#|
1"7
1#o
1$B
1"L
b000000010100 "i
1"U
1b
b00000000011000101000001110110011 #_
1G
1#?
b00000000011000101000001110110011 #,
1#2
1$\
1"V
1#6
b000000010100 [
b000000010100 #;
1$7
1#'
1C
1"#
1"
b00000000011000101000001110110011 $0
1#%
#106
b00000000000000000000000000010011 l
0$\
b00000000000000000000000000011000 "o
b00000000000000000000000000010011 #5
0#6
0"#
0#o
0$B
b00000000000000000000000000011000 9
0#2
0#'
b000000011000 "G
b00000000000000000000000000010011 Q
0#0
0#|
0"V
b00000000000000000000000000011000 #y
0#?
0#%
0"7
0"L
b00000000000000000000000000010011 #\
b00000000000000000000000000011000 #a
0C
0"U
b00000000000000000000000000010011 @
0$7
b00000000000000000000000000011000 S
0"
0G
0b
#111
1#0
b00000000000000000000000000010011 $0
1#|
1"7
1#o
1$B
1"L
1"U
1b
1G
b000000011000 #;
b00000000000000000000000000010011 #_
1#?
1#2
b000000011000 "i
1$\
1"V
b000000011000 [
1#6
b00000000000000000000000000010011 #,
1$7
1#'
1C
1"#
1"
1#%
#116
0#0
0#|
0"V
b00000000000000000000000000011100 #a
b00000000000000000000000000011100 #y
0$\
b00000000000000000000000000011100 9
0#?
b000000011100 "G
0#%
0#6
0"7
0"#
0"L
0C
0#o
0$B
0"U
b00000000000000000000000000011100 S
b00000000000000000000000000011100 "o
0#2
0#'
0$7
0"
0G
0b
#121
1#0
1#|
1"7
1#o
1$B
1"L
1"U
1b
1G
b000000011100 [
1#?
1#2
1$\
1"V
b000000011100 #;
1#6
1$7
1#'
1C
1"#
1"
b000000011100 "i
1#%
#126
0#0
0#|
0"V
0$\
b00000000000000000000000000100000 S
b00000000000000000000000000100000 #a
0#?
0#%
b000000100000 "G
0#6
0"7
b00000000000000000000000000100000 9
0"#
b00000000000000000000000000100000 #y
0"L
0C
0#o
0$B
b00000000000000000000000000100000 "o
0"U
0#2
0#'
0$7
0"
0G
0b
