waveforms/add.s.vcd
$date
2022-10-26T12:02+0000
$end
$version
0.2
$end
$comment

$end
$timescale 1ns  $end
$scope module Tile $end
 $var wire 1 < io_regsWriteEnable $end
 $var wire 32 > io_regsReadData $end
 $var wire 32 V io_IMEMAddress $end
 $var wire 1 g io_regsDeviceWriteEnable $end
 $var wire 32 "> io_DMEMAddress $end
 $var wire 32 "h io_DMEMWriteData $end
 $var wire 1 "n CPU $end
 $var wire 32 "w io_regsDeviceWriteData $end
 $var wire 5 "~ io_regsDeviceWriteAddress $end
 $var wire 1 #8 clock $end
 $var wire 32 #= io_currentPC $end
 $var wire 5 #A io_regsAddress $end
 $var wire 1 #W io_DMEMWriteEnable $end
 $var wire 32 #Z io_memDeviceWriteAddress $end
 $var wire 32 #p io_IMEMWriteData $end
 $var wire 32 #t io_memDeviceWriteData $end
 $var wire 32 $; io_DMEMReadData $end
 $var wire 1 $A reset $end
 $var wire 1 $K io_setup $end
 $var wire 1 $X io_memDeviceWriteEnable $end
 $var wire 32 $v io_regsWriteData $end
  $scope module CPU.MEMBarrier $end
  $upscope $end
  $scope module CPU.EX $end
  $upscope $end
  $scope module CPU.EXBarrier $end
  $upscope $end
  $scope module CPU.MEM $end
  $upscope $end
  $scope module CPU.WB $end
  $upscope $end
  $scope module CPU.JBarrier $end
  $upscope $end
  $scope module CPU.IDBarrier $end
  $upscope $end
  $scope module CPU.ID $end
  $upscope $end
  $scope module CPU.ID.registers $end
  $upscope $end
  $scope module CPU.IFBarrier $end
  $upscope $end
  $scope module CPU.IF $end
  $upscope $end
  $scope module CPU.IF.IMEM $end
  $upscope $end
  $scope module CPU.MEM.DMEM $end
  $upscope $end
  $scope module CPU.ID.Decoder $end
  $upscope $end
  $scope module CPU $end
   $var wire 1 ' IDBarrier $end
   $var wire 32 ; testHarness_setupSignals_IMEMsignals_address $end
   $var wire 32 A testHarness_setupSignals_IMEMsignals_instruction $end
   $var wire 1 T testHarness_regUpdates_writeEnable $end
   $var wire 1 k ID $end
   $var wire 1 ", testHarness_memUpdates_writeEnable $end
   $var wire 32 "C testHarness_regUpdates_writeData $end
   $var wire 5 "E testHarness_regUpdates_writeAddress $end
   $var wire 5 "G testHarness_setupSignals_registerSignals_readAddress $end
   $var wire 32 "L testHarness_testReadouts_registerRead $end
   $var wire 32 "W testHarness_currentPC $end
   $var wire 1 "] IF $end
   $var wire 32 "i testHarness_memUpdates_writeAddress $end
   $var wire 1 "p IFBarrier $end
   $var wire 1 "q testHarness_setupSignals_DMEMsignals_setup $end
   $var wire 1 "s JBarrier $end
   $var wire 32 #( testHarness_testReadouts_DMEMread $end
   $var wire 32 #, testHarness_setupSignals_DMEMsignals_dataIn $end
   $var wire 1 #4 testHarness_setupSignals_IMEMsignals_setup $end
   $var wire 1 #R clock $end
   $var wire 32 #U testHarness_setupSignals_DMEMsignals_dataAddress $end
   $var wire 1 #_ testHarness_setupSignals_registerSignals_setup $end
   $var wire 1 #c MEM $end
   $var wire 1 #y testHarness_setupSignals_registerSignals_writeEnable $end
   $var wire 1 #z WB $end
   $var wire 1 #| EXBarrier $end
   $var wire 1 $: EX $end
   $var wire 32 $V testHarness_memUpdates_writeData $end
   $var wire 32 $e testHarness_setupSignals_registerSignals_writeData $end
   $var wire 1 $p reset $end
   $var wire 1 $q MEMBarrier $end
   $var wire 1 $w testHarness_setupSignals_DMEMsignals_writeEnable $end
    $scope module ID $end
     $var wire 1 ! testHarness_registerSetup_writeEnable $end
     $var wire 5 & io_ex_writeAddress $end
     $var wire 32 ) io_ex_writeData $end
     $var wire 32 3 regsource1 $end
     $var wire 32 5 io_out_op2 $end
     $var wire 32 8 io_wb_writeData $end
     $var wire 5 ^ io_out_writeAddress $end
     $var wire 4 ` io_out_aluOP $end
     $var wire 32 c b $end
     $var wire 32 i io_fwdOut_address2 $end
     $var wire 32 j testHarness_registerPeek $end
     $var wire 32 m _GEN_1 $end
     $var wire 1 n io_stall $end
     $var wire 1 q _GEN_4 $end
     $var wire 1 t io_wb_writeEnable $end
     $var wire 1 v io_outJ_jump $end
     $var wire 32 } io_out_memData $end
     $var wire 1 "( reset $end
     $var wire 1 "+ testHarness_testUpdates_writeEnable $end
     $var wire 32 "0 immediate $end
     $var wire 32 "2 savedInstruction_instruction $end
     $var wire 5 "7 _GEN_7 $end
     $var wire 32 ": io_outJ_nextPC $end
     $var wire 1 "; sigEX_STALL $end
     $var wire 32 "< testHarness_registerSetup_writeData $end
     $var wire 5 "F testHarness_testUpdates_writeAddress $end
     $var wire 5 "K rdaddress $end
     $var wire 32 "c io_out_op1 $end
     $var wire 1 "j io_ex_memRead $end
     $var wire 1 "t stalled $end
     $var wire 1 "x _GEN_6 $end
     $var wire 32 #! _GEN_0 $end
     $var wire 5 #$ io_mem_writeAddress $end
     $var wire 32 #& io_fwdOut_address1 $end
     $var wire 32 #' a $end
     $var wire 1 #0 io_mem_regWrite $end
     $var wire 2 #1 _GEN_17 $end
     $var wire 1 #3 io_ex_regWrite $end
     $var wire 5 #> testHarness_registerSetup_readAddress $end
     $var wire 32 #@ _GEN_3 $end
     $var wire 32 #I io_in_instruction_instruction $end
     $var wire 5 #J rs2address $end
     $var wire 1 #K registers $end
     $var wire 1 #L io_out_memRead $end
     $var wire 1 #N io_out_regWrite $end
     $var wire 32 #\ io_mem_writeData $end
     $var wire 5 #b io_wb_writeAddress $end
     $var wire 32 #d io_fwdOut_memDSrc $end
     $var wire 4 #u _GEN_2 $end
     $var wire 1 #{ stopped $end
     $var wire 1 $! Decoder $end
     $var wire 5 $' rs1address $end
     $var wire 1 $( _GEN_5 $end
     $var wire 32 $5 regsource2 $end
     $var wire 1 $L io_out_memWrite $end
     $var wire 1 $P testHarness_registerSetup_setup $end
     $var wire 1 $S _GEN_16 $end
     $var wire 32 $T testHarness_testUpdates_writeData $end
     $var wire 1 $] clock $end
     $var wire 32 $_ io_in_pc $end
      $scope module registers $end
       $var wire 1 , testHarness_testUpdates_writeEnable $end
       $var wire 1 / testHarness_setup_setup $end
       $var wire 32 ? testHarness_testUpdates_writeData $end
       $var wire 5 B readAddress1 $end
       $var wire 1 J clock $end
       $var wire 32 M io_readData1 $end
       $var wire 32 R registerFile $end
       $var wire 1 ] testHarness_setup_writeEnable $end
       $var wire 1 u writeEnable $end
       $var wire 5 "% io_readAddress1 $end
       $var wire 5 "J testHarness_testUpdates_writeAddress $end
       $var wire 1 "^ io_writeEnable $end
       $var wire 32 "} testHarness_setup_writeData $end
       $var wire 32 #9 io_writeData $end
       $var wire 5 #^ testHarness_setup_readAddress $end
       $var wire 32 #f io_readData2 $end
       $var wire 5 #j writeAddress $end
       $var wire 5 $* io_writeAddress $end
       $var wire 5 $, io_readAddress2 $end
        $scope module registerFile $end
          $scope module _T_33 $end
           $var wire 1 % en $end
           $var wire 1 1 pipeline_valid_0 $end
           $var wire 1 D clk $end
           $var wire 5 "Q pipeline_addr_0 $end
           $var wire 1 "\ mask $end
           $var wire 1 #+ valid $end
           $var wire 5 #X addr $end
           $var wire 32 #~ pipeline_data_0 $end
           $var wire 32 $W data $end
          $upscope $end
          $scope module _T_41 $end
           $var wire 32 x data $end
           $var wire 1 "N en $end
           $var wire 1 #H clk $end
           $var wire 5 $I addr $end
          $upscope $end
          $scope module _T_38 $end
           $var wire 1 "- clk $end
           $var wire 1 ## en $end
           $var wire 5 #< addr $end
           $var wire 32 $C data $end
          $upscope $end
        $upscope $end
      $upscope $end
      $scope module Decoder $end
       $var wire 1 : io_controlSignals_memWrite $end
       $var wire 1 K io_controlSignals_memRead $end
       $var wire 1 "M io_op2Select $end
       $var wire 2 "Z decodedControlSignals_6 $end
       $var wire 1 #F io_controlSignals_regWrite $end
       $var wire 4 #i io_ALUop $end
       $var wire 1 #k io_op1Select $end
       $var wire 32 #o io_instruction_instruction $end
       $var wire 1 $D io_controlSignals_jump $end
       $var wire 3 $b io_branchType $end
       $var wire 1 $l io_controlSignals_branch $end
       $var wire 3 $m io_immType $end
      $upscope $end
    $upscope $end
    $scope module MEM $end
     $var wire 1 G io_out_memRead $end
     $var wire 1 a DMEM $end
     $var wire 32 h testHarness_testUpdates_writeAddress $end
     $var wire 1 { io_in_regWrite $end
     $var wire 32 "O io_in_memData $end
     $var wire 5 "U io_out_writeAddress $end
     $var wire 32 "[ testHarness_DMEMsetup_dataAddress $end
     $var wire 32 "` io_in_writeData $end
     $var wire 1 "e io_out_regWrite $end
     $var wire 1 "k io_in_memWrite $end
     $var wire 1 #S testHarness_testUpdates_writeEnable $end
     $var wire 32 #Y io_out_writeData $end
     $var wire 1 #a testHarness_DMEMsetup_writeEnable $end
     $var wire 32 #n testHarness_DMEMpeek $end
     $var wire 32 $$ io_dmemReadResult $end
     $var wire 1 $< testHarness_DMEMsetup_setup $end
     $var wire 32 $H testHarness_testUpdates_writeData $end
     $var wire 1 $R clock $end
     $var wire 1 $g io_in_memRead $end
     $var wire 32 $j testHarness_DMEMsetup_dataIn $end
     $var wire 5 $s io_in_writeAddress $end
      $scope module DMEM $end
       $var wire 32 0 testHarness_testUpdates_writeData $end
       $var wire 1 9 _GEN_6 $end
       $var wire 12 C data__T_24_addr_pipe_0 $end
       $var wire 1 Y testHarness_testUpdates_writeEnable $end
       $var wire 32 d testHarness_setup_dataAddress $end
       $var wire 12 e io_dataAddress $end
       $var wire 32 l testHarness_testUpdates_writeAddress $end
       $var wire 32 "1 addressSource $end
       $var wire 32 "A data $end
       $var wire 1 "r io_writeEnable $end
       $var wire 1 #T testHarness_setup_writeEnable $end
       $var wire 1 #V testHarness_setup_setup $end
       $var wire 1 $& clock $end
       $var wire 32 $@ testHarness_setup_dataIn $end
       $var wire 32 $O io_dataIn $end
       $var wire 32 $Z io_dataOut $end
        $scope module data $end
          $scope module _T_26 $end
           $var wire 1 " clk $end
           $var wire 12 "! addr $end
           $var wire 32 "4 pipeline_data_0 $end
           $var wire 1 "l pipeline_valid_0 $end
           $var wire 32 #% data $end
           $var wire 1 #} en $end
           $var wire 12 $3 pipeline_addr_0 $end
           $var wire 1 $E valid $end
           $var wire 1 $^ mask $end
          $upscope $end
          $scope module _T_24 $end
           $var wire 32 X data $end
           $var wire 1 #: clk $end
           $var wire 1 $% en $end
           $var wire 12 $6 addr $end
          $upscope $end
        $upscope $end
      $upscope $end
    $upscope $end
    $scope module IF $end
     $var wire 1 # io_stall $end
     $var wire 1 ( testHarness_IMEMsetup_setup $end
     $var wire 1 b IMEM $end
     $var wire 32 p testHarness_IMEMsetup_instruction $end
     $var wire 32 "8 io_inJ_nextPC $end
     $var wire 1 "I io_inJ_jump $end
     $var wire 32 "a _GEN_2 $end
     $var wire 1 "b clock $end
     $var wire 32 "f instruction_instruction $end
     $var wire 32 "g testHarness_PC $end
     $var wire 1 #g reset $end
     $var wire 32 #v testHarness_IMEMsetup_address $end
     $var wire 1 $1 stalled $end
     $var wire 32 $2 lastInstruction_instruction $end
     $var wire 32 $Y io_out_pc $end
     $var wire 32 $[ io_out_instruction_instruction $end
     $var wire 32 $c pc $end
     $var wire 32 $n _GEN_0 $end
      $scope module IMEM $end
       $var wire 32 U testHarness_setupSignals_instruction $end
       $var wire 12 _ instructions__T_20_addr_pipe_0 $end
       $var wire 1 "B clock $end
       $var wire 32 #" testHarness_setupSignals_address $end
       $var wire 1 #6 _GEN_4 $end
       $var wire 32 #? io_instruction $end
       $var wire 1 #] testHarness_setupSignals_setup $end
       $var wire 32 $4 addressSource $end
       $var wire 32 $F testHarness_requestedAddress $end
       $var wire 32 $\ io_instructionAddress $end
       $var wire 32 $f instructions $end
        $scope module instructions $end
          $scope module _T_18 $end
           $var wire 1 6 valid $end
           $var wire 1 N mask $end
           $var wire 1 z pipeline_valid_0 $end
           $var wire 12 "S addr $end
           $var wire 1 "X clk $end
           $var wire 32 #G data $end
           $var wire 12 #M pipeline_addr_0 $end
           $var wire 32 $J pipeline_data_0 $end
           $var wire 1 $a en $end
          $upscope $end
          $scope module _T_20 $end
           $var wire 1 "@ en $end
           $var wire 12 "u addr $end
           $var wire 1 #D clk $end
           $var wire 32 #s data $end
          $upscope $end
        $upscope $end
      $upscope $end
    $upscope $end
    $scope module IFBarrier $end
     $var wire 32 $ io_in_instruction_instruction $end
     $var wire 32 S io_out_instruction_instruction $end
     $var wire 1 #B clock $end
     $var wire 32 #C pc $end
     $var wire 32 #m io_in_pc $end
     $var wire 32 $Q io_out_pc $end
     $var wire 1 $U reset $end
    $upscope $end
    $scope module MEMBarrier $end
     $var wire 32 * regs_writeData $end
     $var wire 5 H io_out_writeAddress $end
     $var wire 1 w io_out_regWrite $end
     $var wire 32 | io_in_writeData $end
     $var wire 1 ~ io_in_memRead $end
     $var wire 1 "' regs_memRead $end
     $var wire 1 #O io_out_memRead $end
     $var wire 1 #q io_in_regWrite $end
     $var wire 32 #r io_out_writeData $end
     $var wire 5 $+ io_in_writeAddress $end
     $var wire 1 $/ regs_regWrite $end
     $var wire 1 $8 clock $end
     $var wire 5 $9 regs_writeAddress $end
    $upscope $end
    $scope module EX $end
     $var wire 1 + io_in_regWrite $end
     $var wire 32 . io_fwdIn_address1 $end
     $var wire 32 E x $end
     $var wire 5 P io_wb_writeAddress $end
     $var wire 5 Z io_mem_writeAddress $end
     $var wire 5 \ io_in_writeAddress $end
     $var wire 63 r _GEN_6 $end
     $var wire 1 "" io_out_memWrite $end
     $var wire 32 "# io_mem_writeData $end
     $var wire 1 "/ io_in_memWrite $end
     $var wire 32 "3 _GEN_0 $end
     $var wire 32 "D io_wb_writeData $end
     $var wire 32 "V io_in_op2 $end
     $var wire 32 "Y io_ex_writeData $end
     $var wire 5 "_ io_ex_writeAddress $end
     $var wire 32 "m io_in_memData $end
     $var wire 32 "o io_out_memData $end
     $var wire 32 "| _GEN_2 $end
     $var wire 32 #2 io_fwdIn_memDSrc $end
     $var wire 1 #Q io_ex_regWrite $end
     $var wire 32 #` y $end
     $var wire 32 #l io_in_op1 $end
     $var wire 4 #w io_in_aluOP $end
     $var wire 5 $# io_out_writeAddress $end
     $var wire 32 $) io_fwdIn_address2 $end
     $var wire 1 $. io_mem_regWrite $end
     $var wire 1 $> io_in_memRead $end
     $var wire 1 $? io_out_memRead $end
     $var wire 32 $B _GEN_1 $end
     $var wire 32 $G io_out_writeData $end
     $var wire 1 $` io_wb_writeEnable $end
     $var wire 1 $r io_out_regWrite $end
    $upscope $end
    $scope module EXBarrier $end
     $var wire 1 - regs_regWrite $end
     $var wire 1 = io_in_regWrite $end
     $var wire 1 f clock $end
     $var wire 5 "& io_in_writeAddress $end
     $var wire 1 ") io_out_regWrite $end
     $var wire 32 "* io_in_writeData $end
     $var wire 1 "6 regs_memWrite $end
     $var wire 32 "9 regs_memData $end
     $var wire 1 "P io_in_memWrite $end
     $var wire 32 "R regs_writeData $end
     $var wire 1 "d io_in_memRead $end
     $var wire 1 #- io_out_memWrite $end
     $var wire 32 #/ io_out_memData $end
     $var wire 1 #e regs_memRead $end
     $var wire 5 $= regs_writeAddress $end
     $var wire 5 $N io_out_writeAddress $end
     $var wire 1 $d io_out_memRead $end
     $var wire 32 $t io_in_memData $end
     $var wire 32 $u io_out_writeData $end
    $upscope $end
    $scope module IDBarrier $end
     $var wire 5 2 io_in_writeAddress $end
     $var wire 1 4 regs_regWrite $end
     $var wire 32 @ io_out_memData $end
     $var wire 32 F io_oFw_address2 $end
     $var wire 32 I io_iFw_memDSrc $end
     $var wire 1 L regs_memRead $end
     $var wire 4 O io_out_aluOP $end
     $var wire 1 Q io_in_memWrite $end
     $var wire 32 [ regs_op2 $end
     $var wire 32 o io_in_op2 $end
     $var wire 32 s regFw_memDSrc $end
     $var wire 32 y regFw_address1 $end
     $var wire 32 "$ io_oFw_memDSrc $end
     $var wire 1 "= regs_memWrite $end
     $var wire 32 "H io_out_op1 $end
     $var wire 32 "v io_oFw_address1 $end
     $var wire 32 "y io_iFw_address2 $end
     $var wire 1 "z io_out_memRead $end
     $var wire 32 "{ regs_op1 $end
     $var wire 4 #) regs_aluOP $end
     $var wire 4 #* io_in_aluOP $end
     $var wire 1 #5 io_out_regWrite $end
     $var wire 1 #7 io_in_memRead $end
     $var wire 32 #; io_in_op1 $end
     $var wire 32 #P regs_memData $end
     $var wire 1 #[ io_in_regWrite $end
     $var wire 5 #h regs_writeAddress $end
     $var wire 5 #x io_out_writeAddress $end
     $var wire 32 $- regFw_address2 $end
     $var wire 1 $7 io_out_memWrite $end
     $var wire 32 $M io_iFw_address1 $end
     $var wire 32 $i io_in_memData $end
     $var wire 32 $k io_out_op2 $end
     $var wire 1 $x clock $end
    $upscope $end
    $scope module JBarrier $end
     $var wire 1 7 io_in_jump $end
     $var wire 32 W io_out_nextPC $end
     $var wire 32 "5 io_in_nextPC $end
     $var wire 1 $0 io_out_jump $end
    $upscope $end
    $scope module WB $end
     $var wire 5 ". io_in_writeAddress $end
     $var wire 32 "? io_out_writeData $end
     $var wire 1 "T io_out_writeEnable $end
     $var wire 1 #. io_in_regWrite $end
     $var wire 32 #E io_in_writeData $end
     $var wire 32 $" io_dmemData $end
     $var wire 1 $h io_in_memRead $end
     $var wire 5 $o io_out_writeAddress $end
    $upscope $end
  $upscope $end
$upscope $end
$enddefinitions $end
$dumpvars
0#D
b00000 $N
0=
0#c
0$D
0"P
b00000000000000000000000000000000 "8
b00000000000000000000000000000000 "#
0$U
0$8
0#W
1N
b00000000000000000000000000000000 "4
b00 "Z
0~
0"r
0#S
0a
0L
b000000000000 $3
0D
b00000000000000000000000000000000 E
b00000000000000000000000000000000 "y
b00000000000000000000000000000000 #o
b00000000000000000000000000000000 #Z
b00000000000000000000000000000000 0
b00000000000000000000000000000000 $;
b00000000000000000000000000000000 #(
b00000000000000000000000000000000 #=
0/
b00000000000000000000000000000000 "*
0z
0#O
0"n
0$0
b00000 #<
0]
b00000000000000000000000000000000 $T
b00000000000000000000000000000000 #s
b00000000000000000000000000000000 A
b00000000000000000000000000000000 s
b00000000000000000000000000000000 $i
0+
b00000000000000000000000000000000 $
b0000 `
b00000000000000000000000000000000 #9
b00000000000000000000000000000000 "C
b000000000000 _
0$`
0$X
0$.
0"l
0$&
0#0
0"d
b00000000000000000000000000000000 ?
b00000000000000000000000000000000 $J
0$q
b00000 $,
0$?
b00000000000000000000000000000000 m
b00000000000000000000000000000000 $[
0:
b000000000000 $6
b00000000000000000000000000000000 3
b00000000000000000000000000000000 $F
b00000000000000000000000000000000 "g
b00000000000000000000000000000000 $)
b00000000000000000000000000000000 "5
b00000000000000000000000000000000 $W
b00000000000000000000000000000000 #v
b00000000000000000000000000000000 "c
b00000000000000000000000000000000 "1
1#6
1"@
0$1
b00000 "G
b00000000000000000000000000000000 "W
b00000000000000000000000000000000 $j
0"=
b00000000000000000000000000000000 "v
b00000000000000000000000000000000 $G
b00000000000000000000000000000000 #f
b00000 H
0#a
0#L
0"k
b00000000000000000000000000000000 p
b00000000000000000000000000000000 [
b00000000000000000000000000000000 $f
0"N
b00000000000000000000000000000000 S
b00000000000000000000000000000000 >
b00000 "&
b00000 #$
0k
0$!
0$r
b00000000000000000000000000000000 $Z
0"-
0#_
b00000000000000000000000000000000 #G
b00000000000000000000000000000000 "f
b00000000000000000000000000000000 #2
b000000000000 C
0J
b00000000000000000000000000000000 $V
b00000000000000000000000000000000 .
b00000 B
0"z
0#[
0$<
b00000 "J
0"]
b00000000000000000000000000000000 "w
b00000000000000000000000000000000 M
0-
0"+
b00000000000000000000000000000000 "0
b00000000000000000000000000000000 $$
b00000000000000000000000000000000 #C
b00000000000000000000000000000000 #&
b000000000000000000000000000000000000000000000000000000000000000 r
b00000000000000000000000000000000 #?
b00000 "F
b00000000000000000000000000000000 #"
b00000000000000000000000000000000 "A
0#:
b00000000000000000000000000000000 "$
0$A
b00000000000000000000000000000000 o
0Y
0"M
0n
b00000000000000000000000000000000 $e
0<
0'
b00000000000000000000000000000000 $H
0#.
b00000000000000000000000000000000 "i
b00000000000000000000000000000000 "?
b00000000000000000000000000000000 $v
0"I
1$%
b0000 #*
b00000 $I
b00000000000000000000000000000000 $Y
b00000000000000000000000000000000 "m
0#
b00000 #h
0",
b00000 "U
0#{
b00000000000000000000000000000000 "3
b00000 $=
0$P
0"q
b00000000000000000000000000000000 $t
0#R
0K
0$a
0#k
0$L
b00000 $9
b00000 #X
0#N
0$/
0"X
b00000 "E
0G
b00000000000000000000000000000000 #r
0";
b00000000000000000000000000000000 @
b000000000000 #M
b00000000000000000000000000000000 #U
b00000000000000000000000000000000 #@
19
0#-
b00000000000000000000000000000000 $O
b00000000000000000000000000000000 #n
b00000 P
0""
b00000000000000000000000000000000 $2
b00000000000000000000000000000000 ">
0$x
b0000 #)
0$p
0#z
b00000 #J
0#]
0#H
b00000000000000000000000000000000 l
b0000 O
b00000 "7
b00000000000000000000000000000000 "2
0$>
b00000000000000000000000000000000 #E
b00000000000000000000000000000000 #d
b00000 $+
0#+
0$l
b00000 #x
b00000 $'
b00000000000000000000000000000000 "`
b00000000000000000000000000000000 $"
b00000000000000000000000000000000 }
0"x
b00000000000000000000000000000000 h
0$:
0g
b00000000000000000000000000000000 #`
0")
1"\
b00000000000000000000000000000000 $5
b000000000000 e
b00000000000000000000000000000000 $c
b00000000000000000000000000000000 ;
0#}
b00000000000000000000000000000000 #P
b00000000000000000000000000000000 "o
0v
0"j
0#K
0%
b00000 "_
b00000000000000000000000000000000 "R
b00000 "%
b00000 #j
b00000 2
0#y
b00000000000000000000000000000000 $B
0$E
b00000000000000000000000000000000 $-
0!
0$(
b00000000000000000000000000000000 #/
b00000000000000000000000000000000 "9
b00000000000000000000000000000000 V
06
b0000 #u
0{
b00000000000000000000000000000000 |
0f
0Q
b00000 ^
b00000000000000000000000000000000 #t
04
b00000000000000000000000000000000 $@
0"(
b00000000000000000000000000000000 "a
b00000 "Q
b00000000000000000000000000000000 i
b00000000000000000000000000000000 "L
b00000000000000000000000000000000 "D
b00000000000000000000000000000000 #%
b0000 #i
0w
b00000 $s
0b
0#7
b00000000000000000000000000000000 $n
b00000 Z
b00000000000000000000000000000000 #p
b00000000000000000000000000000000 $Q
0(
0$7
0#V
b00000000000000000000000000000000 "H
b00000000000000000000000000000000 $4
b00000000000000000000000000000000 )
b00000000000000000000000000000000 #!
0#|
0#g
0$]
0u
0#5
b00000000000000000000000000000000 "<
0"T
b000 $b
1$^
0q
0#F
0"e
b00000000000000000000000000000000 j
0T
b00000000000000000000000000000000 $u
b00000000000000000000000000000000 U
07
0"
b00000000000000000000000000000000 $C
b00000000000000000000000000000000 8
b00000000000000000000000000000000 "O
b00000000000000000000000000000000 ":
0#B
b00000000000000000000000000000000 $\
b000000000000 "u
b00000000000000000000000000000000 I
0"/
0"'
b00000000000000000000000000000000 "h
b00000000000000000000000000000000 #I
b00000000000000000000000000000000 "}
b00000000000000000000000000000000 #,
0$h
b00000 "~
0$S
0$K
0"t
b00000 $#
b00000000000000000000000000000000 y
b00000000000000000000000000000000 d
0#8
0##
0"B
01
b00000000000000000000000000000000 "{
b00000000000000000000000000000000 #\
b00000000000000000000000000000000 *
b000 $m
b00 #1
0$d
b00000 #>
0"p
0t
0#Q
b00000000000000000000000000000000 $k
0#4
b00000000000000000000000000000000 X
b00000000000000000000000000000000 #m
0"6
b00000000000000000000000000000000 #;
b0000 #w
0$w
b00000000000000000000000000000000 $_
b00000000000000000000000000000000 #~
b00000000000000000000000000000000 "V
b00000 \
b00000 #b
b00000000000000000000000000000000 "|
0"b
b00000000000000000000000000000000 R
b00000000000000000000000000000000 5
0$g
0$R
b00000000000000000000000000000000 #Y
0#q
b00000 #^
b00000 &
0"^
b00000000000000000000000000000000 #'
b00000000000000000000000000000000 x
b00000000000000000000000000000000 c
b00000 ".
0"s
b00000000000000000000000000000000 "[
b00000 "K
0#T
b00000 #A
b000000000000 "!
b00000000000000000000000000000000 F
b00000 $*
b000000000000 "S
0#e
b00000 $o
0#3
b00000000000000000000000000000000 W
b00000000000000000000000000000000 #l
b00000000000000000000000000000000 $M
0,
b00000000000000000000000000000000 "Y
$end
#0
b00000000000000000000000000000100 $n
b1111 #*
1#g
1"(
1$p
b1111 `
1$A
b00000000000000000000000000000100 "a
b1111 #i
b1111 #u
1$U
#1
1"X
b1111 O
1$R
1$x
1#8
1$&
1#:
1#D
1"B
1$]
1"
1"b
1D
1f
1$8
b1111 #w
1#B
1"-
1#R
1#H
1J
b1111 #)
#6
0#H
0#D
0J
0$&
0#:
0$x
0D
0$8
0"
0#B
0"B
0#8
0"-
0"X
0f
0$]
0"b
0#R
0$R
#11
1"X
1$R
1$x
1#8
1$&
1#:
1#D
1"B
1$]
1"b
1"
1D
1f
1$8
1#B
1"-
1#R
1#H
1J
#16
0#H
0#D
0J
0$&
0#:
0$x
0D
0$8
0"
0#B
0"B
0#8
0"-
0"X
0f
0$]
0"b
0#R
0$R
#21
1"X
1$R
1$x
1#8
1$&
1#:
1#D
1"B
1$]
1"b
1"
1D
1f
1$8
1#B
1"-
1#R
1#H
1J
#26
0#H
0#D
0J
0$&
0#:
0$x
0D
0$8
0"
0#B
0"B
0#8
0"-
0"X
0f
0$]
0"b
0#R
0$R
#31
1"X
1$R
1$x
1#8
1$&
1#:
1#D
1"B
1$]
1"b
1"
1D
1f
1$8
1#B
1"-
1#R
1#H
1J
#36
0#H
0#D
0J
0$&
0#:
0$x
0D
0$8
0"
0#B
0"B
0#8
0"-
0"X
0f
0$]
0"b
0#R
0$R
#41
1"X
1$R
1$x
1#8
1$&
1#:
1#D
1"B
1$]
1"b
1"
1D
1f
1$8
1#B
1"-
1#R
1#H
1J
#46
0#H
1"x
0J
1#[
b00000000011000101000001010110011 #p
0"
b00000000011000101000001010110011 U
b0000 #i
0"-
0"X
0"(
0$R
0#g
b00000000000000000000000000010011 S
1"M
b0000 #u
0$A
1$P
1(
b00000000011000101000001010110011 #G
b00000000000000000000000000010011 "f
b00000000000000000000000000010011 #I
1#]
0#:
1$a
0$x
0$p
0"b
0#R
b0000 #*
0$U
1"q
1$<
1#V
16
b0000 `
b00000000000000000000000000010011 $
1#_
0D
0$8
b00000000000000000000000000010011 $[
0"B
0f
0$]
b00000000011000101000001010110011 A
b00000000000000000000000000000000 $n
1$K
0#D
0$&
1#F
1/
b00000000011000101000001010110011 p
1#N
0#B
0#8
b00000000000000000000000000010011 #o
1#4
#51
1"X
1#8
1#:
1$]
b0000 #w
1"b
1D
1z
b00000000011000101000001010110011 #s
1$8
1#B
1+
1J
b00000000011000101000001010110011 #?
14
1$R
1$x
1$&
b0000 #)
1#D
1"B
b00000000000000000000000000010011 $2
1"
1f
b0000 O
1"-
1#R
1#H
b00000000011000101000001010110011 $J
1#5
#56
0#H
b00000000011000101000001110110011 U
0J
b000000000100 "S
b00000000000000000000000000000100 #"
b00000000011000101000001110110011 #p
b00000000000000000000000000000100 ;
b00000000011000101000001110110011 p
0D
0$8
0"
0"B
0"-
0"X
0f
0$]
b00000000000000000000000000000100 #v
b00000000011000101000001110110011 A
0$R
0#D
0$&
0#:
b00000000011000101000001110110011 #G
0$x
b00000000000000000000000000000100 V
0#B
b00000000000000000000000000000100 $4
0#8
0"b
0#R
#61
1"X
1$R
1$x
1#8
1$&
1#:
1#D
b00000000011000101000001110110011 #s
1"B
b000000000100 #M
b000000000100 "u
1$]
b000000000100 _
1"b
1"
1D
1f
1$8
1#B
b00000000011000101000001110110011 #?
1"-
1#R
b00000000011000101000001110110011 $J
1#H
1J
#66
0#H
0J
b00000000011000101000000000110011 #p
b00000000011000101000000000110011 U
b00000000000000000000000000001000 $4
0D
0$8
b00000000000000000000000000001000 V
0"
b00000000011000101000000000110011 #G
0"B
0"-
0"X
0f
0$]
b000000001000 "S
0$R
0#D
b00000000011000101000000000110011 p
0$&
b00000000000000000000000000001000 #"
b00000000000000000000000000001000 ;
0#:
0$x
b00000000000000000000000000001000 #v
0#B
0#8
b00000000011000101000000000110011 A
0"b
0#R
#71
1"X
1$R
1$x
1#8
b000000001000 _
b00000000011000101000000000110011 $J
1$&
b000000001000 #M
1#:
1#D
1"B
1$]
1"b
1"
1D
1f
b000000001000 "u
1$8
1#B
1"-
1#R
b00000000011000101000000000110011 #s
b00000000011000101000000000110011 #?
1#H
1J
#76
0#H
0J
b00000000011000111000001110110011 #G
0D
0$8
0"
0"B
0"-
0"X
0f
b00000000000000000000000000001100 #"
0$]
b00000000000000000000000000001100 $4
b000000001100 "S
0$R
0#D
b00000000000000000000000000001100 V
0$&
b00000000000000000000000000001100 #v
b00000000011000111000001110110011 U
0#:
0$x
0#B
b00000000000000000000000000001100 ;
0#8
b00000000011000111000001110110011 A
b00000000011000111000001110110011 #p
0"b
0#R
b00000000011000111000001110110011 p
#81
1"X
1$R
1$x
1#8
1$&
1#:
1#D
b00000000011000111000001110110011 #?
1"B
1$]
b00000000011000111000001110110011 #s
1"b
1"
1D
b000000001100 #M
1f
b00000000011000111000001110110011 $J
1$8
1#B
1"-
1#R
b000000001100 "u
b000000001100 _
1#H
1J
#86
0#H
b00000001110011100000111000110011 A
0J
b00000000000000000000000000010000 #v
b00000001110011100000111000110011 p
b00000000000000000000000000010000 #"
0D
0$8
0"
0"B
0"-
0"X
0f
b00000001110011100000111000110011 U
0$]
b00000000000000000000000000010000 V
0$R
b00000000000000000000000000010000 $4
0#D
0$&
b00000001110011100000111000110011 #G
0#:
0$x
0#B
0#8
0"b
0#R
b00000001110011100000111000110011 #p
b00000000000000000000000000010000 ;
b000000010000 "S
#91
1"X
1$R
1$x
1#8
1$&
1#:
1#D
b000000010000 "u
1"B
1$]
b00000001110011100000111000110011 #s
b000000010000 _
1"b
1"
b00000001110011100000111000110011 #?
1D
b000000010000 #M
1f
b00000001110011100000111000110011 $J
1$8
1#B
1"-
1#R
1#H
1J
