waveforms/addi.s.vcd
$date
2022-10-11T12:29+0000
$end
$version
0.2
$end
$comment

$end
$timescale 1ns  $end
$scope module Tile $end
 $var wire 1 6 io_regsWriteEnable $end
 $var wire 32 9 io_regsReadData $end
 $var wire 32 N io_IMEMAddress $end
 $var wire 1 ] io_regsDeviceWriteEnable $end
 $var wire 32 "* io_DMEMAddress $end
 $var wire 32 "P io_DMEMWriteData $end
 $var wire 1 "U CPU $end
 $var wire 32 "] io_regsDeviceWriteData $end
 $var wire 5 "a io_regsDeviceWriteAddress $end
 $var wire 1 "r clock $end
 $var wire 32 "x io_currentPC $end
 $var wire 5 "{ io_regsAddress $end
 $var wire 1 #2 io_DMEMWriteEnable $end
 $var wire 32 #5 io_memDeviceWriteAddress $end
 $var wire 32 #H io_IMEMWriteData $end
 $var wire 32 #L io_memDeviceWriteData $end
 $var wire 32 #h io_DMEMReadData $end
 $var wire 1 #n reset $end
 $var wire 1 #w io_setup $end
 $var wire 1 $# io_memDeviceWriteEnable $end
 $var wire 32 $@ io_regsWriteData $end
  $scope module CPU.MEMBarrier $end
  $upscope $end
  $scope module CPU.EX $end
  $upscope $end
  $scope module CPU.EXBarrier $end
  $upscope $end
  $scope module CPU.MEM $end
  $upscope $end
  $scope module CPU.WB $end
  $upscope $end
  $scope module CPU.JBarrier $end
  $upscope $end
  $scope module CPU.IDBarrier $end
  $upscope $end
  $scope module CPU.ID $end
  $upscope $end
  $scope module CPU.ID.registers $end
  $upscope $end
  $scope module CPU.IFBarrier $end
  $upscope $end
  $scope module CPU.IF $end
  $upscope $end
  $scope module CPU.IF.IMEM $end
  $upscope $end
  $scope module CPU.MEM.DMEM $end
  $upscope $end
  $scope module CPU.ID.Decoder $end
  $upscope $end
  $scope module CPU $end
   $var wire 1 % IDBarrier $end
   $var wire 32 4 testHarness_setupSignals_IMEMsignals_address $end
   $var wire 32 : testHarness_setupSignals_IMEMsignals_instruction $end
   $var wire 1 J testHarness_regUpdates_writeEnable $end
   $var wire 1 a ID $end
   $var wire 1 z testHarness_memUpdates_writeEnable $end
   $var wire 32 "/ testHarness_regUpdates_writeData $end
   $var wire 5 "1 testHarness_regUpdates_writeAddress $end
   $var wire 5 "2 testHarness_setupSignals_registerSignals_readAddress $end
   $var wire 32 "7 testHarness_testReadouts_registerRead $end
   $var wire 32 "B testHarness_currentPC $end
   $var wire 1 "F IF $end
   $var wire 32 "Q testHarness_memUpdates_writeAddress $end
   $var wire 1 "W IFBarrier $end
   $var wire 1 "X testHarness_setupSignals_DMEMsignals_setup $end
   $var wire 1 "Z JBarrier $end
   $var wire 32 "f testHarness_testReadouts_DMEMread $end
   $var wire 32 "j testHarness_setupSignals_DMEMsignals_dataIn $end
   $var wire 1 "n testHarness_setupSignals_IMEMsignals_setup $end
   $var wire 1 #- clock $end
   $var wire 32 #0 testHarness_setupSignals_DMEMsignals_dataAddress $end
   $var wire 1 #9 testHarness_setupSignals_registerSignals_setup $end
   $var wire 1 #< MEM $end
   $var wire 1 #P testHarness_setupSignals_registerSignals_writeEnable $end
   $var wire 1 #Q WB $end
   $var wire 1 #R EXBarrier $end
   $var wire 1 #f EX $end
   $var wire 32 $" testHarness_memUpdates_writeData $end
   $var wire 32 $1 testHarness_setupSignals_registerSignals_writeData $end
   $var wire 1 $; MEMBarrier $end
   $var wire 1 $< reset $end
   $var wire 1 $B testHarness_setupSignals_DMEMsignals_writeEnable $end
    $scope module ID $end
     $var wire 1 ! testHarness_registerSetup_writeEnable $end
     $var wire 32 0 io_out_op2 $end
     $var wire 12 T io_out_writeAddress $end
     $var wire 4 W io_out_aluOP $end
     $var wire 32 Y b $end
     $var wire 32 _ testHarness_registerPeek $end
     $var wire 32 c _GEN_1 $end
     $var wire 1 f io_wbIn_writeEnable $end
     $var wire 1 h io_outJ_jump $end
     $var wire 32 n io_out_memData $end
     $var wire 32 r io_wbIn_writeData $end
     $var wire 1 w testHarness_testUpdates_writeEnable $end
     $var wire 32 } immediate $end
     $var wire 32 "& io_outJ_nextPC $end
     $var wire 32 "( testHarness_registerSetup_writeData $end
     $var wire 5 "0 testHarness_testUpdates_writeAddress $end
     $var wire 5 "6 rdaddress $end
     $var wire 32 "L io_out_op1 $end
     $var wire 2 "[ _GEN_14 $end
     $var wire 32 "e a $end
     $var wire 5 "w testHarness_registerSetup_readAddress $end
     $var wire 5 "z _GEN_11 $end
     $var wire 5 #$ rs2address $end
     $var wire 32 #& io_in_instruction_instruction $end
     $var wire 1 #' registers $end
     $var wire 1 #( io_out_memRead $end
     $var wire 1 #* io_out_regWrite $end
     $var wire 5 #; io_wbIn_writeAddress $end
     $var wire 1 #U Decoder $end
     $var wire 5 #[ rs1address $end
     $var wire 1 #x io_out_memWrite $end
     $var wire 1 #{ testHarness_registerSetup_setup $end
     $var wire 32 #~ testHarness_testUpdates_writeData $end
     $var wire 1 $) clock $end
     $var wire 32 $+ io_in_pc $end
      $scope module registers $end
       $var wire 1 ) testHarness_testUpdates_writeEnable $end
       $var wire 1 , testHarness_setup_setup $end
       $var wire 32 8 testHarness_testUpdates_writeData $end
       $var wire 5 < readAddress1 $end
       $var wire 1 B clock $end
       $var wire 32 E io_readData1 $end
       $var wire 32 I registerFile $end
       $var wire 1 S testHarness_setup_writeEnable $end
       $var wire 1 g writeEnable $end
       $var wire 5 s io_readAddress1 $end
       $var wire 5 "5 testHarness_testUpdates_writeAddress $end
       $var wire 1 "H io_writeEnable $end
       $var wire 32 "` testHarness_setup_writeData $end
       $var wire 32 "s io_writeData $end
       $var wire 5 #8 testHarness_setup_readAddress $end
       $var wire 32 #> io_readData2 $end
       $var wire 5 #B writeAddress $end
       $var wire 5 #\ io_writeAddress $end
       $var wire 5 #^ io_readAddress2 $end
        $scope module registerFile $end
          $scope module _T_33 $end
           $var wire 1 $ en $end
           $var wire 1 - pipeline_valid_0 $end
           $var wire 1 > clk $end
           $var wire 5 "< pipeline_addr_0 $end
           $var wire 1 "G mask $end
           $var wire 1 "i valid $end
           $var wire 5 #4 addr $end
           $var wire 32 #T pipeline_data_0 $end
           $var wire 32 $$ data $end
          $upscope $end
          $scope module _T_41 $end
           $var wire 32 j data $end
           $var wire 1 "9 en $end
           $var wire 1 #% clk $end
           $var wire 5 #u addr $end
          $upscope $end
          $scope module _T_38 $end
           $var wire 1 y clk $end
           $var wire 1 "c en $end
           $var wire 5 "v addr $end
           $var wire 32 #o data $end
          $upscope $end
        $upscope $end
      $upscope $end
      $scope module Decoder $end
       $var wire 1 5 io_controlSignals_memWrite $end
       $var wire 1 C io_controlSignals_memRead $end
       $var wire 1 "8 io_op2Select $end
       $var wire 2 "D decodedControlSignals_6 $end
       $var wire 1 #" io_controlSignals_regWrite $end
       $var wire 4 #A io_ALUop $end
       $var wire 1 #C io_op1Select $end
       $var wire 32 #G io_instruction_instruction $end
       $var wire 1 #p io_controlSignals_jump $end
       $var wire 3 $. io_branchType $end
       $var wire 1 $7 io_controlSignals_branch $end
       $var wire 3 $8 io_immType $end
      $upscope $end
    $upscope $end
    $scope module MEM $end
     $var wire 1 @ io_out_memRead $end
     $var wire 1 V DMEM $end
     $var wire 32 ^ testHarness_testUpdates_writeAddress $end
     $var wire 1 l io_in_regWrite $end
     $var wire 32 ": io_in_memData $end
     $var wire 5 "@ io_out_writeAddress $end
     $var wire 32 "E testHarness_DMEMsetup_dataAddress $end
     $var wire 32 "I io_in_writeData $end
     $var wire 1 "N io_out_regWrite $end
     $var wire 1 "R io_in_memWrite $end
     $var wire 1 #. testHarness_testUpdates_writeEnable $end
     $var wire 32 #3 io_out_writeData $end
     $var wire 1 #: testHarness_DMEMsetup_writeEnable $end
     $var wire 32 #F testHarness_DMEMpeek $end
     $var wire 32 #X io_dmemReadResult $end
     $var wire 1 #i testHarness_DMEMsetup_setup $end
     $var wire 32 #t testHarness_testUpdates_writeData $end
     $var wire 1 #} clock $end
     $var wire 1 $3 io_in_memRead $end
     $var wire 32 $5 testHarness_DMEMsetup_dataIn $end
     $var wire 12 $> io_in_writeAddress $end
      $scope module DMEM $end
       $var wire 32 + testHarness_testUpdates_writeData $end
       $var wire 1 3 _GEN_6 $end
       $var wire 12 = data__T_24_addr_pipe_0 $end
       $var wire 1 P testHarness_testUpdates_writeEnable $end
       $var wire 32 Z testHarness_setup_dataAddress $end
       $var wire 12 [ io_dataAddress $end
       $var wire 32 b testHarness_testUpdates_writeAddress $end
       $var wire 32 ~ addressSource $end
       $var wire 32 "- data $end
       $var wire 1 "Y io_writeEnable $end
       $var wire 1 #/ testHarness_setup_writeEnable $end
       $var wire 1 #1 testHarness_setup_setup $end
       $var wire 1 #Z clock $end
       $var wire 32 #m testHarness_setup_dataIn $end
       $var wire 32 #z io_dataIn $end
       $var wire 32 $& io_dataOut $end
        $scope module data $end
          $scope module _T_26 $end
           $var wire 1 " clk $end
           $var wire 12 p addr $end
           $var wire 32 "! pipeline_data_0 $end
           $var wire 1 "S pipeline_valid_0 $end
           $var wire 32 "d data $end
           $var wire 1 #S en $end
           $var wire 12 #a pipeline_addr_0 $end
           $var wire 1 #q valid $end
           $var wire 1 $* mask $end
          $upscope $end
          $scope module _T_24 $end
           $var wire 32 O data $end
           $var wire 1 "t clk $end
           $var wire 1 #Y en $end
           $var wire 12 #c addr $end
          $upscope $end
        $upscope $end
      $upscope $end
    $upscope $end
    $scope module IFBarrier $end
     $var wire 32 # io_in_instruction_instruction $end
     $var wire 32 K io_out_instruction_instruction $end
     $var wire 1 "| clock $end
     $var wire 32 "} pc $end
     $var wire 32 #E io_in_pc $end
     $var wire 32 #| io_out_pc $end
     $var wire 1 $! reset $end
    $upscope $end
    $scope module IF $end
     $var wire 1 & testHarness_IMEMsetup_setup $end
     $var wire 1 X IMEM $end
     $var wire 32 d testHarness_IMEMsetup_instruction $end
     $var wire 32 "% io_inJ_nextPC $end
     $var wire 1 "3 io_inJ_jump $end
     $var wire 1 "J clock $end
     $var wire 32 "O testHarness_PC $end
     $var wire 1 #? reset $end
     $var wire 32 #M testHarness_IMEMsetup_address $end
     $var wire 32 $% io_out_pc $end
     $var wire 32 $' io_out_instruction_instruction $end
     $var wire 32 $- pc $end
     $var wire 32 $9 _GEN_0 $end
      $scope module IMEM $end
       $var wire 32 L testHarness_setupSignals_instruction $end
       $var wire 12 U instructions__T_20_addr_pipe_0 $end
       $var wire 1 ". clock $end
       $var wire 32 "b testHarness_setupSignals_address $end
       $var wire 1 "p _GEN_4 $end
       $var wire 32 "y io_instruction $end
       $var wire 1 #7 testHarness_setupSignals_setup $end
       $var wire 32 #b addressSource $end
       $var wire 32 #r testHarness_requestedAddress $end
       $var wire 32 $( io_instructionAddress $end
       $var wire 32 $0 instructions $end
        $scope module instructions $end
          $scope module _T_18 $end
           $var wire 1 1 valid $end
           $var wire 1 F mask $end
           $var wire 1 k pipeline_valid_0 $end
           $var wire 12 "= addr $end
           $var wire 1 "C clk $end
           $var wire 32 ## data $end
           $var wire 12 #) pipeline_addr_0 $end
           $var wire 32 #v pipeline_data_0 $end
           $var wire 1 $, en $end
          $upscope $end
          $scope module _T_20 $end
           $var wire 1 ", en $end
           $var wire 12 "\ addr $end
           $var wire 1 "~ clk $end
           $var wire 32 #K data $end
          $upscope $end
        $upscope $end
      $upscope $end
    $upscope $end
    $scope module EX $end
     $var wire 1 ' io_in_regWrite $end
     $var wire 12 R io_in_writeAddress $end
     $var wire 1 q io_out_memWrite $end
     $var wire 1 | io_in_memWrite $end
     $var wire 63 "" _GEN_0 $end
     $var wire 32 "A io_in_op2 $end
     $var wire 32 "T io_in_memData $end
     $var wire 32 "V io_out_memData $end
     $var wire 32 #D io_in_op1 $end
     $var wire 4 #N io_in_aluOP $end
     $var wire 12 #W io_out_writeAddress $end
     $var wire 1 #k io_in_memRead $end
     $var wire 1 #l io_out_memRead $end
     $var wire 32 #s io_out_writeData $end
     $var wire 1 $= io_out_regWrite $end
    $upscope $end
    $scope module MEMBarrier $end
     $var wire 32 ( regs_writeData $end
     $var wire 5 A io_out_writeAddress $end
     $var wire 1 i io_out_regWrite $end
     $var wire 32 m io_in_writeData $end
     $var wire 1 o io_in_memRead $end
     $var wire 1 u regs_memRead $end
     $var wire 1 #+ io_out_memRead $end
     $var wire 1 #I io_in_regWrite $end
     $var wire 32 #J io_out_writeData $end
     $var wire 5 #] io_in_writeAddress $end
     $var wire 1 #_ regs_regWrite $end
     $var wire 1 #e clock $end
     $var wire 5 #g regs_writeAddress $end
    $upscope $end
    $scope module EXBarrier $end
     $var wire 1 * regs_regWrite $end
     $var wire 1 7 io_in_regWrite $end
     $var wire 1 \ clock $end
     $var wire 12 t io_in_writeAddress $end
     $var wire 1 v io_out_regWrite $end
     $var wire 32 x io_in_writeData $end
     $var wire 1 "$ regs_memWrite $end
     $var wire 32 "' regs_memData $end
     $var wire 1 "; io_in_memWrite $end
     $var wire 32 "> regs_writeData $end
     $var wire 1 "M io_in_memRead $end
     $var wire 1 "k io_out_memWrite $end
     $var wire 32 "m io_out_memData $end
     $var wire 1 #= regs_memRead $end
     $var wire 12 #j regs_writeAddress $end
     $var wire 12 #y io_out_writeAddress $end
     $var wire 1 $/ io_out_memRead $end
     $var wire 32 $? io_in_memData $end
     $var wire 32 $A io_out_writeData $end
    $upscope $end
    $scope module IDBarrier $end
     $var wire 12 . io_in_writeAddress $end
     $var wire 1 / regs_regWrite $end
     $var wire 32 ; io_out_memData $end
     $var wire 1 D regs_memRead $end
     $var wire 4 G io_out_aluOP $end
     $var wire 1 H io_in_memWrite $end
     $var wire 32 Q regs_op2 $end
     $var wire 32 e io_in_op2 $end
     $var wire 1 ") regs_memWrite $end
     $var wire 32 "4 io_out_op1 $end
     $var wire 1 "^ io_out_memRead $end
     $var wire 32 "_ regs_op1 $end
     $var wire 4 "g regs_aluOP $end
     $var wire 4 "h io_in_aluOP $end
     $var wire 1 "o io_out_regWrite $end
     $var wire 1 "q io_in_memRead $end
     $var wire 32 "u io_in_op1 $end
     $var wire 32 #, regs_memData $end
     $var wire 1 #6 io_in_regWrite $end
     $var wire 12 #@ regs_writeAddress $end
     $var wire 12 #O io_out_writeAddress $end
     $var wire 1 #d io_out_memWrite $end
     $var wire 32 $4 io_in_memData $end
     $var wire 32 $6 io_out_op2 $end
     $var wire 1 $C clock $end
    $upscope $end
    $scope module JBarrier $end
     $var wire 1 2 io_in_jump $end
     $var wire 32 ? regs_nextPC $end
     $var wire 32 M io_out_nextPC $end
     $var wire 1 ` regs_jump $end
     $var wire 32 "# io_in_nextPC $end
     $var wire 1 "K clock $end
     $var wire 1 #` io_out_jump $end
    $upscope $end
    $scope module WB $end
     $var wire 5 { io_in_writeAddress $end
     $var wire 32 "+ io_out_writeData $end
     $var wire 1 "? io_out_writeEnable $end
     $var wire 1 "l io_in_regWrite $end
     $var wire 32 #! io_in_writeData $end
     $var wire 32 #V io_dmemData $end
     $var wire 1 $2 io_in_memRead $end
     $var wire 5 $: io_out_writeAddress $end
    $upscope $end
  $upscope $end
$upscope $end
$enddefinitions $end
$dumpvars
0o
0"c
1$*
13
b00000000000000000000000000000000 #h
b00000000000000000000000000000000 #K
b00000000000000000000000000000000 "j
b00000000000000000000000000000000 r
b00000 #;
0#1
b00000000000000000000000000000000 "#
b00000000000000000000000000000000 "I
b00000000000000000000000000000000 "4
b00000000000000000000000000000000 Q
0"r
0#S
0a
b00000000000000000000000000000000 b
b00000000000000000000000000000000 E
b00000000000000000000000000000000 0
0/
b000000000000 "\
b00000000000000000000000000000000 "y
0D
b00000000000000000000000000000000 #o
b00000000000000000000000000000000 "*
0z
0"n
0]
0H
b00000000000000000000000000000000 #s
b000000000000 #c
0@
b00000 #[
b00000000000000000000000000000000 #V
b00000 "z
b00000000000000000000000000000000 "u
0#2
b00000000000000000000000000000000 "&
b00000 {
0#w
0$C
0"l
b00000 "<
b000000000000 #a
0>
b00000000000000000000000000000000 ?
b000000000000 [
b00000000000000000000000000000000 m
0l
0"K
b000000000000 $>
b00000000000000000000000000000000 e
0"C
0".
b000000000000 #@
b00000000000000000000000000000000 #z
b00000000000000000000000000000000 #H
b00 "[
0`
b00000000000000000000000000000000 #v
0"?
b00000000000000000000000000000000 $%
b00000000000000000000000000000000 #D
b000000000000 U
b0000 #N
0#P
0"o
b00000000000000000000000000000000 _
b00000000000000000000000000000000 "%
b000000000000 #O
0$B
0"k
b00000 #$
0"N
0"9
b00000000000000000000000000000000 "!
0#/
0k
0$!
1"G
0#_
b00000000000000000000000000000000 $(
b00000000000000000000000000000000 "Q
b00000000000000000000000000000000 "f
b00000000000000000000000000000000 #G
0"~
0|
0J
0-
b00000000000000000000000000000000 #X
b00000000000000000000000000000000 "b
b00000000000000000000000000000000 $$
b000000000000 "=
b00000 #]
0#p
b00000000000000000000000000000000 "E
b00000000000000000000000000000000 M
b00000000000000000000000000000000 $9
b00000000000000000000000000000000 "(
b00000 "5
b00000000000000000000000000000000 #&
0$<
0"Y
0#:
b00000000000000000000000000000000 ^
b00000000000000000000000000000000 "A
0#`
0#.
0"M
0'
b00000 "v
b00000000000000000000000000000000 $+
b00000000000000000000000000000000 "T
b00000000000000000000000000000000 #J
b00000000000000000000000000000000 #5
b00000000000000000000000000000000 "7
0$=
b00000 "6
0#*
b00000000000000000000000000000000 N
0#{
b00000000000000000000000000000000 "m
b000000000000 #)
b00000000000000000000000000000000 $'
b00000000000000000000000000000000 "P
b00000000000000000000000000000000 "e
b00000000000000000000000000000000 #F
b000000000000 t
b00 "D
b00000 #\
0#Z
0$;
b00000000000000000000000000000000 ~
0$3
0#R
0#=
0#(
b00000000000000000000000000000000 L
b00000 "{
0h
0"q
1"p
b000 $8
0#k
b00000 "w
0y
0$/
0"X
0#9
0\
b000000000000 #j
0";
b00000000000000000000000000000000 #r
0*
b00000000000000000000000000000000 $6
b00000000000000000000000000000000 "_
b00000000000000000000000000000000 +
b00000000000000000000000000000000 ##
b00000000000000000000000000000000 "B
b000000000000000000000000000000000000000000000000000000000000000 ""
b00000000000000000000000000000000 n
0X
0C
b00000000000000000000000000000000 Y
0#-
0&
b00000000000000000000000000000000 ">
b00000 #g
0"|
b00000000000000000000000000000000 #E
b00000000000000000000000000000000 $&
b00000000000000000000000000000000 "d
0V
0#+
0$)
b000000000000 #y
b00000000000000000000000000000000 :
b0000 W
0"J
b00000000000000000000000000000000 O
b000 $.
1",
0#n
b00000000000000000000000000000000 "`
b00000000000000000000000000000000 }
0g
0#<
0#'
b00000000000000000000000000000000 $"
b00000000000000000000000000000000 K
05
0")
b00000000000000000000000000000000 $A
0"F
b000000000000 T
0)
b00000000000000000000000000000000 $5
b00000000000000000000000000000000 "s
b00000000000000000000000000000000 #T
0#l
b00000 $:
b0000 "h
b00000000000000000000000000000000 ;
0%
b00000000000000000000000000000000 $1
0#}
0v
b00000 #8
b00000000000000000000000000000000 #3
0#6
b00000000000000000000000000000000 Z
0"U
0"8
0$,
b00000000000000000000000000000000 (
06
0#d
0!
b00000000000000000000000000000000 $-
b00000000000000000000000000000000 #L
b00000 #4
b00000000000000000000000000000000 9
0f
0"Z
b00000 s
b000000000000 #W
b00000000000000000000000000000000 #t
b00000000000000000000000000000000 $@
b00000 A
b00000000000000000000000000000000 "L
b00000000000000000000000000000000 "/
b000000000000 p
0#i
1#Y
0w
0#7
b00000 #u
0"$
0$7
b00000000000000000000000000000000 "]
b00000000000000000000000000000000 #>
b00000000000000000000000000000000 $4
b00000000000000000000000000000000 #!
b00000000000000000000000000000000 "+
b00000 "0
b0000 "g
0u
0"i
b00000000000000000000000000000000 "'
b000000000000 .
0#x
0q
0i
b00000000000000000000000000000000 j
0"H
0"3
b00000000000000000000000000000000 8
b00000000000000000000000000000000 #
b00000000000000000000000000000000 #b
07
b00000000000000000000000000000000 #M
0"
b00000000000000000000000000000000 #0
b00000000000000000000000000000000 ":
b00000000000000000000000000000000 "O
0$#
1F
0P
b00000 "1
0#%
b00000000000000000000000000000000 I
b00000000000000000000000000000000 4
b00000000000000000000000000000000 $?
b00000000000000000000000000000000 "}
b00000000000000000000000000000000 #,
b000000000000 R
b000000000000 =
b00000 <
b00000 "a
0#U
b00000 #B
b00000000000000000000000000000000 d
0"W
0"t
b0000 G
01
0#f
0$2
0#Q
0#I
b00000 "@
0"S
0B
b00000000000000000000000000000000 #m
0S
b00000000000000000000000000000000 #~
b00000000000000000000000000000000 "V
b0000 #A
02
0#C
b00000000000000000000000000000000 #|
b00000000000000000000000000000000 "-
b00000 "2
b00000 #^
b00000000000000000000000000000000 "x
0#q
0#?
b00000000000000000000000000000000 x
0"^
b00000000000000000000000000000000 c
0#"
0#e
0"R
0,
0$
b00000000000000000000000000000000 $0
$end
#0
b00000000000000000000000000000100 $9
b1111 W
1#n
1$!
b1111 #A
1$<
b1111 "h
1#?
#1
1".
1#-
b1111 "g
1#Z
1#e
1"|
1$C
1>
1"J
1B
1"t
1"r
1"
1#}
1y
1"~
1"K
1#%
1\
1"C
1$)
b1111 G
b1111 #N
#6
0#}
0"J
0y
0$C
0"
0\
0"K
0>
0#e
0#-
0$)
0#%
0B
0#Z
0"t
0"r
0".
0"~
0"C
0"|
#11
1".
1#-
1#Z
1#e
1"|
1$C
1>
1"J
1B
1"t
1"r
1"
1#}
1y
1"~
1"K
1#%
1\
1"C
1$)
#16
0#}
0"J
0y
0$C
0"
0\
0"K
0>
0#e
0#-
0$)
0#%
0B
0#Z
0"t
0"r
0".
0"~
0"C
0"|
#21
1".
1#-
1#Z
1#e
1"|
1$C
1>
1"J
1B
1"t
1"r
1"
1#}
1y
1"~
1"K
1#%
1\
1"C
1$)
#26
0#}
0"J
0y
0$C
0"
0\
0"K
0>
0#e
0#-
0$)
0#%
0B
0#Z
0"t
0"r
0".
0"~
0"C
0"|
#31
1".
1#-
1#Z
1#e
1"|
1$C
1>
1"J
1B
1"t
1"r
1"
1#}
1y
1"~
1"K
1#%
1\
1"C
1$)
#36
0#}
0"J
0y
0$C
0"
0\
0"K
0>
0#e
0#-
0$)
0#%
0B
0#Z
0"t
0"r
0".
0"~
0"C
0"|
#41
1".
1#-
1#Z
1#e
1"|
1$C
1>
1"J
1B
1"t
1"r
1"
1#}
1y
1"~
1"K
1#%
1\
1"C
1$)
#46
b00000000000100001000000000010011 d
b00000000000000000000000000010011 #G
0"J
0\
0$C
1#{
1$,
0"K
0>
1"8
b0000 "h
1#7
0#?
0#e
0#-
b00000000000000000000000000010011 K
b0000 #A
0$)
0#%
1#6
0B
0#Z
0"r
b00000000000100001000000000010011 :
0$!
0#n
1#w
b00000000000000000000000000000000 $9
1#*
1#9
1,
11
0"C
b00000000000000000000000000010011 $'
0#}
1"X
0y
0$<
0"
1#1
b00000000000100001000000000010011 ##
b0000 W
b00000000000000000000000000010011 #
0"t
1#"
0".
1&
0"~
1"n
b00000000000100001000000000010011 L
1#i
b00000000000100001000000000010011 #H
b00000000000000000000000000010011 #&
0"|
#51
1#e
1>
1"J
1B
1"r
b00000000000100001000000000010011 #v
1y
1"~
1#%
1\
1"o
1"C
1".
1#-
1#Z
1k
1$C
b00000000000100001000000000010011 #K
1"|
1"t
1'
b0000 "g
1#}
1"
1/
b00000000000100001000000000010011 "y
1"K
b0000 G
1$)
b0000 #N
#56
0"J
0\
0$C
b00000000000000000000000000000100 N
b00000000000000000000000000010011 ##
0"K
0>
0#e
0#-
0$)
0#%
0B
0#Z
0"r
b00000000000000000000000000010011 L
b000000000100 "=
0"C
b00000000000000000000000000010011 d
0#}
0y
0"
b00000000000000000000000000010011 #H
b00000000000000000000000000000100 4
b00000000000000000000000000010011 :
b00000000000000000000000000000100 #M
0"t
0".
0"~
b00000000000000000000000000000100 "b
b00000000000000000000000000000100 #b
0"|
#61
1".
1#-
1#Z
1#e
1"|
1$C
1>
1"J
b000000000100 U
1B
1"t
1"r
1"
1#}
b00000000000000000000000000010011 "y
b00000000000000000000000000010011 #K
b00000000000000000000000000010011 #v
1y
1"~
1"K
1#%
1\
1"C
1$)
b000000000100 #)
b000000000100 "\
#66
b00000000000000000000000000001000 4
0#}
b00000000000000000000000000001000 N
0"J
0y
0$C
0"
0\
0"K
0>
0#e
0#-
0$)
0#%
0B
0#Z
0"t
0"r
b00000000000000000000000000001000 #M
0".
b00000000000000000000000000001000 "b
0"~
0"C
b00000000000000000000000000001000 #b
0"|
b000000001000 "=
#71
1".
1#-
b000000001000 U
1#Z
b000000001000 "\
1#e
1"|
1$C
1>
1"J
1B
1"t
1"r
1"
1#}
1y
b000000001000 #)
1"~
1"K
1#%
1\
1"C
1$)
#76
0#}
0"J
0y
0$C
0"
0\
0"K
0>
b00000000000000000000000000001100 N
b00000000000000000000000000001100 #M
0#e
0#-
0$)
0#%
0B
0#Z
b00000000000000000000000000001100 #b
b00000000000000000000000000001100 4
0"t
0"r
0".
0"~
b000000001100 "=
b00000000000000000000000000001100 "b
0"C
0"|
#81
1".
1#-
1#Z
1#e
b000000001100 "\
1"|
1$C
1>
1"J
1B
1"t
1"r
1"
1#}
b000000001100 #)
1y
1"~
1"K
b000000001100 U
1#%
1\
1"C
1$)
#86
0#}
0"J
0y
0$C
0"
0\
0"K
0>
b00000000000000000000000000010000 "b
0#e
0#-
0$)
0#%
0B
0#Z
b00000000000000000000000000010000 N
0"t
b00000000000000000000000000010000 #M
0"r
0".
0"~
b00000000000000000000000000010000 4
b00000000000000000000000000010000 #b
0"C
0"|
b000000010000 "=
#91
1".
1#-
1#Z
1#e
b000000010000 "\
1"|
1$C
1>
1"J
b000000010000 #)
1"t
1"r
1B
1"
b000000010000 U
1#}
1y
1"~
1"K
1#%
1\
1"C
1$)
#96
0"J
0\
0$C
0"K
0>
b00000000000000000000000000010100 #M
0#e
0#-
0$)
0#%
0B
0#Z
b00000000001000001000000000010011 L
b00000000001000001000000000010011 d
0"r
b000000010100 "=
b00000000000000000000000000010100 N
0"C
0#}
0y
0"
b00000000000000000000000000010100 "b
b00000000001000001000000000010011 ##
0"t
0".
0"~
b00000000001000001000000000010011 :
b00000000000000000000000000010100 4
b00000000000000000000000000010100 #b
0"|
b00000000001000001000000000010011 #H
#101
1".
b00000000001000001000000000010011 "y
1#-
1#Z
1#e
b000000010100 "\
1"|
1$C
1>
1"J
1B
1"t
1"r
1"
1#}
b00000000001000001000000000010011 #K
b00000000001000001000000000010011 #v
1y
b000000010100 #)
1"~
1"K
1#%
b000000010100 U
1\
1"C
1$)
#106
0"J
0\
0$C
b00000000000000000000000000010011 ##
0"K
0>
0#e
0#-
0$)
0#%
0B
0#Z
0"r
b00000000000000000000000000010011 L
b000000011000 "=
0"C
b00000000000000000000000000010011 d
0#}
0y
b00000000000000000000000000011000 #M
0"
b00000000000000000000000000010011 #H
b00000000000000000000000000011000 4
b00000000000000000000000000010011 :
b00000000000000000000000000011000 #b
0"t
0".
0"~
b00000000000000000000000000011000 "b
0"|
b00000000000000000000000000011000 N
#111
1".
1#-
1#Z
1#e
b000000011000 "\
1"|
1$C
1>
1"J
1B
1"t
1"r
b000000011000 #)
1#}
1"
b00000000000000000000000000010011 "y
b000000011000 U
b00000000000000000000000000010011 #K
b00000000000000000000000000010011 #v
1y
1"~
1"K
1#%
1\
1"C
1$)
#116
0#}
0"J
0y
0$C
0"
0\
0"K
0>
b00000000000000000000000000011100 N
b00000000000000000000000000011100 #M
0#e
0#-
0$)
0#%
0B
0#Z
b00000000000000000000000000011100 "b
0"t
0"r
b000000011100 "=
b00000000000000000000000000011100 #b
0".
0"~
0"C
b00000000000000000000000000011100 4
0"|
#121
1".
1#-
1#Z
1#e
1"|
1$C
1>
1"J
b000000011100 U
1B
1"t
1"r
1"
1#}
1y
b000000011100 "\
1"~
b000000011100 #)
1#%
1"K
1\
1"C
1$)
#126
0#}
0"J
0y
0$C
0"
0\
0"K
0>
b00000000000000000000000000100000 #M
0#e
0#-
0$)
0#%
0B
0#Z
0"t
0"r
b00000000000000000000000000100000 #b
0".
0"~
b00000000000000000000000000100000 4
b00000000000000000000000000100000 "b
0"C
b000000100000 "=
0"|
b00000000000000000000000000100000 N
#131
1".
1#-
1#Z
1#e
1"|
1$C
1>
1"J
b000000100000 "\
1B
1"t
1"r
1"
1#}
1y
b000000100000 #)
1"~
b000000100000 U
1#%
1"K
1\
1"C
1$)
#136
0#}
0"J
0y
0$C
0"
0\
0"K
0>
0#e
0#-
0$)
0#%
0B
0#Z
b00000000000000000000000000100100 4
0"t
0"r
0".
b00000000000000000000000000100100 #b
0"~
b00000000000000000000000000100100 "b
b00000000000000000000000000100100 N
b00000000000000000000000000100100 #M
0"C
b000000100100 "=
0"|
#141
1".
1#-
1#Z
b000000100100 "\
1#e
b000000100100 U
1"|
1$C
1>
1"J
b000000100100 #)
1B
1"t
1"r
1"
1#}
1y
1"~
1"K
1#%
1\
1"C
1$)
#146
0"J
0\
0$C
0"K
0>
b00000000000000000000000000101000 4
0#e
0#-
0$)
0#%
0B
0#Z
0"r
b00000000000000000000000000101000 "b
b000000101000 "=
0"C
b00000000001100001000000000010011 ##
b00000000001100001000000000010011 #H
b00000000000000000000000000101000 #M
0#}
0y
0"
b00000000001100001000000000010011 d
b00000000001100001000000000010011 L
b00000000000000000000000000101000 #b
0"t
0".
0"~
b00000000001100001000000000010011 :
b00000000000000000000000000101000 N
0"|
#151
1".
1#-
1#Z
1#e
1"|
1$C
1>
1"J
b00000000001100001000000000010011 #v
1B
1"t
1"r
1"
b000000101000 U
1#}
b000000101000 "\
b00000000001100001000000000010011 #K
1y
b000000101000 #)
1"~
1"K
1#%
1\
1"C
1$)
b00000000001100001000000000010011 "y
