waveforms/addi.s.vcd
$date
2022-09-23T18:00+0000
$end
$version
0.2
$end
$comment

$end
$timescale 1ns  $end
$scope module Tile $end
 $var wire 1 - io_regsWriteEnable $end
 $var wire 32 / io_regsReadData $end
 $var wire 32 ; io_IMEMAddress $end
 $var wire 1 D io_regsDeviceWriteEnable $end
 $var wire 32 T io_DMEMAddress $end
 $var wire 32 h io_DMEMWriteData $end
 $var wire 1 k CPU $end
 $var wire 32 o io_regsDeviceWriteData $end
 $var wire 5 q io_regsDeviceWriteAddress $end
 $var wire 1 { clock $end
 $var wire 32 ~ io_currentPC $end
 $var wire 5 "" io_regsAddress $end
 $var wire 1 ". io_DMEMWriteEnable $end
 $var wire 32 "/ io_memDeviceWriteAddress $end
 $var wire 32 "9 io_IMEMWriteData $end
 $var wire 32 "; io_memDeviceWriteData $end
 $var wire 32 "G io_DMEMReadData $end
 $var wire 1 "J reset $end
 $var wire 1 "Q io_setup $end
 $var wire 1 "V io_memDeviceWriteEnable $end
 $var wire 32 "d io_regsWriteData $end
  $scope module CPU.MEM $end
  $upscope $end
  $scope module CPU.ID.registers $end
  $upscope $end
  $scope module CPU.IFBarrier $end
  $upscope $end
  $scope module CPU.IF $end
  $upscope $end
  $scope module CPU.IF.IMEM $end
  $upscope $end
  $scope module CPU.MEM.DMEM $end
  $upscope $end
  $scope module CPU $end
   $var wire 32 , testHarness_setupSignals_IMEMsignals_address $end
   $var wire 32 . testHarness_setupSignals_IMEMsignals_instruction $end
   $var wire 1 9 testHarness_regUpdates_writeEnable $end
   $var wire 1 E ID $end
   $var wire 1 O testHarness_memUpdates_writeEnable $end
   $var wire 32 X testHarness_regUpdates_writeData $end
   $var wire 5 Y testHarness_regUpdates_writeAddress $end
   $var wire 5 Z testHarness_setupSignals_registerSignals_readAddress $end
   $var wire 32 ] testHarness_testReadouts_registerRead $end
   $var wire 32 a testHarness_currentPC $end
   $var wire 1 d IF $end
   $var wire 32 i testHarness_memUpdates_writeAddress $end
   $var wire 1 l IFBarrier $end
   $var wire 1 m testHarness_setupSignals_DMEMsignals_setup $end
   $var wire 32 u testHarness_testReadouts_DMEMread $end
   $var wire 32 w testHarness_setupSignals_DMEMsignals_dataIn $end
   $var wire 1 x testHarness_setupSignals_IMEMsignals_setup $end
   $var wire 1 "* clock $end
   $var wire 32 ", testHarness_setupSignals_DMEMsignals_dataAddress $end
   $var wire 1 "2 testHarness_setupSignals_registerSignals_setup $end
   $var wire 1 "5 MEM $end
   $var wire 1 "= testHarness_setupSignals_registerSignals_writeEnable $end
   $var wire 32 "U testHarness_memUpdates_writeData $end
   $var wire 32 "` testHarness_setupSignals_registerSignals_writeData $end
   $var wire 1 "c reset $end
   $var wire 1 "e testHarness_setupSignals_DMEMsignals_writeEnable $end
    $scope module MEM $end
     $var wire 1 @ DMEM $end
     $var wire 32 C testHarness_testUpdates_writeAddress $end
     $var wire 32 c testHarness_DMEMsetup_dataAddress $end
     $var wire 1 ") testHarness_testUpdates_writeEnable $end
     $var wire 1 "4 testHarness_DMEMsetup_writeEnable $end
     $var wire 32 "8 testHarness_DMEMpeek $end
     $var wire 1 "H testHarness_DMEMsetup_setup $end
     $var wire 32 "N testHarness_testUpdates_writeData $end
     $var wire 1 "S clock $end
     $var wire 32 "a testHarness_DMEMsetup_dataIn $end
      $scope module DMEM $end
       $var wire 32 ' testHarness_testUpdates_writeData $end
       $var wire 1 + _GEN_6 $end
       $var wire 12 1 data__T_24_addr_pipe_0 $end
       $var wire 1 = testHarness_testUpdates_writeEnable $end
       $var wire 32 B testHarness_setup_dataAddress $end
       $var wire 32 G testHarness_testUpdates_writeAddress $end
       $var wire 32 Q addressSource $end
       $var wire 32 V data $end
       $var wire 1 "+ testHarness_setup_writeEnable $end
       $var wire 1 "- testHarness_setup_setup $end
       $var wire 1 "A clock $end
       $var wire 32 "I testHarness_setup_dataIn $end
       $var wire 32 "X io_dataOut $end
        $scope module data $end
          $scope module _T_26 $end
           $var wire 1 ! clk $end
           $var wire 12 L addr $end
           $var wire 32 R pipeline_data_0 $end
           $var wire 1 j pipeline_valid_0 $end
           $var wire 32 t data $end
           $var wire 1 "> en $end
           $var wire 12 "D pipeline_addr_0 $end
           $var wire 1 "K valid $end
           $var wire 1 "\ mask $end
          $upscope $end
          $scope module _T_24 $end
           $var wire 32 < data $end
           $var wire 1 z clk $end
           $var wire 1 "@ en $end
           $var wire 12 "F addr $end
          $upscope $end
        $upscope $end
      $upscope $end
    $upscope $end
    $scope module ID $end
     $var wire 1 " testHarness_registerSetup_writeEnable $end
     $var wire 32 F testHarness_registerPeek $end
     $var wire 1 N testHarness_testUpdates_writeEnable $end
     $var wire 32 S testHarness_registerSetup_writeData $end
     $var wire 5 [ testHarness_testUpdates_writeAddress $end
     $var wire 5 "! testHarness_registerSetup_readAddress $end
     $var wire 32 "% io_in_instruction_instruction $end
     $var wire 1 "' registers $end
     $var wire 1 "R testHarness_registerSetup_setup $end
     $var wire 32 "T testHarness_testUpdates_writeData $end
     $var wire 1 "[ clock $end
      $scope module registers $end
       $var wire 1 & testHarness_testUpdates_writeEnable $end
       $var wire 1 ( testHarness_setup_setup $end
       $var wire 32 0 testHarness_testUpdates_writeData $end
       $var wire 5 2 readAddress1 $end
       $var wire 1 4 clock $end
       $var wire 32 6 io_readData1 $end
       $var wire 32 : registerFile $end
       $var wire 1 > testHarness_setup_writeEnable $end
       $var wire 1 I writeEnable $end
       $var wire 5 M io_readAddress1 $end
       $var wire 5 \ testHarness_testUpdates_writeAddress $end
       $var wire 32 p testHarness_setup_writeData $end
       $var wire 5 "3 testHarness_setup_readAddress $end
       $var wire 5 "7 writeAddress $end
       $var wire 5 "B io_writeAddress $end
       $var wire 5 "C io_readAddress2 $end
        $scope module registerFile $end
          $scope module _T_33 $end
           $var wire 1 $ en $end
           $var wire 1 ) pipeline_valid_0 $end
           $var wire 1 3 clk $end
           $var wire 5 _ pipeline_addr_0 $end
           $var wire 1 e mask $end
           $var wire 1 v valid $end
           $var wire 5 "0 addr $end
           $var wire 32 "? pipeline_data_0 $end
           $var wire 32 "W data $end
          $upscope $end
          $scope module _T_41 $end
           $var wire 32 J data $end
           $var wire 1 ^ en $end
           $var wire 1 "& clk $end
           $var wire 5 "O addr $end
          $upscope $end
          $scope module _T_38 $end
           $var wire 1 P clk $end
           $var wire 1 s en $end
           $var wire 5 | addr $end
           $var wire 32 "M data $end
          $upscope $end
        $upscope $end
      $upscope $end
    $upscope $end
    $scope module IFBarrier $end
     $var wire 32 # io_in_instruction_instruction $end
     $var wire 32 8 io_out_instruction_instruction $end
    $upscope $end
    $scope module IF $end
     $var wire 1 % testHarness_IMEMsetup_setup $end
     $var wire 1 A IMEM $end
     $var wire 32 H testHarness_IMEMsetup_instruction $end
     $var wire 1 f clock $end
     $var wire 32 g testHarness_PC $end
     $var wire 1 "6 reset $end
     $var wire 32 "< testHarness_IMEMsetup_address $end
     $var wire 32 "Z io_out_instruction_instruction $end
     $var wire 32 "^ pc $end
     $var wire 32 "b _GEN_0 $end
      $scope module IMEM $end
       $var wire 32 7 testHarness_setupSignals_instruction $end
       $var wire 12 ? instructions__T_20_addr_pipe_0 $end
       $var wire 1 W clock $end
       $var wire 32 r testHarness_setupSignals_address $end
       $var wire 1 y _GEN_4 $end
       $var wire 32 } io_instruction $end
       $var wire 1 "1 testHarness_setupSignals_setup $end
       $var wire 32 "E addressSource $end
       $var wire 32 "L testHarness_requestedAddress $end
       $var wire 32 "Y io_instructionAddress $end
       $var wire 32 "_ instructions $end
        $scope module instructions $end
          $scope module _T_18 $end
           $var wire 1 * valid $end
           $var wire 1 5 mask $end
           $var wire 1 K pipeline_valid_0 $end
           $var wire 12 ` addr $end
           $var wire 1 b clk $end
           $var wire 32 "$ data $end
           $var wire 12 "( pipeline_addr_0 $end
           $var wire 32 "P pipeline_data_0 $end
           $var wire 1 "] en $end
          $upscope $end
          $scope module _T_20 $end
           $var wire 1 U en $end
           $var wire 12 n addr $end
           $var wire 1 "# clk $end
           $var wire 32 ": data $end
          $upscope $end
        $upscope $end
      $upscope $end
    $upscope $end
  $upscope $end
  $scope module CPU.ID $end
  $upscope $end
$upscope $end
$enddefinitions $end
$dumpvars
b00000000000000000000000000000000 <
b00000000000000000000000000000000 '
0&
0"c
b00000 |
0=
0"1
b00000 _
b00000000000000000000000000000000 "U
b00000000000000000000000000000000 r
b00000000000000000000000000000000 "M
b00000000000000000000000000000000 "8
b00000000000000000000000000000000 "d
b000000000000 ?
b00000 "7
b00000 ""
0"J
b00000000000000000000000000000000 :
0m
b00000000000000000000000000000000 "I
b00000000000000000000000000000000 Q
1e
b00000000000000000000000000000000 "`
b00000000000000000000000000000000 }
b00000000000000000000000000000000 h
0"[
b00000 "3
b00000000000000000000000000000000 6
0")
b000000000000 "(
b00000000000000000000000000000000 w
b00000 Y
b00000000000000000000000000000000 0
0"#
0D
b00000000000000000000000000000000 "G
0x
1"\
0)
0z
0"Q
0@
b00000000000000000000000000000000 "X
0W
b00000000000000000000000000000000 ;
0%
0v
b00000 2
b00000 "B
b00000000000000000000000000000000 T
0>
0"2
0!
b000000000000 "F
b00000000000000000000000000000000 "N
b00000000000000000000000000000000 "9
b00000000000000000000000000000000 V
0"4
b00000 "!
0l
0"K
0O
0".
1y
0{
0f
0I
b000000000000 n
b00000000000000000000000000000000 J
04
b000000000000 "D
b00000000000000000000000000000000 "a
b00000000000000000000000000000000 "L
b00000000000000000000000000000000 i
b00000000000000000000000000000000 "/
0"*
b00000000000000000000000000000000 /
0b
0"V
b00000 Z
0E
0(
b00000 "0
1"@
b00000000000000000000000000000000 "W
b00000000000000000000000000000000 t
0"=
b00000000000000000000000000000000 "%
b00000000000000000000000000000000 B
b00000000000000000000000000000000 "<
b000000000000 `
b00000 "C
b00000000000000000000000000000000 p
b00000000000000000000000000000000 S
0"e
15
0"H
b00000000000000000000000000000000 8
b00000000000000000000000000000000 #
0"
0k
b00000000000000000000000000000000 ":
0N
09
0"-
b00000 [
0P
03
0"'
1+
b00000000000000000000000000000000 .
0-
b00000000000000000000000000000000 "b
0"]
b00000000000000000000000000000000 "E
0"+
b00000000000000000000000000000000 G
b00000000000000000000000000000000 "^
b000000000000 1
b00000000000000000000000000000000 ",
b00000000000000000000000000000000 "$
b00000000000000000000000000000000 ,
b00000 M
1U
b00000000000000000000000000000000 u
0"S
b00000000000000000000000000000000 ";
b00000000000000000000000000000000 X
0">
0"6
b00000000000000000000000000000000 C
b00000000000000000000000000000000 "Z
b00000000000000000000000000000000 o
b000000000000 L
b00000000000000000000000000000000 "T
b00000000000000000000000000000000 "?
b00000000000000000000000000000000 7
0j
b00000000000000000000000000000000 "P
0d
b00000 \
b00000 "O
b00000000000000000000000000000000 g
b00000000000000000000000000000000 R
b00000000000000000000000000000000 ~
b00000000000000000000000000000000 a
0K
b00000000000000000000000000000000 c
0"A
b00000000000000000000000000000000 F
b00000000000000000000000000000000 ]
b00000000000000000000000000000000 H
b00000 q
0"&
0*
b00000000000000000000000000000000 "_
0s
0^
0"R
0A
0"5
0$
b00000000000000000000000000000000 "Y
$end
#0
b00000000000000000000000000000100 "b
1"6
1"J
1"c
#1
1"A
14
1"S
1P
1f
1"*
1"[
1b
1W
1!
1"&
1{
1"#
1z
13
#6
04
0z
0"S
0"#
0P
03
0{
0"*
0!
0"[
0b
0W
0"&
0f
0"A
#11
1"A
14
1"S
1P
1f
1"*
1"[
1b
1W
1!
1"&
1{
1"#
1z
13
#16
04
0z
0"S
0"#
0P
03
0{
0"*
0!
0"[
0b
0W
0"&
0f
0"A
#21
1"A
14
1"S
1P
1f
1"*
1"[
1b
1W
1!
1"&
1{
1"#
1z
13
#26
04
0z
0"S
0"#
0P
03
0{
0"*
0!
0"[
0b
0W
0"&
0f
0"A
#31
1"A
14
1"S
1P
1f
1"*
1"[
1b
1W
1!
1"&
1{
1"#
1z
13
#36
04
0z
0"S
0"#
0P
03
0{
0"*
0!
0"[
0b
0W
0"&
0f
0"A
#41
1"A
14
1"S
1P
1f
1"*
1"[
1b
1W
1!
1"&
1{
1"#
1z
13
#46
04
1m
b00000000000000000000000000010011 "Z
0"S
0"#
b00000000000100001000000000010011 .
b00000000000100001000000000010011 "$
1"R
0"*
0!
1%
1"1
b00000000000000000000000000010011 #
0"6
0b
1"]
b00000000000000000000000000010011 "%
b00000000000100001000000000010011 "9
1x
0f
1"Q
b00000000000100001000000000010011 H
0z
0"J
b00000000000000000000000000000000 "b
0P
03
1"H
0"c
0{
b00000000000100001000000000010011 7
1"-
0"[
1*
0W
0"&
1(
b00000000000000000000000000010011 8
0"A
1"2
#51
1"A
14
1"S
1P
b00000000000100001000000000010011 }
1f
1"*
1K
b00000000000100001000000000010011 "P
1"[
1b
1W
1!
1"&
b00000000000100001000000000010011 ":
1{
1"#
1z
13
#56
04
0z
b000000000100 `
0"S
0"#
0P
03
b00000000000000000000000000010011 H
b00000000000000000000000000010011 7
0{
b00000000000000000000000000000100 "E
b00000000000000000000000000010011 .
0"*
0!
b00000000000000000000000000000100 "<
b00000000000000000000000000000100 ,
0"[
0b
b00000000000000000000000000000100 r
b00000000000000000000000000010011 "9
0W
b00000000000000000000000000010011 "$
b00000000000000000000000000000100 ;
0"&
0f
0"A
#61
1"A
b000000000100 ?
1"S
14
1P
1f
1"*
b00000000000000000000000000010011 ":
b000000000100 "(
b00000000000000000000000000010011 }
1"[
1b
b00000000000000000000000000010011 "P
1W
1!
b000000000100 n
1"&
1{
1"#
1z
13
#66
04
b00000000000000000000000000001000 "<
0z
b000000001000 `
0"S
0"#
0P
03
b00000000000000000000000000001000 r
b00000000000000000000000000001000 ,
b00000000000000000000000000001000 ;
0{
b00000000000000000000000000001000 "E
0"*
0!
0"[
0b
0W
0"&
0f
0"A
#71
1"A
14
b000000001000 "(
1"S
1P
1f
1"*
1"[
1b
1W
1!
b000000001000 ?
b000000001000 n
1"&
1{
1"#
1z
13
#76
04
0z
b00000000000000000000000000001100 "E
b00000000000000000000000000001100 ,
0"S
0"#
0P
b00000000000000000000000000001100 ;
03
0{
0"*
0!
0"[
0b
b000000001100 `
0W
0"&
0f
b00000000000000000000000000001100 "<
b00000000000000000000000000001100 r
0"A
#81
1"A
14
1"S
1P
1f
1"*
1"[
1b
1W
b000000001100 "(
b000000001100 n
1!
1"&
1{
b000000001100 ?
1"#
1z
13
#86
04
b00000000000000000000000000010000 r
0z
0"S
0"#
0P
03
0{
b00000000000000000000000000010000 "<
0"*
0!
b00000000000000000000000000010000 ,
0"[
0b
0W
b00000000000000000000000000010000 ;
b00000000000000000000000000010000 "E
b000000010000 `
0"&
0f
0"A
#91
1"A
14
1"S
1P
b000000010000 "(
1f
1"*
1"[
1b
1W
b000000010000 ?
1!
b000000010000 n
1"&
1{
1"#
1z
13
#96
04
0z
b00000000000000000000000000010100 r
0"S
0"#
0P
03
b00000000000000000000000000010100 ;
b000000010100 `
0{
b00000000001000001000000000010011 .
0"*
b00000000000000000000000000010100 "<
0!
b00000000001000001000000000010011 "$
0"[
b00000000001000001000000000010011 H
b00000000000000000000000000010100 "E
0b
b00000000000000000000000000010100 ,
0W
b00000000001000001000000000010011 "9
0"&
0f
b00000000001000001000000000010011 7
0"A
#101
1"A
14
1"S
b000000010100 n
1P
b000000010100 "(
1"*
1f
1"[
1b
b00000000001000001000000000010011 }
1W
1!
b00000000001000001000000000010011 "P
1"&
1{
b000000010100 ?
b00000000001000001000000000010011 ":
1"#
1z
13
#106
04
0z
b00000000000000000000000000011000 "E
0"S
0"#
0P
03
b000000011000 `
b00000000000000000000000000011000 r
b00000000000000000000000000010011 H
b00000000000000000000000000010011 7
0{
b00000000000000000000000000011000 ;
0"*
b00000000000000000000000000010011 .
0!
0"[
b00000000000000000000000000011000 ,
0b
b00000000000000000000000000010011 "9
0W
b00000000000000000000000000011000 "<
b00000000000000000000000000010011 "$
0"&
0f
0"A
#111
1"A
14
1"S
1P
1f
b000000011000 ?
1"*
b000000011000 n
b00000000000000000000000000010011 ":
b00000000000000000000000000010011 }
1"[
1b
b00000000000000000000000000010011 "P
1W
1!
b000000011000 "(
1"&
1{
1"#
1z
13
#116
04
b00000000000000000000000000011100 "E
b00000000000000000000000000011100 "<
0z
0"S
0"#
0P
03
0{
0"*
0!
b000000011100 `
0"[
b00000000000000000000000000011100 r
0b
0W
b00000000000000000000000000011100 ,
0"&
0f
b00000000000000000000000000011100 ;
0"A
#121
1"A
b000000011100 ?
1"S
14
1P
1f
1"*
b000000011100 n
1"[
1b
1W
1!
1"&
1{
1"#
1z
b000000011100 "(
13
#126
04
b000000100000 `
0z
0"S
b00000000000000000000000000100000 ;
0"#
0P
03
b00000000000000000000000000100000 "<
0{
b00000000000000000000000000100000 r
b00000000000000000000000000100000 "E
0"*
0!
0"[
0b
0W
0"&
0f
0"A
b00000000000000000000000000100000 ,
#131
1"A
14
1"S
1P
1f
1"*
b000000100000 "(
1"[
1b
1W
1!
b000000100000 n
1"&
1{
b000000100000 ?
1"#
1z
13
#136
04
0z
b00000000000000000000000000100100 r
0"S
b00000000000000000000000000100100 ,
0"#
0P
03
b000000100100 `
0{
0"*
b00000000000000000000000000100100 ;
0!
0"[
0b
b00000000000000000000000000100100 "E
0W
b00000000000000000000000000100100 "<
0"&
0f
0"A
#141
1"A
14
1"S
1P
1f
1"*
1"[
1b
b000000100100 "(
1W
1!
b000000100100 n
b000000100100 ?
1"&
1{
1"#
1z
13
#146
04
b00000000001100001000000000010011 "$
0z
b00000000001100001000000000010011 "9
0"S
b00000000001100001000000000010011 .
0"#
0P
b00000000000000000000000000101000 ,
03
b00000000000000000000000000101000 r
b00000000001100001000000000010011 H
0{
b00000000001100001000000000010011 7
b00000000000000000000000000101000 "<
0"*
b00000000000000000000000000101000 ;
0!
0"[
b00000000000000000000000000101000 "E
0b
0W
b000000101000 `
0"&
0f
0"A
#151
1"A
14
b000000101000 "(
1"S
1P
1f
1"*
1"[
1b
b00000000001100001000000000010011 }
1W
1!
b000000101000 n
1"&
b00000000001100001000000000010011 ":
1{
b00000000001100001000000000010011 "P
b000000101000 ?
1"#
1z
13
#156
04
0z
0"S
0"#
0P
03
b00000000000000000000000000010011 H
b00000000000000000000000000010011 7
0{
b00000000000000000000000000010011 .
0"*
b00000000000000000000000000101100 ,
0!
b00000000000000000000000000101100 "<
0"[
0b
b000000101100 `
b00000000000000000000000000010011 "9
0W
b00000000000000000000000000101100 "E
b00000000000000000000000000010011 "$
b00000000000000000000000000101100 ;
b00000000000000000000000000101100 r
0"&
0f
0"A
#161
1"A
14
1"S
1P
1f
1"*
b00000000000000000000000000010011 ":
b00000000000000000000000000010011 }
1"[
1b
b00000000000000000000000000010011 "P
1W
1!
1"&
b000000101100 n
1{
b000000101100 ?
1"#
b000000101100 "(
1z
13
#166
04
0z
b00000000000000000000000000110000 r
b00000000000000000000000000110000 "E
0"S
0"#
0P
03
b000000110000 `
b00000000000000000000000000110000 ,
0{
b00000000000000000000000000110000 ;
0"*
0!
b00000000000000000000000000110000 "<
0"[
0b
0W
0"&
0f
0"A
#171
1"A
14
1"S
1P
b000000110000 ?
1f
1"*
b000000110000 n
1"[
1b
1W
1!
1"&
1{
1"#
1z
13
b000000110000 "(
#176
04
b00000000000000000000000000110100 "E
0z
b00000000000000000000000000110100 ;
0"S
0"#
0P
03
0{
b00000000000000000000000000110100 "<
b000000110100 `
0"*
0!
0"[
0b
b00000000000000000000000000110100 r
0W
0"&
0f
b00000000000000000000000000110100 ,
0"A
#181
1"A
14
1"S
1P
1f
1"*
1"[
1b
1W
1!
b000000110100 ?
b000000110100 n
1"&
1{
1"#
1z
b000000110100 "(
13
#186
04
b00000000000000000000000000111000 r
0z
b00000000000000000000000000111000 "<
0"S
0"#
0P
03
0{
0"*
0!
b00000000000000000000000000111000 "E
0"[
b000000111000 `
0b
0W
b00000000000000000000000000111000 ;
0"&
0f
b00000000000000000000000000111000 ,
0"A
#191
1"A
14
1"S
1P
1f
1"*
b000000111000 "(
1"[
1b
1W
b000000111000 ?
1!
b000000111000 n
1"&
1{
1"#
1z
13
#196
04
b00000000000000000000000000111100 ,
b00000000000000000000000000111100 "<
b00000000011100001000000000010011 .
b00000000000000000000000000111100 r
0z
0"S
0"#
0P
03
0{
0"*
0!
b00000000011100001000000000010011 "9
b00000000011100001000000000010011 H
b00000000011100001000000000010011 7
0"[
b00000000011100001000000000010011 "$
b00000000000000000000000000111100 "E
b00000000000000000000000000111100 ;
0b
b000000111100 `
0W
0"&
0f
0"A
#201
b000000111100 "(
1"A
1"S
14
1P
1f
1"*
1"[
1b
1W
b00000000011100001000000000010011 ":
b000000111100 n
1!
b00000000011100001000000000010011 }
1"&
1{
b000000111100 ?
1"#
1z
13
b00000000011100001000000000010011 "P
#206
04
0z
b00000000000000000000000001000000 ;
0"S
0"#
0P
03
b00000000000000000000000001000000 ,
b00000000000000000000000000010011 H
b00000000000000000000000000010011 7
0{
b00000000000000000000000001000000 r
b00000000000000000000000001000000 "<
b00000000000000000000000000010011 .
0"*
0!
0"[
0b
b00000000000000000000000000010011 "9
0W
b00000000000000000000000000010011 "$
b00000000000000000000000001000000 "E
b000001000000 `
0"&
0f
0"A
#211
1"A
14
1"S
1P
1f
1"*
b00000000000000000000000000010011 ":
b00000000000000000000000000010011 }
1"[
1b
b00000000000000000000000000010011 "P
1W
b000001000000 ?
b000001000000 n
1!
b000001000000 "(
1"&
1{
1"#
1z
13
#216
04
b00000000000000000000000001000100 "E
0z
0"S
0"#
0P
b00000000000000000000000001000100 ;
03
b000001000100 `
0{
0"*
0!
b00000000000000000000000001000100 ,
b00000000000000000000000001000100 "<
0"[
0b
0W
0"&
0f
b00000000000000000000000001000100 r
0"A
#221
1"A
14
1"S
1P
1f
1"*
1"[
1b
1W
1!
b000001000100 "(
1"&
1{
b000001000100 n
1"#
1z
b000001000100 ?
13
#226
04
0z
0"S
0"#
0P
03
0{
b000001001000 `
b00000000000000000000000001001000 r
0"*
0!
b00000000000000000000000001001000 "E
0"[
0b
0W
b00000000000000000000000001001000 ;
b00000000000000000000000001001000 "<
0"&
0f
0"A
b00000000000000000000000001001000 ,
#231
1"A
b000001001000 ?
1"S
14
1P
1f
1"*
1"[
1b
1W
1!
1"&
1{
b000001001000 "(
1"#
1z
b000001001000 n
13
#236
04
b00000000000000000000000001001100 ,
b00000000000000000000000001001100 r
0z
0"S
0"#
0P
03
b000001001100 `
0{
b00000000000000000000000001001100 "<
b00000000000000000000000001001100 "E
0"*
0!
b00000000000000000000000001001100 ;
0"[
0b
0W
0"&
0f
0"A
#241
1"A
14
1"S
1P
1f
1"*
1"[
1b
1W
b000001001100 ?
1!
1"&
1{
1"#
b000001001100 n
1z
13
b000001001100 "(
#246
04
b00000000000000000000000001010000 ;
0z
0"S
0"#
0P
03
b00000000111000001000000000010011 .
0{
b00000000111000001000000000010011 "9
b00000000000000000000000001010000 ,
b00000000111000001000000000010011 7
0"*
b00000000000000000000000001010000 r
0!
b00000000111000001000000000010011 "$
b00000000000000000000000001010000 "E
0"[
b00000000000000000000000001010000 "<
0b
b000001010000 `
0W
b00000000111000001000000000010011 H
0"&
0f
0"A
#251
1"A
14
1"S
b000001010000 "(
1P
1f
1"*
b00000000111000001000000000010011 "P
1"[
1b
b000001010000 ?
1W
1!
b00000000111000001000000000010011 }
b00000000111000001000000000010011 ":
1"&
1{
1"#
1z
13
b000001010000 n
#256
04
0z
0"S
0"#
0P
03
b00000000000000000000000000010011 H
b00000000000000000000000001010100 ;
b00000000000000000000000000010011 7
0{
b00000000000000000000000001010100 "<
b00000000000000000000000000010011 .
0"*
b00000000000000000000000001010100 ,
0!
0"[
b000001010100 `
b00000000000000000000000001010100 "E
0b
b00000000000000000000000001010100 r
b00000000000000000000000000010011 "9
0W
b00000000000000000000000000010011 "$
0"&
0f
0"A
#261
1"A
14
1"S
1P
1f
1"*
b000001010100 "(
b00000000000000000000000000010011 ":
b00000000000000000000000000010011 }
b000001010100 n
1"[
1b
b00000000000000000000000000010011 "P
1W
1!
1"&
1{
b000001010100 ?
1"#
1z
13
#266
04
b000001011000 `
0z
0"S
0"#
0P
b00000000000000000000000001011000 "E
03
b00000000000000000000000001011000 ,
0{
0"*
0!
0"[
0b
0W
b00000000000000000000000001011000 "<
0"&
0f
b00000000000000000000000001011000 ;
0"A
b00000000000000000000000001011000 r
#271
1"A
14
1"S
1P
1f
1"*
1"[
b000001011000 n
1b
1W
1!
1"&
1{
b000001011000 "(
1"#
b000001011000 ?
1z
13
#276
04
0z
b00000000000000000000000001011100 ;
0"S
0"#
0P
b000001011100 `
03
b00000000000000000000000001011100 "E
0{
0"*
0!
0"[
b00000000000000000000000001011100 r
0b
0W
b00000000000000000000000001011100 "<
b00000000000000000000000001011100 ,
0"&
0f
0"A
#281
1"A
14
1"S
b000001011100 ?
1P
1f
1"*
1"[
1b
1W
1!
b000001011100 "(
1"&
1{
b000001011100 n
1"#
1z
13
#286
04
0z
b00000000000000000000000001100000 "E
0"S
0"#
0P
03
0{
b00000000000000000000000001100000 r
0"*
0!
b00000000000000000000000001100000 ,
0"[
b00000000000000000000000001100000 "<
b000001100000 `
0b
0W
0"&
0f
b00000000000000000000000001100000 ;
0"A
#291
1"A
14
1"S
1P
1f
1"*
b000001100000 ?
1"[
1b
1W
b000001100000 n
1!
1"&
1{
1"#
1z
13
b000001100000 "(
#296
04
0z
0"S
0"#
0P
03
b00000001110000001000000000010011 H
b00000001110000001000000000010011 7
b00000000000000000000000001100100 ,
0{
0"*
0!
b00000000000000000000000001100100 "E
0"[
b00000001110000001000000000010011 .
0b
b00000000000000000000000001100100 ;
0W
b00000000000000000000000001100100 "<
b00000001110000001000000000010011 "$
b00000001110000001000000000010011 "9
b00000000000000000000000001100100 r
0"&
0f
b000001100100 `
0"A
#301
1"A
14
1"S
1P
1f
1"*
1"[
1b
1W
1!
b000001100100 ?
b00000001110000001000000000010011 "P
1"&
b00000001110000001000000000010011 ":
1{
b000001100100 "(
1"#
1z
b000001100100 n
b00000001110000001000000000010011 }
13
#306
04
b000001101000 `
b00000000000000000000000001101000 r
0z
0"S
b00000000000000000000000001101000 "<
0"#
0P
03
b00000000000000000000000001101000 ,
b00000000000000000000000000010011 H
b00000000000000000000000000010011 7
0{
b00000000000000000000000001101000 "E
b00000000000000000000000000010011 .
0"*
0!
b00000000000000000000000001101000 ;
0"[
0b
b00000000000000000000000000010011 "9
0W
b00000000000000000000000000010011 "$
0"&
0f
0"A
#311
1"A
14
1"S
1P
1f
1"*
b00000000000000000000000000010011 ":
b00000000000000000000000000010011 }
1"[
1b
b00000000000000000000000000010011 "P
1W
1!
b000001101000 ?
b000001101000 n
b000001101000 "(
1"&
1{
1"#
1z
13
#316
04
0z
b00000000000000000000000001101100 ,
0"S
0"#
0P
03
0{
0"*
0!
b00000000000000000000000001101100 "<
0"[
0b
b00000000000000000000000001101100 "E
0W
b000001101100 `
b00000000000000000000000001101100 r
0"&
0f
b00000000000000000000000001101100 ;
0"A
#321
1"A
14
1"S
1P
b000001101100 "(
1"*
1f
1"[
1b
1W
1!
b000001101100 n
b000001101100 ?
1"&
1{
1"#
1z
13
#326
04
b00000000000000000000000001110000 "E
0z
0"S
0"#
0P
03
b000001110000 `
b00000000000000000000000001110000 r
0{
b00000000000000000000000001110000 "<
0"*
0!
0"[
0b
0W
b00000000000000000000000001110000 ;
0"&
0f
b00000000000000000000000001110000 ,
0"A
#331
1"A
14
1"S
1P
1f
b000001110000 "(
1"*
b000001110000 ?
1"[
1b
1W
1!
1"&
b000001110000 n
1{
1"#
1z
13
#336
04
b00000000000000000000000001110100 "E
b000001110100 `
0z
0"S
b00000000000000000000000001110100 ,
0"#
0P
b00000000000000000000000001110100 ;
03
b00000000000000000000000001110100 "<
0{
0"*
0!
0"[
0b
b00000000000000000000000001110100 r
0W
0"&
0f
0"A
#341
1"A
14
1"S
1P
1f
1"*
1"[
1b
b000001110100 n
1W
1!
1"&
1{
b000001110100 "(
1"#
1z
13
b000001110100 ?
#346
04
0z
0"S
0"#
0P
03
b00000011100000001000000000010011 7
b00000011100000001000000000010011 .
0{
b00000011100000001000000000010011 "$
0"*
0!
b000001111000 `
0"[
b00000011100000001000000000010011 "9
b00000000000000000000000001111000 ,
b00000000000000000000000001111000 "E
0b
b00000000000000000000000001111000 r
0W
b00000000000000000000000001111000 "<
b00000011100000001000000000010011 H
0"&
0f
b00000000000000000000000001111000 ;
0"A
#351
1"A
14
1"S
1P
b00000011100000001000000000010011 "P
1f
1"*
b00000011100000001000000000010011 }
1"[
1b
1W
1!
b000001111000 "(
b000001111000 ?
b00000011100000001000000000010011 ":
b000001111000 n
1"&
1{
1"#
1z
13
#356
04
0z
0"S
0"#
0P
b00000000000000000000000001111100 ;
03
b00000000000000000000000001111100 r
b00000000000000000000000000010011 H
b00000000000000000000000000010011 7
b000001111100 `
0{
b00000000000000000000000000010011 .
0"*
0!
0"[
b00000000000000000000000001111100 ,
b00000000000000000000000001111100 "<
0b
b00000000000000000000000000010011 "9
0W
b00000000000000000000000000010011 "$
b00000000000000000000000001111100 "E
0"&
0f
0"A
#361
1"A
14
1"S
1P
1f
1"*
b00000000000000000000000000010011 ":
b00000000000000000000000000010011 }
1"[
1b
b000001111100 n
b00000000000000000000000000010011 "P
1W
1!
b000001111100 ?
1"&
1{
b000001111100 "(
1"#
1z
13
#366
04
0z
0"S
0"#
0P
b00000000000000000000000010000000 ,
03
b00000000000000000000000010000000 "E
b000010000000 `
0{
0"*
0!
b00000000000000000000000010000000 r
b00000000000000000000000010000000 ;
0"[
0b
0W
b00000000000000000000000010000000 "<
0"&
0f
0"A
