waveforms/addi.s.vcd
$date
2022-10-25T14:00+0000
$end
$version
0.2
$end
$comment

$end
$timescale 1ns  $end
$scope module Tile $end
 $var wire 1 < io_regsWriteEnable $end
 $var wire 32 > io_regsReadData $end
 $var wire 32 R io_IMEMAddress $end
 $var wire 1 b io_regsDeviceWriteEnable $end
 $var wire 32 "5 io_DMEMAddress $end
 $var wire 32 "] io_DMEMWriteData $end
 $var wire 1 "c CPU $end
 $var wire 32 "k io_regsDeviceWriteData $end
 $var wire 5 "p io_regsDeviceWriteAddress $end
 $var wire 1 #( clock $end
 $var wire 32 #- io_currentPC $end
 $var wire 5 #1 io_regsAddress $end
 $var wire 1 #F io_DMEMWriteEnable $end
 $var wire 32 #I io_memDeviceWriteAddress $end
 $var wire 32 #^ io_IMEMWriteData $end
 $var wire 32 #b io_memDeviceWriteData $end
 $var wire 32 $& io_DMEMReadData $end
 $var wire 1 $- reset $end
 $var wire 1 $6 io_setup $end
 $var wire 1 $B io_memDeviceWriteEnable $end
 $var wire 32 $` io_regsWriteData $end
  $scope module CPU.MEMBarrier $end
  $upscope $end
  $scope module CPU.EX $end
  $upscope $end
  $scope module CPU.EXBarrier $end
  $upscope $end
  $scope module CPU.MEM $end
  $upscope $end
  $scope module CPU.WB $end
  $upscope $end
  $scope module CPU.JBarrier $end
  $upscope $end
  $scope module CPU.IDBarrier $end
  $upscope $end
  $scope module CPU.ID $end
  $upscope $end
  $scope module CPU.ID.registers $end
  $upscope $end
  $scope module CPU.IFBarrier $end
  $upscope $end
  $scope module CPU.IF $end
  $upscope $end
  $scope module CPU.IF.IMEM $end
  $upscope $end
  $scope module CPU.MEM.DMEM $end
  $upscope $end
  $scope module CPU.ID.Decoder $end
  $upscope $end
  $scope module CPU $end
   $var wire 1 ' IDBarrier $end
   $var wire 32 : testHarness_setupSignals_IMEMsignals_address $end
   $var wire 32 A testHarness_setupSignals_IMEMsignals_instruction $end
   $var wire 1 P testHarness_regUpdates_writeEnable $end
   $var wire 1 f ID $end
   $var wire 1 "# testHarness_memUpdates_writeEnable $end
   $var wire 32 ": testHarness_regUpdates_writeData $end
   $var wire 5 "; testHarness_regUpdates_writeAddress $end
   $var wire 5 "= testHarness_setupSignals_registerSignals_readAddress $end
   $var wire 32 "B testHarness_testReadouts_registerRead $end
   $var wire 32 "M testHarness_currentPC $end
   $var wire 1 "R IF $end
   $var wire 32 "^ testHarness_memUpdates_writeAddress $end
   $var wire 1 "e IFBarrier $end
   $var wire 1 "f testHarness_setupSignals_DMEMsignals_setup $end
   $var wire 1 "h JBarrier $end
   $var wire 32 "w testHarness_testReadouts_DMEMread $end
   $var wire 32 "{ testHarness_setupSignals_DMEMsignals_dataIn $end
   $var wire 1 #$ testHarness_setupSignals_IMEMsignals_setup $end
   $var wire 1 #A clock $end
   $var wire 32 #D testHarness_setupSignals_DMEMsignals_dataAddress $end
   $var wire 1 #N testHarness_setupSignals_registerSignals_setup $end
   $var wire 1 #Q MEM $end
   $var wire 1 #g testHarness_setupSignals_registerSignals_writeEnable $end
   $var wire 1 #h WB $end
   $var wire 1 #i EXBarrier $end
   $var wire 1 $% EX $end
   $var wire 32 $@ testHarness_memUpdates_writeData $end
   $var wire 32 $O testHarness_setupSignals_registerSignals_writeData $end
   $var wire 1 $Z reset $end
   $var wire 1 $[ MEMBarrier $end
   $var wire 1 $a testHarness_setupSignals_DMEMsignals_writeEnable $end
    $scope module ID $end
     $var wire 1 ! testHarness_registerSetup_writeEnable $end
     $var wire 12 & io_ex_writeAddress $end
     $var wire 32 ) io_ex_writeData $end
     $var wire 32 2 regsource1 $end
     $var wire 32 4 io_out_op2 $end
     $var wire 32 7 io_wb_writeData $end
     $var wire 2 = _GEN_21 $end
     $var wire 12 Y io_out_writeAddress $end
     $var wire 4 [ io_out_aluOP $end
     $var wire 32 ^ b $end
     $var wire 12 d _GEN_18 $end
     $var wire 32 e testHarness_registerPeek $end
     $var wire 32 h _GEN_1 $end
     $var wire 1 i io_stall $end
     $var wire 1 l _GEN_4 $end
     $var wire 1 m io_wb_writeEnable $end
     $var wire 1 o io_outJ_jump $end
     $var wire 32 u io_out_memData $end
     $var wire 5 z _GEN_12 $end
     $var wire 1 } reset $end
     $var wire 1 "" testHarness_testUpdates_writeEnable $end
     $var wire 32 "' immediate $end
     $var wire 32 ") savedInstruction_instruction $end
     $var wire 5 ". _GEN_7 $end
     $var wire 32 "1 io_outJ_nextPC $end
     $var wire 1 "2 sigEX_STALL $end
     $var wire 32 "3 testHarness_registerSetup_writeData $end
     $var wire 5 "< testHarness_testUpdates_writeAddress $end
     $var wire 5 "A rdaddress $end
     $var wire 1 "U io_mem_memRead $end
     $var wire 32 "X io_out_op1 $end
     $var wire 1 "_ io_ex_memRead $end
     $var wire 1 "i stalled $end
     $var wire 1 "l _GEN_6 $end
     $var wire 32 "q _GEN_0 $end
     $var wire 5 "t io_mem_writeAddress $end
     $var wire 32 "v a $end
     $var wire 1 #! io_mem_regWrite $end
     $var wire 12 #" _GEN_17 $end
     $var wire 1 ## io_ex_regWrite $end
     $var wire 5 #. testHarness_registerSetup_readAddress $end
     $var wire 32 #0 _GEN_3 $end
     $var wire 32 #9 io_in_instruction_instruction $end
     $var wire 5 #: rs2address $end
     $var wire 1 #; registers $end
     $var wire 1 #< io_out_memRead $end
     $var wire 1 #> io_out_regWrite $end
     $var wire 32 #K io_mem_writeData $end
     $var wire 5 #P io_wb_writeAddress $end
     $var wire 1 #[ sigMEM_STALL $end
     $var wire 4 #c _GEN_2 $end
     $var wire 1 #l Decoder $end
     $var wire 12 #n _GEN_19 $end
     $var wire 5 #s rs1address $end
     $var wire 1 #t _GEN_5 $end
     $var wire 32 #~ regsource2 $end
     $var wire 1 $) stalled2 $end
     $var wire 1 $7 io_out_memWrite $end
     $var wire 1 $: testHarness_registerSetup_setup $end
     $var wire 12 $= _GEN_16 $end
     $var wire 32 $> testHarness_testUpdates_writeData $end
     $var wire 1 $G clock $end
     $var wire 1 $H launched $end
     $var wire 32 $J io_in_pc $end
      $scope module registers $end
       $var wire 1 , testHarness_testUpdates_writeEnable $end
       $var wire 1 . testHarness_setup_setup $end
       $var wire 32 ? testHarness_testUpdates_writeData $end
       $var wire 5 B readAddress1 $end
       $var wire 1 G clock $end
       $var wire 32 J io_readData1 $end
       $var wire 32 N registerFile $end
       $var wire 1 X testHarness_setup_writeEnable $end
       $var wire 1 n writeEnable $end
       $var wire 5 y io_readAddress1 $end
       $var wire 5 "@ testHarness_testUpdates_writeAddress $end
       $var wire 1 "S io_writeEnable $end
       $var wire 32 "o testHarness_setup_writeData $end
       $var wire 32 #) io_writeData $end
       $var wire 5 #M testHarness_setup_readAddress $end
       $var wire 32 #S io_readData2 $end
       $var wire 5 #W writeAddress $end
       $var wire 5 #u io_writeAddress $end
       $var wire 5 #w io_readAddress2 $end
        $scope module registerFile $end
          $scope module _T_33 $end
           $var wire 1 % en $end
           $var wire 1 0 pipeline_valid_0 $end
           $var wire 1 D clk $end
           $var wire 5 "G pipeline_addr_0 $end
           $var wire 1 "Q mask $end
           $var wire 1 "z valid $end
           $var wire 5 #G addr $end
           $var wire 32 #k pipeline_data_0 $end
           $var wire 32 $A data $end
          $upscope $end
          $scope module _T_41 $end
           $var wire 32 q data $end
           $var wire 1 "D en $end
           $var wire 1 #8 clk $end
           $var wire 5 $4 addr $end
          $upscope $end
          $scope module _T_38 $end
           $var wire 1 "$ clk $end
           $var wire 1 "s en $end
           $var wire 5 #, addr $end
           $var wire 32 $. data $end
          $upscope $end
        $upscope $end
      $upscope $end
      $scope module Decoder $end
       $var wire 1 9 io_controlSignals_memWrite $end
       $var wire 1 H io_controlSignals_memRead $end
       $var wire 1 "C io_op2Select $end
       $var wire 2 "O decodedControlSignals_6 $end
       $var wire 1 #6 io_controlSignals_regWrite $end
       $var wire 4 #V io_ALUop $end
       $var wire 1 #X io_op1Select $end
       $var wire 32 #\ io_instruction_instruction $end
       $var wire 1 $/ io_controlSignals_jump $end
       $var wire 3 $L io_branchType $end
       $var wire 1 $V io_controlSignals_branch $end
       $var wire 3 $W io_immType $end
      $upscope $end
    $upscope $end
    $scope module MEM $end
     $var wire 1 E io_out_memRead $end
     $var wire 1 \ DMEM $end
     $var wire 32 c testHarness_testUpdates_writeAddress $end
     $var wire 1 s io_in_regWrite $end
     $var wire 32 "E io_in_memData $end
     $var wire 5 "K io_out_writeAddress $end
     $var wire 32 "P testHarness_DMEMsetup_dataAddress $end
     $var wire 32 "T io_in_writeData $end
     $var wire 1 "Z io_out_regWrite $end
     $var wire 1 "` io_in_memWrite $end
     $var wire 1 #B testHarness_testUpdates_writeEnable $end
     $var wire 32 #H io_out_writeData $end
     $var wire 1 #O testHarness_DMEMsetup_writeEnable $end
     $var wire 32 #] testHarness_DMEMpeek $end
     $var wire 32 #p io_dmemReadResult $end
     $var wire 1 $' testHarness_DMEMsetup_setup $end
     $var wire 32 $3 testHarness_testUpdates_writeData $end
     $var wire 1 $< clock $end
     $var wire 1 $Q io_in_memRead $end
     $var wire 32 $U testHarness_DMEMsetup_dataIn $end
     $var wire 12 $] io_in_writeAddress $end
      $scope module DMEM $end
       $var wire 32 / testHarness_testUpdates_writeData $end
       $var wire 1 8 _GEN_6 $end
       $var wire 12 C data__T_24_addr_pipe_0 $end
       $var wire 1 U testHarness_testUpdates_writeEnable $end
       $var wire 32 _ testHarness_setup_dataAddress $end
       $var wire 12 ` io_dataAddress $end
       $var wire 32 g testHarness_testUpdates_writeAddress $end
       $var wire 32 "( addressSource $end
       $var wire 32 "8 data $end
       $var wire 1 "g io_writeEnable $end
       $var wire 1 #C testHarness_setup_writeEnable $end
       $var wire 1 #E testHarness_setup_setup $end
       $var wire 1 #r clock $end
       $var wire 32 $, testHarness_setup_dataIn $end
       $var wire 32 $9 io_dataIn $end
       $var wire 32 $D io_dataOut $end
        $scope module data $end
          $scope module _T_26 $end
           $var wire 1 " clk $end
           $var wire 12 w addr $end
           $var wire 32 "+ pipeline_data_0 $end
           $var wire 1 "a pipeline_valid_0 $end
           $var wire 32 "u data $end
           $var wire 1 #j en $end
           $var wire 12 #| pipeline_addr_0 $end
           $var wire 1 $0 valid $end
           $var wire 1 $I mask $end
          $upscope $end
          $scope module _T_24 $end
           $var wire 32 T data $end
           $var wire 1 #* clk $end
           $var wire 1 #q en $end
           $var wire 12 $! addr $end
          $upscope $end
        $upscope $end
      $upscope $end
    $upscope $end
    $scope module IF $end
     $var wire 1 # io_stall $end
     $var wire 1 ( testHarness_IMEMsetup_setup $end
     $var wire 1 ] IMEM $end
     $var wire 32 k testHarness_IMEMsetup_instruction $end
     $var wire 32 "/ io_inJ_nextPC $end
     $var wire 1 "? io_inJ_jump $end
     $var wire 32 "V _GEN_2 $end
     $var wire 1 "W clock $end
     $var wire 32 "[ instruction_instruction $end
     $var wire 32 "\ testHarness_PC $end
     $var wire 1 #T reset $end
     $var wire 32 #d testHarness_IMEMsetup_address $end
     $var wire 1 #z stalled $end
     $var wire 32 #{ lastInstruction_instruction $end
     $var wire 32 $C io_out_pc $end
     $var wire 32 $E io_out_instruction_instruction $end
     $var wire 32 $M pc $end
     $var wire 32 $X _GEN_0 $end
      $scope module IMEM $end
       $var wire 32 Q testHarness_setupSignals_instruction $end
       $var wire 12 Z instructions__T_20_addr_pipe_0 $end
       $var wire 1 "9 clock $end
       $var wire 32 "r testHarness_setupSignals_address $end
       $var wire 1 #& _GEN_4 $end
       $var wire 32 #/ io_instruction $end
       $var wire 1 #L testHarness_setupSignals_setup $end
       $var wire 32 #} addressSource $end
       $var wire 32 $1 testHarness_requestedAddress $end
       $var wire 32 $F io_instructionAddress $end
       $var wire 32 $P instructions $end
        $scope module instructions $end
          $scope module _T_18 $end
           $var wire 1 5 valid $end
           $var wire 1 K mask $end
           $var wire 1 r pipeline_valid_0 $end
           $var wire 12 "I addr $end
           $var wire 1 "N clk $end
           $var wire 32 #7 data $end
           $var wire 12 #= pipeline_addr_0 $end
           $var wire 32 $5 pipeline_data_0 $end
           $var wire 1 $K en $end
          $upscope $end
          $scope module _T_20 $end
           $var wire 1 "7 en $end
           $var wire 12 "j addr $end
           $var wire 1 #4 clk $end
           $var wire 32 #a data $end
          $upscope $end
        $upscope $end
      $upscope $end
    $upscope $end
    $scope module IFBarrier $end
     $var wire 32 $ io_in_instruction_instruction $end
     $var wire 32 O io_out_instruction_instruction $end
     $var wire 1 #2 clock $end
     $var wire 32 #3 pc $end
     $var wire 32 #Z io_in_pc $end
     $var wire 32 $; io_out_pc $end
     $var wire 1 $? reset $end
    $upscope $end
    $scope module MEMBarrier $end
     $var wire 32 * regs_writeData $end
     $var wire 5 F io_out_writeAddress $end
     $var wire 1 p io_out_regWrite $end
     $var wire 32 t io_in_writeData $end
     $var wire 1 v io_in_memRead $end
     $var wire 1 | regs_memRead $end
     $var wire 1 #? io_out_memRead $end
     $var wire 1 #_ io_in_regWrite $end
     $var wire 32 #` io_out_writeData $end
     $var wire 5 #v io_in_writeAddress $end
     $var wire 1 #x regs_regWrite $end
     $var wire 1 $# clock $end
     $var wire 5 $$ regs_writeAddress $end
    $upscope $end
    $scope module EX $end
     $var wire 1 + io_in_regWrite $end
     $var wire 12 W io_in_writeAddress $end
     $var wire 1 x io_out_memWrite $end
     $var wire 1 "& io_in_memWrite $end
     $var wire 63 "* _GEN_0 $end
     $var wire 32 "L io_in_op2 $end
     $var wire 32 "b io_in_memData $end
     $var wire 32 "d io_out_memData $end
     $var wire 32 #Y io_in_op1 $end
     $var wire 4 #e io_in_aluOP $end
     $var wire 12 #o io_out_writeAddress $end
     $var wire 1 $* io_in_memRead $end
     $var wire 1 $+ io_out_memRead $end
     $var wire 32 $2 io_out_writeData $end
     $var wire 1 $\ io_out_regWrite $end
    $upscope $end
    $scope module EXBarrier $end
     $var wire 1 - regs_regWrite $end
     $var wire 1 ; io_in_regWrite $end
     $var wire 1 a clock $end
     $var wire 12 { io_in_writeAddress $end
     $var wire 1 ~ io_out_regWrite $end
     $var wire 32 "! io_in_writeData $end
     $var wire 1 "- regs_memWrite $end
     $var wire 32 "0 regs_memData $end
     $var wire 1 "F io_in_memWrite $end
     $var wire 32 "H regs_writeData $end
     $var wire 1 "Y io_in_memRead $end
     $var wire 1 "| io_out_memWrite $end
     $var wire 32 "~ io_out_memData $end
     $var wire 1 #R regs_memRead $end
     $var wire 12 $( regs_writeAddress $end
     $var wire 12 $8 io_out_writeAddress $end
     $var wire 1 $N io_out_memRead $end
     $var wire 32 $^ io_in_memData $end
     $var wire 32 $_ io_out_writeData $end
    $upscope $end
    $scope module IDBarrier $end
     $var wire 12 1 io_in_writeAddress $end
     $var wire 1 3 regs_regWrite $end
     $var wire 32 @ io_out_memData $end
     $var wire 1 I regs_memRead $end
     $var wire 4 L io_out_aluOP $end
     $var wire 1 M io_in_memWrite $end
     $var wire 32 V regs_op2 $end
     $var wire 32 j io_in_op2 $end
     $var wire 1 "4 regs_memWrite $end
     $var wire 32 "> io_out_op1 $end
     $var wire 1 "m io_out_memRead $end
     $var wire 32 "n regs_op1 $end
     $var wire 4 "x regs_aluOP $end
     $var wire 4 "y io_in_aluOP $end
     $var wire 1 #% io_out_regWrite $end
     $var wire 1 #' io_in_memRead $end
     $var wire 32 #+ io_in_op1 $end
     $var wire 32 #@ regs_memData $end
     $var wire 1 #J io_in_regWrite $end
     $var wire 12 #U regs_writeAddress $end
     $var wire 12 #f io_out_writeAddress $end
     $var wire 1 $" io_out_memWrite $end
     $var wire 32 $S io_in_memData $end
     $var wire 32 $T io_out_op2 $end
     $var wire 1 $b clock $end
    $upscope $end
    $scope module JBarrier $end
     $var wire 1 6 io_in_jump $end
     $var wire 32 S io_out_nextPC $end
     $var wire 32 ", io_in_nextPC $end
     $var wire 1 #y io_out_jump $end
    $upscope $end
    $scope module WB $end
     $var wire 5 "% io_in_writeAddress $end
     $var wire 32 "6 io_out_writeData $end
     $var wire 1 "J io_out_writeEnable $end
     $var wire 1 "} io_in_regWrite $end
     $var wire 32 #5 io_in_writeData $end
     $var wire 32 #m io_dmemData $end
     $var wire 1 $R io_in_memRead $end
     $var wire 5 $Y io_out_writeAddress $end
    $upscope $end
  $upscope $end
$upscope $end
$enddefinitions $end
$dumpvars
0o
0"c
0$%
b00000000000000000000000000000000 #}
b00000000000000000000000000000000 $^
b00000 #P
b00000000000000000000000000000000 #K
b00000000000000000000000000000000 $,
b00000 "=
b00000000000000000000000000000000 "8
b00000000000000000000000000000000 "M
0#t
0m
b00000000000000000000000000000000 Q
0~
b000000000000 #o
0a
0#!
b00000000000000000000000000000000 $X
b000000000000 #=
b00000000000000000000000000000000 $P
b00000000000000000000000000000000 $;
0"#
0D
1#&
b00000000000000000000000000000000 "\
b00000000000000000000000000000000 #Z
0#O
0$0
0r
0]
0#2
b00000000000000000000000000000000 $T
0H
b00000000000000000000000000000000 A
b00000000000000000000000000000000 #k
0+
b00000000000000000000000000000000 "u
b00000000000000000000000000000000 $
b00000000000000000000000000000000 "X
b00000000000000000000000000000000 #9
b000 $L
0"l
b00000 #:
b00000000000000000000000000000000 q
0#E
b00000 "<
0p
b00000000000000000000000000000000 T
b00000000000000000000000000000000 ?
b00000000000000000000000000000000 $J
0"2
0"}
0$?
0l
0#A
0$"
b00000 y
b00000000000000000000000000000000 e
0"C
b00000000000000000000000000000000 $F
b000000000000 #U
b000000000000 $!
b00000 #.
b00000000000000000000000000000000 #H
0#$
0"`
b00000000000000000000000000000000 "5
b000000000000 Y
0"?
b00000000000000000000000000000000 /
b00000000000000000000000000000000 #D
b00000000000000000000000000000000 "1
1$I
b0000 #c
b000 $W
0$N
b00000 "G
b00000000000000000000000000000000 t
b00000000000000000000000000000000 _
b00000000000000000000000000000000 "v
1"Q
0;
0$B
0#L
b0000 [
0$-
0"N
0"9
b00000000000000000000000000000000 "!
b00000000000000000000000000000000 >
b00000000000000000000000000000000 "6
b00000000000000000000000000000000 S
b00000 ";
0"_
09
0"-
b00000000000000000000000000000000 2
0#_
b00000 F
b000000000000 #"
b000000000000 C
b0000 "x
0|
b000000000000 &
0-
b00000000000000000000000000000000 $9
b00000000000000000000000000000000 "b
b00000000000000000000000000000000 "w
0"z
0#[
0$Q
b00000000000000000000000000000000 "0
b00000 B
b00000000000000000000000000000000 "E
b00000000000000000000000000000000 "(
0$<
0#>
0$b
1#q
b00000000000000000000000000000000 "^
0"Y
b00000000000000000000000000000000 ^
b00000000000000000000000000000000 ",
b000000000000 $]
0n
b000000000000 #|
0<
0'
b00000000000000000000000000000000 "q
b00 =
b00000000000000000000000000000000 $3
b00000 #W
b00000000000000000000000000000000 #5
b00000000000000000000000000000000 "T
1K
0U
0#*
0M
0$\
b00000000000000000000000000000000 $D
0#
b00000000000000000000000000000000 N
b00000000000000000000000000000000 "P
b00000000000000000000000000000000 "3
b000000000000 W
b00000 #G
0}
0#R
b0000 L
0#(
b000000000000 #n
0$a
0"m
0$/
0#N
0\
b00000 #w
b00000000000000000000000000000000 $S
0G
b00000000000000000000000000000000 @
0"&
b00000000000000000000000000000000 #@
b00000000000000000000000000000000 "B
b000000000000 {
b000000000000 #f
0X
b00000000000000000000000000000000 $O
0""
b00000000000000000000000000000000 $2
b00000000000000000000000000000000 ">
b000000000000 w
0#z
0$[
0"|
0$)
b00000000000000000000000000000000 "d
b00000000000000000000000000000000 $&
0"g
0"J
b000000000000 $=
b00000000000000000000000000000000 O
b00000000000000000000000000000000 :
b00000000000000000000000000000000 $E
b00000000000000000000000000000000 #d
b000000000000 "I
b00000 $Y
0$:
b00000 #1
b00000000000000000000000000000000 h
0#<
0"F
0#'
05
b00000000000000000000000000000000 #`
b00000000000000000000000000000000 $A
0x
b00000 #v
0#l
b00000000000000000000000000000000 $5
18
b00000 "t
b00000000000000000000000000000000 $1
0%
0v
0#h
b00000000000000000000000000000000 #3
0"U
b00000000000000000000000000000000 "o
0#6
b00000 "%
0#y
0$Z
b00000000000000000000000000000000 "k
b00000 "p
b00000000000000000000000000000000 #a
0"f
b00000000000000000000000000000000 #/
b00000000000000000000000000000000 k
b00000000000000000000000000000000 V
0!
0"4
06
0#X
0f
0#;
0"Z
b000000000000 $8
0I
b00000000000000000000000000000000 J
b00000000000000000000000000000000 "~
b00000000000000000000000000000000 $@
b00000000000000000000000000000000 $U
b00000000000000000000000000000000 #-
b00000000000000000000000000000000 "L
b00000000000000000000000000000000 "/
0#i
0b
b00000 #u
00
b000000000000 "j
0E
0(
0$7
b00000000000000000000000000000000 "]
b00000000000000000000000000000000 "H
b00000000000000000000000000000000 #S
b00000 $$
b00000000000000000000000000000000 #)
b00000000000000000000000000000000 )
b00000000000000000000000000000000 #p
b00000000000000000000000000000000 "r
b00000000000000000000000000000000 "+
0"$
b000000000000 d
0#g
0$H
0#J
0$+
b00000 "A
0"i
b00000000000000000000000000000000 "'
b000000000000 `
0#x
0"e
0$'
b00000000000000000000000000000000 j
0i
b00000000000000000000000000000000 $`
0#F
b00000000000000000000000000000000 $C
0"
b00000000000000000000000000000000 #b
b00000000000000000000000000000000 $.
b00000000000000000000000000000000 #0
b00000000000000000000000000000000 ":
0"a
0$#
b00000 z
0P
b00000000000000000000000000000000 #{
0#%
0"D
03
b00000000000000000000000000000000 #^
b00000000000000000000000000000000 #I
0#B
b00000000000000000000000000000000 4
b000000000000 Z
0#r
0$K
0#j
0$6
0"W
0##
0#8
b00000000000000000000000000000000 #\
b00000000000000000000000000000000 "{
b00000000000000000000000000000000 *
b000000000000 1
0$G
0#Q
b00000 $4
b00000000000000000000000000000000 u
0"h
0#4
b00000 "@
0$*
0"S
b00000000000000000000000000000000 #m
b0000 "y
b00000000000000000000000000000000 #~
b00000000000000000000000000000000 $_
1"7
b00000000000000000000000000000000 7
b00000000000000000000000000000000 #7
b00000000000000000000000000000000 "V
b0000 #V
0$V
b00000000000000000000000000000000 $>
b00000000000000000000000000000000 #]
b00000 #M
0#C
b00000000000000000000000000000000 #+
b00000000000000000000000000000000 g
b00000000000000000000000000000000 R
b000000000000000000000000000000000000000000000000000000000000000 "*
b00000 #s
0$R
0.
b00000000000000000000000000000000 #Y
0"s
0#?
b00000 "K
b00000000000000000000000000000000 "[
b00000 #,
b00000 ".
b00000000000000000000000000000000 ")
b00000000000000000000000000000000 c
0#T
b00 "O
b0000 #e
0s
0"R
0,
b000000000000 $(
b00000000000000000000000000000000 $M
b00000000000000000000000000000000 "n
$end
#0
b1111 "y
1}
b1111 [
1$H
b00000000000000000000000000000100 $X
b00000000000000000000000000000100 "V
1#T
1$?
1$Z
b1111 #V
1$-
b1111 #c
#1
1G
b1111 "x
1#4
1$<
1#2
1"$
1#(
b1111 #e
1"9
1a
1#8
1"
1"N
1#r
1$b
1#*
1"W
1D
1#A
b1111 L
1$G
1$#
#6
0#(
0"$
0#4
0D
0#A
0G
0$#
0$b
0"9
0a
0$<
0"N
0"
0#r
0#8
0#*
0$G
0"W
0#2
#11
1G
1#4
1$<
1#2
1"$
1#(
1"9
1a
1#8
1"
1"N
1#r
1$b
1#*
1"W
1D
1#A
1$G
1$#
#16
0#(
0"$
0#4
0D
0#A
0G
0$#
0$b
0"9
0a
0$<
0"N
0"
0#r
0#8
0#*
0$G
0"W
0#2
#21
1G
1#4
1$<
1#2
1"$
1#(
1"9
1a
1#8
1"
1"N
1#r
1$b
1#*
1"W
1D
1#A
1$G
1$#
#26
0#(
0"$
0#4
0D
0#A
0G
0$#
0$b
0"9
0a
0$<
0"N
0"
0#r
0#8
0#*
0$G
0"W
0#2
#31
1G
1#4
1$<
1#2
1"$
1#(
1"9
1a
1#8
1"
1"N
1#r
1$b
1#*
1"W
1D
1#A
1$G
1$#
#36
0#(
0"$
0#4
0D
0#A
0G
0$#
0$b
0"9
0a
0$<
0"N
0"
0#r
0#8
0#*
0$G
0"W
0#2
#41
1G
1#4
1$<
1#2
1"$
1#(
1"9
1a
1#8
1"
1"N
1#r
1$b
1#*
1"W
1D
1#A
1$G
1$#
#46
b00000000000000000000000000010011 #\
b00000000000100001000000000010011 #^
0#A
b00000000000100001000000000010011 Q
0"9
1#6
0$?
0"
b00000000000000000000000000010011 $E
0#r
b00000000000000000000000000010011 "[
b00000000000000000000000000010011 #9
15
b0000 #c
0#4
b0000 [
1.
1$K
0$#
1(
1"l
0$b
0a
1#L
b00000000000000000000000000000000 $X
0#*
0#T
1#E
b00000000000000000000000000010011 $
0#(
b00000000000100001000000000010011 k
0"$
0D
0$-
b0000 #V
b00000000000100001000000000010011 #7
b00000000000000000000000000010011 O
0$Z
0"N
0#8
1#>
b0000 "y
1#N
1"f
1#J
1$'
0G
1$6
0}
0$<
b00000000000100001000000000010011 A
1$:
0$G
1"C
0"W
1#$
0#2
#51
1#4
1$<
1#2
1"$
1a
1"N
1r
1$b
b0000 "x
1"W
b0000 #e
1+
1$G
1$#
1G
b00000000000100001000000000010011 #a
1#(
13
b00000000000000000000000000010011 #{
1"9
b00000000000100001000000000010011 #/
1#8
1"
1#r
1#%
1#*
b00000000000100001000000000010011 $5
1D
1#A
b0000 L
#56
b00000000001000001000000000010011 A
b00000000001000001000000000010011 k
0#(
0"$
0D
b00000000000000000000000000000100 "r
0#A
b00000000001000001000000000010011 #7
b00000000000000000000000000000100 R
0"9
0"N
0"
b00000000000000000000000000000100 #}
0#r
0#8
0#4
b00000000000000000000000000000100 #d
b00000000000000000000000000000100 :
0G
0$#
b00000000001000001000000000010011 Q
b000000000100 "I
0$b
0a
0$<
b00000000001000001000000000010011 #^
0#*
0$G
0"W
0#2
#61
b00000000001000001000000000010011 #a
b00000000001000001000000000010011 #/
1G
b000000000100 "j
b000000000100 #=
b000000000100 Z
1#4
1$<
1#2
1"$
1#(
1"9
1a
1#8
b00000000001000001000000000010011 $5
1"
1"N
1#r
1$b
1#*
1"W
1D
1#A
1$G
1$#
#66
0#(
0"$
b00000000001100001000000000010011 #^
0D
0#A
b00000000000000000000000000001000 #d
b00000000000000000000000000001000 :
0"9
0"N
0"
0#r
0#8
b00000000001100001000000000010011 #7
0#4
b00000000001100001000000000010011 A
b00000000000000000000000000001000 #}
0G
0$#
b00000000000000000000000000001000 R
0$b
0a
0$<
b00000000001100001000000000010011 k
b00000000000000000000000000001000 "r
0#*
0$G
b00000000001100001000000000010011 Q
0"W
b000000001000 "I
0#2
#71
b000000001000 "j
b000000001000 #=
1G
1#4
1$<
1#2
1"$
1#(
b00000000001100001000000000010011 $5
1"9
1a
b00000000001100001000000000010011 #a
1#8
1"
1"N
1#r
b00000000001100001000000000010011 #/
1$b
1#*
1"W
1D
1#A
1$G
1$#
b000000001000 Z
#76
0#(
0"$
b00000000011100001000000000010011 k
b00000000011100001000000000010011 #7
0D
0#A
b00000000000000000000000000001100 #d
0"9
b00000000011100001000000000010011 #^
b00000000000000000000000000001100 #}
0"N
0"
0#r
0#8
b00000000000000000000000000001100 "r
0#4
b000000001100 "I
0G
0$#
0$b
0a
b00000000011100001000000000010011 A
0$<
b00000000011100001000000000010011 Q
b00000000000000000000000000001100 R
0#*
0$G
0"W
b00000000000000000000000000001100 :
0#2
#81
1G
1#4
b00000000011100001000000000010011 #/
1$<
1#2
1"$
b000000001100 "j
1#(
1"9
b000000001100 #=
1a
1#8
b000000001100 Z
1"
1#r
1"N
1$b
b00000000011100001000000000010011 $5
1#*
1"W
1D
1#A
1$G
1$#
b00000000011100001000000000010011 #a
#86
b00000000000000000000000000010000 #}
0#(
0"$
b00000000000000000000000000010000 R
b00000000111000001000000000010011 Q
0D
0#A
b00000000000000000000000000010000 :
b00000000000000000000000000010000 "r
b000000010000 "I
0"9
b00000000000000000000000000010000 #d
0"N
0"
0#r
0#8
0#4
b00000000111000001000000000010011 #7
0G
0$#
0$b
0a
0$<
b00000000111000001000000000010011 A
b00000000111000001000000000010011 k
0#*
0$G
0"W
b00000000111000001000000000010011 #^
0#2
#91
1G
1#4
b000000010000 Z
1$<
1#2
1"$
1#(
1"9
1a
1#8
1"
b000000010000 #=
1#r
1"N
b000000010000 "j
b00000000111000001000000000010011 #/
1$b
1#*
1"W
b00000000111000001000000000010011 $5
1D
b00000000111000001000000000010011 #a
1#A
1$G
1$#
#96
0#(
0"$
0D
b00000000000000000000000000010100 :
0#A
b00000001110000001000000000010011 A
b00000000000000000000000000010100 R
b00000000000000000000000000010100 "r
0"9
b00000000000000000000000000010100 #}
b00000001110000001000000000010011 Q
0"N
0"
0#r
0#8
b00000001110000001000000000010011 #7
0#4
0G
0$#
0$b
0a
b00000001110000001000000000010011 k
0$<
b00000000000000000000000000010100 #d
0#*
0$G
0"W
b00000001110000001000000000010011 #^
b000000010100 "I
0#2
#101
1G
b00000001110000001000000000010011 #a
1#4
1$<
b00000001110000001000000000010011 #/
1#2
1"$
1#(
1"9
1a
1#8
b00000001110000001000000000010011 $5
1"
1"N
1#r
1$b
1#*
1"W
1D
1#A
b000000010100 "j
b000000010100 Z
1$G
1$#
b000000010100 #=
#106
0#(
0"$
b00000000000000000000000000011000 #}
0D
0#A
b00000011100000001000000000010011 #7
b00000000000000000000000000011000 R
b00000011100000001000000000010011 k
0"9
b00000011100000001000000000010011 #^
0"N
0"
b00000000000000000000000000011000 "r
0#r
0#8
b00000011100000001000000000010011 Q
0#4
b00000011100000001000000000010011 A
0G
0$#
b00000000000000000000000000011000 #d
0$b
0a
0$<
b00000000000000000000000000011000 :
b000000011000 "I
0#*
0$G
0"W
0#2
#111
b00000011100000001000000000010011 $5
b000000011000 Z
1G
b00000011100000001000000000010011 #/
1#4
1$<
1#2
1"$
1#(
1"9
1a
1#8
b000000011000 #=
b00000011100000001000000000010011 #a
1"
1"N
1#r
b000000011000 "j
1$b
1#*
1"W
1D
1#A
1$G
1$#
