waveforms/arithImm.s.vcd
$date
2022-10-11T07:49+0000
$end
$version
0.2
$end
$comment

$end
$timescale 1ns  $end
$scope module Tile $end
 $var wire 1 6 io_regsWriteEnable $end
 $var wire 32 9 io_regsReadData $end
 $var wire 32 N io_IMEMAddress $end
 $var wire 1 ] io_regsDeviceWriteEnable $end
 $var wire 32 "+ io_DMEMAddress $end
 $var wire 32 "Q io_DMEMWriteData $end
 $var wire 1 "V CPU $end
 $var wire 32 "_ io_regsDeviceWriteData $end
 $var wire 5 "c io_regsDeviceWriteAddress $end
 $var wire 1 "t clock $end
 $var wire 32 "z io_currentPC $end
 $var wire 5 "} io_regsAddress $end
 $var wire 1 #4 io_DMEMWriteEnable $end
 $var wire 32 #7 io_memDeviceWriteAddress $end
 $var wire 32 #J io_IMEMWriteData $end
 $var wire 32 #N io_memDeviceWriteData $end
 $var wire 32 #j io_DMEMReadData $end
 $var wire 1 #p reset $end
 $var wire 1 #y io_setup $end
 $var wire 1 $% io_memDeviceWriteEnable $end
 $var wire 32 $C io_regsWriteData $end
  $scope module CPU.MEMBarrier $end
  $upscope $end
  $scope module CPU.EX $end
  $upscope $end
  $scope module CPU.EXBarrier $end
  $upscope $end
  $scope module CPU.MEM $end
  $upscope $end
  $scope module CPU.WB $end
  $upscope $end
  $scope module CPU.JBarrier $end
  $upscope $end
  $scope module CPU.IDBarrier $end
  $upscope $end
  $scope module CPU.ID $end
  $upscope $end
  $scope module CPU.ID.registers $end
  $upscope $end
  $scope module CPU.IFBarrier $end
  $upscope $end
  $scope module CPU.IF $end
  $upscope $end
  $scope module CPU.IF.IMEM $end
  $upscope $end
  $scope module CPU.MEM.DMEM $end
  $upscope $end
  $scope module CPU.ID.Decoder $end
  $upscope $end
  $scope module CPU $end
   $var wire 1 % IDBarrier $end
   $var wire 32 4 testHarness_setupSignals_IMEMsignals_address $end
   $var wire 32 : testHarness_setupSignals_IMEMsignals_instruction $end
   $var wire 1 J testHarness_regUpdates_writeEnable $end
   $var wire 1 a ID $end
   $var wire 1 z testHarness_memUpdates_writeEnable $end
   $var wire 32 "0 testHarness_regUpdates_writeData $end
   $var wire 5 "2 testHarness_regUpdates_writeAddress $end
   $var wire 5 "3 testHarness_setupSignals_registerSignals_readAddress $end
   $var wire 32 "8 testHarness_testReadouts_registerRead $end
   $var wire 32 "C testHarness_currentPC $end
   $var wire 1 "G IF $end
   $var wire 32 "R testHarness_memUpdates_writeAddress $end
   $var wire 1 "X IFBarrier $end
   $var wire 1 "Y testHarness_setupSignals_DMEMsignals_setup $end
   $var wire 1 "[ JBarrier $end
   $var wire 32 "h testHarness_testReadouts_DMEMread $end
   $var wire 32 "l testHarness_setupSignals_DMEMsignals_dataIn $end
   $var wire 1 "p testHarness_setupSignals_IMEMsignals_setup $end
   $var wire 1 #/ clock $end
   $var wire 32 #2 testHarness_setupSignals_DMEMsignals_dataAddress $end
   $var wire 1 #; testHarness_setupSignals_registerSignals_setup $end
   $var wire 1 #> MEM $end
   $var wire 1 #R testHarness_setupSignals_registerSignals_writeEnable $end
   $var wire 1 #S WB $end
   $var wire 1 #T EXBarrier $end
   $var wire 1 #h EX $end
   $var wire 32 $$ testHarness_memUpdates_writeData $end
   $var wire 32 $3 testHarness_setupSignals_registerSignals_writeData $end
   $var wire 1 $= MEMBarrier $end
   $var wire 1 $> reset $end
   $var wire 1 $E testHarness_setupSignals_DMEMsignals_writeEnable $end
    $scope module ID $end
     $var wire 1 ! testHarness_registerSetup_writeEnable $end
     $var wire 32 0 io_out_op2 $end
     $var wire 12 T io_out_writeAddress $end
     $var wire 4 W io_out_aluOP $end
     $var wire 32 Y b $end
     $var wire 32 _ testHarness_registerPeek $end
     $var wire 32 c _GEN_1 $end
     $var wire 1 f io_wbIn_writeEnable $end
     $var wire 1 h io_outJ_jump $end
     $var wire 32 n io_out_memData $end
     $var wire 32 r io_wbIn_writeData $end
     $var wire 1 w testHarness_testUpdates_writeEnable $end
     $var wire 32 } immediate $end
     $var wire 32 "' io_outJ_nextPC $end
     $var wire 32 ") testHarness_registerSetup_writeData $end
     $var wire 5 "1 testHarness_testUpdates_writeAddress $end
     $var wire 5 "7 rdaddress $end
     $var wire 32 "M io_out_op1 $end
     $var wire 2 "\ _GEN_14 $end
     $var wire 32 "g a $end
     $var wire 5 "y testHarness_registerSetup_readAddress $end
     $var wire 5 "| _GEN_11 $end
     $var wire 5 #& rs2address $end
     $var wire 32 #( io_in_instruction_instruction $end
     $var wire 1 #) registers $end
     $var wire 1 #* io_out_memRead $end
     $var wire 1 #, io_out_regWrite $end
     $var wire 5 #= io_wbIn_writeAddress $end
     $var wire 1 #W Decoder $end
     $var wire 5 #] rs1address $end
     $var wire 1 #z io_out_memWrite $end
     $var wire 1 #} testHarness_registerSetup_setup $end
     $var wire 32 $" testHarness_testUpdates_writeData $end
     $var wire 1 $+ clock $end
     $var wire 32 $- io_in_pc $end
      $scope module registers $end
       $var wire 1 ) testHarness_testUpdates_writeEnable $end
       $var wire 1 , testHarness_setup_setup $end
       $var wire 32 8 testHarness_testUpdates_writeData $end
       $var wire 5 < readAddress1 $end
       $var wire 1 B clock $end
       $var wire 32 E io_readData1 $end
       $var wire 32 I registerFile $end
       $var wire 1 S testHarness_setup_writeEnable $end
       $var wire 1 g writeEnable $end
       $var wire 5 s io_readAddress1 $end
       $var wire 5 "6 testHarness_testUpdates_writeAddress $end
       $var wire 1 "I io_writeEnable $end
       $var wire 32 "b testHarness_setup_writeData $end
       $var wire 32 "u io_writeData $end
       $var wire 5 #: testHarness_setup_readAddress $end
       $var wire 32 #@ io_readData2 $end
       $var wire 5 #D writeAddress $end
       $var wire 5 #^ io_writeAddress $end
       $var wire 5 #` io_readAddress2 $end
        $scope module registerFile $end
          $scope module _T_33 $end
           $var wire 1 $ en $end
           $var wire 1 - pipeline_valid_0 $end
           $var wire 1 > clk $end
           $var wire 5 "= pipeline_addr_0 $end
           $var wire 1 "H mask $end
           $var wire 1 "k valid $end
           $var wire 5 #6 addr $end
           $var wire 32 #V pipeline_data_0 $end
           $var wire 32 $& data $end
          $upscope $end
          $scope module _T_41 $end
           $var wire 32 j data $end
           $var wire 1 ": en $end
           $var wire 1 #' clk $end
           $var wire 5 #w addr $end
          $upscope $end
          $scope module _T_38 $end
           $var wire 1 y clk $end
           $var wire 1 "e en $end
           $var wire 5 "x addr $end
           $var wire 32 #q data $end
          $upscope $end
        $upscope $end
      $upscope $end
      $scope module Decoder $end
       $var wire 1 5 io_controlSignals_memWrite $end
       $var wire 1 C io_controlSignals_memRead $end
       $var wire 1 "9 io_op2Select $end
       $var wire 2 "E decodedControlSignals_6 $end
       $var wire 1 #$ io_controlSignals_regWrite $end
       $var wire 4 #C io_ALUop $end
       $var wire 1 #E io_op1Select $end
       $var wire 32 #I io_instruction_instruction $end
       $var wire 1 #r io_controlSignals_jump $end
       $var wire 3 $0 io_branchType $end
       $var wire 1 $9 io_controlSignals_branch $end
       $var wire 3 $: io_immType $end
      $upscope $end
    $upscope $end
    $scope module MEM $end
     $var wire 1 @ io_out_memRead $end
     $var wire 1 V DMEM $end
     $var wire 32 ^ testHarness_testUpdates_writeAddress $end
     $var wire 1 l io_in_regWrite $end
     $var wire 32 "& _GEN_1 $end
     $var wire 32 "; io_in_memData $end
     $var wire 5 "A io_out_writeAddress $end
     $var wire 32 "F testHarness_DMEMsetup_dataAddress $end
     $var wire 32 "J io_in_writeData $end
     $var wire 1 "O io_out_regWrite $end
     $var wire 1 "S io_in_memWrite $end
     $var wire 32 "] _GEN_0 $end
     $var wire 1 #0 testHarness_testUpdates_writeEnable $end
     $var wire 32 #5 io_out_writeData $end
     $var wire 1 #< testHarness_DMEMsetup_writeEnable $end
     $var wire 32 #H testHarness_DMEMpeek $end
     $var wire 32 #Z io_dmemReadResult $end
     $var wire 1 #k testHarness_DMEMsetup_setup $end
     $var wire 32 #v testHarness_testUpdates_writeData $end
     $var wire 1 $! clock $end
     $var wire 1 $5 io_in_memRead $end
     $var wire 32 $7 testHarness_DMEMsetup_dataIn $end
     $var wire 32 $? _GEN_5 $end
     $var wire 12 $A io_in_writeAddress $end
      $scope module DMEM $end
       $var wire 32 + testHarness_testUpdates_writeData $end
       $var wire 1 3 _GEN_6 $end
       $var wire 12 = data__T_24_addr_pipe_0 $end
       $var wire 1 P testHarness_testUpdates_writeEnable $end
       $var wire 32 Z testHarness_setup_dataAddress $end
       $var wire 12 [ io_dataAddress $end
       $var wire 32 b testHarness_testUpdates_writeAddress $end
       $var wire 32 ~ addressSource $end
       $var wire 32 ". data $end
       $var wire 1 "Z io_writeEnable $end
       $var wire 1 #1 testHarness_setup_writeEnable $end
       $var wire 1 #3 testHarness_setup_setup $end
       $var wire 1 #\ clock $end
       $var wire 32 #o testHarness_setup_dataIn $end
       $var wire 32 #| io_dataIn $end
       $var wire 32 $( io_dataOut $end
        $scope module data $end
          $scope module _T_26 $end
           $var wire 1 " clk $end
           $var wire 12 p addr $end
           $var wire 32 "! pipeline_data_0 $end
           $var wire 1 "T pipeline_valid_0 $end
           $var wire 32 "f data $end
           $var wire 1 #U en $end
           $var wire 12 #c pipeline_addr_0 $end
           $var wire 1 #s valid $end
           $var wire 1 $, mask $end
          $upscope $end
          $scope module _T_24 $end
           $var wire 32 O data $end
           $var wire 1 "v clk $end
           $var wire 1 #[ en $end
           $var wire 12 #e addr $end
          $upscope $end
        $upscope $end
      $upscope $end
    $upscope $end
    $scope module IFBarrier $end
     $var wire 32 # io_in_instruction_instruction $end
     $var wire 32 K io_out_instruction_instruction $end
     $var wire 1 "~ clock $end
     $var wire 32 #! pc $end
     $var wire 32 #G io_in_pc $end
     $var wire 32 #~ io_out_pc $end
     $var wire 1 $# reset $end
    $upscope $end
    $scope module IF $end
     $var wire 1 & testHarness_IMEMsetup_setup $end
     $var wire 1 X IMEM $end
     $var wire 32 d testHarness_IMEMsetup_instruction $end
     $var wire 32 "% io_inJ_nextPC $end
     $var wire 1 "4 io_inJ_jump $end
     $var wire 1 "K clock $end
     $var wire 32 "P testHarness_PC $end
     $var wire 1 #A reset $end
     $var wire 32 #O testHarness_IMEMsetup_address $end
     $var wire 32 $' io_out_pc $end
     $var wire 32 $) io_out_instruction_instruction $end
     $var wire 32 $/ pc $end
     $var wire 32 $; _GEN_0 $end
      $scope module IMEM $end
       $var wire 32 L testHarness_setupSignals_instruction $end
       $var wire 12 U instructions__T_20_addr_pipe_0 $end
       $var wire 1 "/ clock $end
       $var wire 32 "d testHarness_setupSignals_address $end
       $var wire 1 "r _GEN_4 $end
       $var wire 32 "{ io_instruction $end
       $var wire 1 #9 testHarness_setupSignals_setup $end
       $var wire 32 #d addressSource $end
       $var wire 32 #t testHarness_requestedAddress $end
       $var wire 32 $* io_instructionAddress $end
       $var wire 32 $2 instructions $end
        $scope module instructions $end
          $scope module _T_18 $end
           $var wire 1 1 valid $end
           $var wire 1 F mask $end
           $var wire 1 k pipeline_valid_0 $end
           $var wire 12 "> addr $end
           $var wire 1 "D clk $end
           $var wire 32 #% data $end
           $var wire 12 #+ pipeline_addr_0 $end
           $var wire 32 #x pipeline_data_0 $end
           $var wire 1 $. en $end
          $upscope $end
          $scope module _T_20 $end
           $var wire 1 "- en $end
           $var wire 12 "^ addr $end
           $var wire 1 #" clk $end
           $var wire 32 #M data $end
          $upscope $end
        $upscope $end
      $upscope $end
    $upscope $end
    $scope module EX $end
     $var wire 1 ' io_in_regWrite $end
     $var wire 12 R io_in_writeAddress $end
     $var wire 1 q io_out_memWrite $end
     $var wire 1 | io_in_memWrite $end
     $var wire 63 "" _GEN_0 $end
     $var wire 32 "B io_in_op2 $end
     $var wire 32 "U io_in_memData $end
     $var wire 32 "W io_out_memData $end
     $var wire 32 #F io_in_op1 $end
     $var wire 4 #P io_in_aluOP $end
     $var wire 12 #Y io_out_writeAddress $end
     $var wire 1 #m io_in_memRead $end
     $var wire 1 #n io_out_memRead $end
     $var wire 32 #u io_out_writeData $end
     $var wire 1 $@ io_out_regWrite $end
    $upscope $end
    $scope module MEMBarrier $end
     $var wire 32 ( regs_writeData $end
     $var wire 5 A io_out_writeAddress $end
     $var wire 1 i io_out_regWrite $end
     $var wire 32 m io_in_writeData $end
     $var wire 1 o io_in_memRead $end
     $var wire 1 u regs_memRead $end
     $var wire 1 #- io_out_memRead $end
     $var wire 1 #K io_in_regWrite $end
     $var wire 32 #L io_out_writeData $end
     $var wire 5 #_ io_in_writeAddress $end
     $var wire 1 #a regs_regWrite $end
     $var wire 1 #g clock $end
     $var wire 5 #i regs_writeAddress $end
    $upscope $end
    $scope module EXBarrier $end
     $var wire 1 * regs_regWrite $end
     $var wire 1 7 io_in_regWrite $end
     $var wire 1 \ clock $end
     $var wire 12 t io_in_writeAddress $end
     $var wire 1 v io_out_regWrite $end
     $var wire 32 x io_in_writeData $end
     $var wire 1 "$ regs_memWrite $end
     $var wire 32 "( regs_memData $end
     $var wire 1 "< io_in_memWrite $end
     $var wire 32 "? regs_writeData $end
     $var wire 1 "N io_in_memRead $end
     $var wire 1 "m io_out_memWrite $end
     $var wire 32 "o io_out_memData $end
     $var wire 1 #? regs_memRead $end
     $var wire 12 #l regs_writeAddress $end
     $var wire 12 #{ io_out_writeAddress $end
     $var wire 1 $1 io_out_memRead $end
     $var wire 32 $B io_in_memData $end
     $var wire 32 $D io_out_writeData $end
    $upscope $end
    $scope module IDBarrier $end
     $var wire 12 . io_in_writeAddress $end
     $var wire 1 / regs_regWrite $end
     $var wire 32 ; io_out_memData $end
     $var wire 1 D regs_memRead $end
     $var wire 4 G io_out_aluOP $end
     $var wire 1 H io_in_memWrite $end
     $var wire 32 Q regs_op2 $end
     $var wire 32 e io_in_op2 $end
     $var wire 1 "* regs_memWrite $end
     $var wire 32 "5 io_out_op1 $end
     $var wire 1 "` io_out_memRead $end
     $var wire 32 "a regs_op1 $end
     $var wire 4 "i regs_aluOP $end
     $var wire 4 "j io_in_aluOP $end
     $var wire 1 "q io_out_regWrite $end
     $var wire 1 "s io_in_memRead $end
     $var wire 32 "w io_in_op1 $end
     $var wire 32 #. regs_memData $end
     $var wire 1 #8 io_in_regWrite $end
     $var wire 12 #B regs_writeAddress $end
     $var wire 12 #Q io_out_writeAddress $end
     $var wire 1 #f io_out_memWrite $end
     $var wire 32 $6 io_in_memData $end
     $var wire 32 $8 io_out_op2 $end
     $var wire 1 $F clock $end
    $upscope $end
    $scope module JBarrier $end
     $var wire 1 2 io_in_jump $end
     $var wire 32 ? regs_nextPC $end
     $var wire 32 M io_out_nextPC $end
     $var wire 1 ` regs_jump $end
     $var wire 32 "# io_in_nextPC $end
     $var wire 1 "L clock $end
     $var wire 1 #b io_out_jump $end
    $upscope $end
    $scope module WB $end
     $var wire 5 { io_in_writeAddress $end
     $var wire 32 ", io_out_writeData $end
     $var wire 1 "@ io_out_writeEnable $end
     $var wire 1 "n io_in_regWrite $end
     $var wire 32 ## io_in_writeData $end
     $var wire 32 #X io_dmemData $end
     $var wire 1 $4 io_in_memRead $end
     $var wire 5 $< io_out_writeAddress $end
    $upscope $end
  $upscope $end
$upscope $end
$enddefinitions $end
$dumpvars
0o
0$%
13
b00000000000000000000000000000000 "U
b00000000000000000000000000000000 r
b00000000000000000000000000000000 #.
b00000 "=
b00000000000000000000000000000000 "#
b00000000000000000000000000000000 "M
b00000000000000000000000000000000 "8
0#1
0#W
0"v
b00000000000000000000000000000000 Q
0$4
0#S
b00000000000000000000000000000000 b
0a
0"@
0D
0/
b00000000000000000000000000000000 $;
b00000000000000000000000000000000 E
b00000000000000000000000000000000 #o
b00000000000000000000000000000000 #Z
b00000000000000000000000000000000 0
b00000000000000000000000000000000 #(
0z
0"n
0]
0H
b000000000000 #c
0"<
0@
b00000 $<
b00000000000000000000000000000000 "u
b00000000000000000000000000000000 #V
b00000000000000000000000000000000 $7
b00000000000000000000000000000000 "C
b00000000000000000000000000000000 "&
b0000 #C
b00000 {
0#b
0$.
b00000 #:
0#E
0"O
0#0
0>
b00000000000000000000000000000000 ?
b000000000000 [
0#s
0l
0#A
0"K
0#,
b00000000000000000000000000000000 e
0#$
0"`
b00000000000000000000000000000000 m
b00000000000000000000000000000000 "g
b00000000000000000000000000000000 #H
b00000000000000000000000000000000 $)
b00000000000000000000000000000000 "5
0`
b00000000000000000000000000000000 #v
0"*
b000000000000 #Q
b000000000000 ">
b000000000000 U
1"r
b000 $:
b00000 "y
0#m
b00000000000000000000000000000000 #j
b00000 #=
b00000000000000000000000000000000 "W
0$1
b00000000000000000000000000000000 _
b00000000000000000000000000000000 "%
b00000000000000000000000000000000 $8
0#a
0"k
0#/
0"9
b000000000000 $A
0"N
b00000000000000000000000000000000 "!
b00 "\
0k
0$!
b00000 #i
b000000000000 "^
0$@
b00000000000000000000000000000000 "f
b00000000000000000000000000000000 #2
b00000000000000000000000000000000 $(
b00000000000000000000000000000000 #G
b00000000000000000000000000000000 "Q
0"~
0|
0J
b00000000000000000000000000000000 #u
b00000 #]
b00000 "|
b00000000000000000000000000000000 "w
0-
b00000000000000000000000000000000 "b
0#>
0#p
b00000000000000000000000000000000 "0
b00000000000000000000000000000000 M
b00000000000000000000000000000000 #X
b00000000000000000000000000000000 "(
b00000000000000000000000000000000 $$
0"Y
b00000000000000000000000000000000 ",
b00000000000000000000000000000000 ^
b0000 "j
0'
b000000000000 #B
b00000000000000000000000000000000 $3
b00000000000000000000000000000000 #J
b00000000000000000000000000000000 #5
b00000000000000000000000000000000 "?
0#\
0$=
b00000 "6
0"I
0#*
b00000000000000000000000000000000 #x
b00000000000000000000000000000000 $D
b00000000000000000000000000000000 N
b00000000000000000000000000000000 #N
b00000000000000000000000000000000 $/
b00000000000000000000000000000000 $'
b00000 #6
b00000000000000000000000000000000 #F
b00000000000000000000000000000000 "P
b000000000000 t
b00000000000000000000000000000000 ~
0"q
0h
0#R
0"G
b00000000000000000000000000000000 L
0#k
0y
0"m
0"X
b00000 #&
0\
0#9
b00000 #w
b00000000000000000000000000000000 +
b00000000000000000000000000000000 $6
b00000000000000000000000000000000 "_
b00000000000000000000000000000000 #@
0*
b00000000000000000000000000000000 ##
b00000000000000000000000000000000 "B
b000000000000000000000000000000000000000000000000000000000000000 ""
b0000 "i
b00000000000000000000000000000000 n
b00000000000000000000000000000000 Y
0X
0#-
0"L
0C
0&
b00000000000000000000000000000000 $2
0#z
0$>
b00000000000000000000000000000000 "d
b00000000000000000000000000000000 $&
b0000 W
0V
b00000 "7
b00000000000000000000000000000000 O
b00000000000000000000000000000000 :
b00000000000000000000000000000000 #d
0#n
b00000000000000000000000000000000 $"
b00000000000000000000000000000000 }
0g
0#<
b00000 "3
b00000000000000000000000000000000 ".
b00000000000000000000000000000000 K
0#'
05
0"[
b000000000000 T
0":
b00000000000000000000000000000000 #q
0)
b00000 #D
b00000 "x
b00000 "c
0#}
0%
b00000000000000000000000000000000 ;
b00000000000000000000000000000000 "o
0v
0#K
b00000000000000000000000000000000 "R
0#h
b00000000000000000000000000000000 Z
b000000000000 #+
b00000000000000000000000000000000 (
0#y
b00000000000000000000000000000000 $B
b00000000000000000000000000000000 #L
b00000000000000000000000000000000 $-
06
0$E
0!
0"4
b00000000000000000000000000000000 9
0$9
0f
0#;
b000000000000 #l
b00000 s
0"Z
b00000000000000000000000000000000 #t
1"-
b00000 A
b00000000000000000000000000000000 "a
b00000000000000000000000000000000 #%
b000000000000 p
0w
0"V
b00000 #`
0"$
b00000000000000000000000000000000 "z
b00000000000000000000000000000000 "]
b00000000000000000000000000000000 #!
b00000000000000000000000000000000 "+
0#g
0u
0$+
b00000 "A
b000000000000 #{
b00000000000000000000000000000000 "'
0"T
b000000000000 .
b00 "E
b000 $0
0q
0"e
1$,
b00000000000000000000000000000000 j
0i
0#)
07
0"
b00000000000000000000000000000000 #M
b00000000000000000000000000000000 $C
b00000000000000000000000000000000 #
b00000000000000000000000000000000 8
b00000000000000000000000000000000 "l
0$#
1F
0P
b00000 "1
0"/
b00000000000000000000000000000000 I
b00000000000000000000000000000000 4
b00000000000000000000000000000000 $?
b00000000000000000000000000000000 #I
b00000000000000000000000000000000 $*
b00000000000000000000000000000000 "h
0"D
b000000000000 R
b000000000000 =
b00000 #_
0#r
b00000 <
0"t
0#U
b00000000000000000000000000000000 d
b0000 G
0#8
01
b00000000000000000000000000000000 "{
0#f
0"p
0"S
b00000000000000000000000000000000 ";
b000000000000 #e
0B
0#4
0S
b00000000000000000000000000000000 #~
b000000000000 #Y
b00000000000000000000000000000000 #7
1#[
1"H
02
b00000000000000000000000000000000 "J
b00000 "2
b00000000000000000000000000000000 #|
b00000 "}
b00000 #^
0$5
0#T
b00000000000000000000000000000000 x
b00000000000000000000000000000000 c
b00000000000000000000000000000000 "F
0#"
b00000000000000000000000000000000 ")
0#?
0"s
0$F
b0000 #P
0#3
0,
0$
b00000000000000000000000000000000 #O
$end
#0
1$>
b1111 W
1#p
1#A
b00000000000000000000000000000100 $;
b1111 "j
1$#
b1111 #C
#1
1#'
1>
1"t
b1111 #P
1#g
1#"
1y
1$+
1"/
1"L
1"v
1#\
1"
1"K
b1111 "i
b1111 G
1\
1"~
1$!
1$F
1"D
1#/
1B
#6
0#/
0y
0#g
0"t
0$F
0"L
0$+
0B
0"/
0"v
0"
0"D
0#\
0\
0$!
0"~
0>
0#"
0"K
0#'
#11
1#'
1>
1"t
1#g
1#"
1y
1$+
1"/
1"L
1"v
1#\
1"
1"K
1\
1"~
1$!
1$F
1"D
1#/
1B
#16
0#/
0y
0#g
0"t
0$F
0"L
0$+
0B
0"/
0"v
0"
0"D
0#\
0\
0$!
0"~
0>
0#"
0"K
0#'
#21
1#'
1>
1"t
1#g
1#"
1y
1$+
1"/
1"L
1"v
1#\
1"
1"K
1\
1"~
1$!
1$F
1"D
1#/
1B
#26
0#/
0y
0#g
0"t
0$F
0"L
0$+
0B
0"/
0"v
0"
0"D
0#\
0\
0$!
0"~
0>
0#"
0"K
0#'
#31
1#'
1>
1"t
1#g
1#"
1y
1$+
1"/
1"L
1"v
1#\
1"
1"K
1\
1"~
1$!
1$F
1"D
1#/
1B
#36
0#/
0y
0#g
0"t
0$F
0"L
0$+
0B
0"/
0"v
0"
0"D
0#\
0\
0$!
0"~
0>
0#"
0"K
0#'
#41
1#'
1>
1"t
1#g
1#"
1y
1$+
1"/
1"L
1"v
1#\
1"
1"K
1\
1"~
1$!
1$F
1"D
1#/
1B
#46
b00000000000000000000000000010011 #
1&
0#/
b0000 "j
b00000000000100000000000010010011 #J
0#g
1#8
1,
0"L
1#$
b00000000000100000000000010010011 d
0$+
b00000000000000000000000000010011 #I
0B
0"/
0"v
1#y
0\
0$!
b00000000000000000000000000000000 $;
1#;
b00000000000000000000000000010011 #(
0"~
0>
11
1#9
b00000000000000000000000000010011 K
0#A
b00000000000100000000000010010011 :
0#"
1$.
0"K
1#,
0#'
0$#
0y
0#p
1#3
b00000000000100000000000010010011 L
1#k
0"t
0$F
1"Y
b00000000000100000000000010010011 #%
1"9
0"
0"D
0#\
b00000000000000000000000000010011 $)
b0000 #C
1"p
0$>
b0000 W
1#}
#51
b0000 #P
1#'
1>
1"t
1#g
1k
1$+
1"/
1"q
b0000 "i
1"
1\
1"~
1$F
1"D
b00000000000100000000000010010011 #x
1B
b00000000000100000000000010010011 "{
b0000 G
1/
1#"
1y
1"L
1"v
1#\
b00000000000100000000000010010011 #M
1"K
1'
1$!
1#/
#56
b00000000000000000000000000010011 :
0#/
0#g
0"L
b00000000000000000000000000010011 d
0$+
b00000000000000000000000000010011 #J
0B
0"/
0"v
b00000000000000000000000000000100 "d
b00000000000000000000000000010011 L
0\
0$!
0"~
0>
b00000000000000000000000000010011 #%
0#"
0"K
0#'
b00000000000000000000000000000100 4
b000000000100 ">
0y
b00000000000000000000000000000100 #O
0"t
0$F
0"
0"D
0#\
b00000000000000000000000000000100 N
b00000000000000000000000000000100 #d
#61
b00000000000000000000000000010011 #x
1#'
1>
1"t
b00000000000000000000000000010011 "{
1#g
1#"
b000000000100 #+
1y
1$+
1"/
b000000000100 "^
1"L
1"v
1#\
1"
1"K
1\
b000000000100 U
1$!
b00000000000000000000000000010011 #M
1"D
1#/
1$F
1"~
1B
#66
0#/
0y
b00000000000000000000000000001000 N
b00000000000000000000000000001000 4
b000000001000 ">
0#g
0"t
0$F
0"L
0$+
0B
0"/
0"v
b00000000000000000000000000001000 #d
0"
0"D
0#\
0\
0$!
0"~
0>
0#"
b00000000000000000000000000001000 #O
0"K
b00000000000000000000000000001000 "d
0#'
#71
b000000001000 #+
1#'
1>
1"t
1#g
1#"
b000000001000 U
1y
1$+
1"/
1"L
1"v
1#\
1"
1"K
b000000001000 "^
1\
1"~
1$!
1$F
1"D
1#/
1B
#76
b00000000000000000000000000001100 #O
0#/
0y
b00000000000000000000000000001100 #d
0#g
0"t
0$F
0"L
0$+
0B
b000000001100 ">
0"/
0"v
0"
0"D
b00000000000000000000000000001100 N
0#\
0\
0$!
b00000000000000000000000000001100 "d
0"~
0>
0#"
0"K
0#'
b00000000000000000000000000001100 4
#81
b000000001100 #+
b000000001100 U
1#'
1>
1"t
1#g
1#"
b000000001100 "^
1y
1$+
1"/
1"L
1"v
1#\
1"
1"K
1\
1"~
1$!
1$F
1"D
1#/
1B
#86
0#/
0y
b00000000000000000000000000010000 4
0#g
b00000000000000000000000000010000 "d
0"t
0$F
0"L
0$+
0B
0"/
0"v
b00000000000000000000000000010000 #O
0"
0"D
0#\
0\
0$!
b00000000000000000000000000010000 #d
0"~
0>
b000000010000 ">
0#"
0"K
0#'
b00000000000000000000000000010000 N
#91
b000000010000 "^
b000000010000 U
1#'
1>
1"t
1#g
1#"
1y
1$+
1"/
1"L
1"v
1#\
b000000010000 #+
1"
1"K
1\
1"~
1$!
1$F
1"D
1#/
1B
#96
0#/
b11111111111100000000000100010011 d
0#g
0"L
0$+
b11111111111100000000000100010011 #%
0B
0"/
0"v
b11111111111100000000000100010011 #J
0\
0$!
0"~
0>
b00000000000000000000000000010100 "d
0#"
0"K
b00000000000000000000000000010100 #O
0#'
b000000010100 ">
0y
b11111111111100000000000100010011 :
0"t
0$F
b00000000000000000000000000010100 4
0"
0"D
0#\
b00000000000000000000000000010100 N
b00000000000000000000000000010100 #d
b11111111111100000000000100010011 L
#101
1#'
1>
1"t
b000000010100 U
b000000010100 "^
1#"
b11111111111100000000000100010011 #M
1#g
1y
1$+
1"/
1"L
b11111111111100000000000100010011 #x
1"v
1#\
1"
1"K
1\
b11111111111100000000000100010011 "{
1$!
1$F
1"D
1#/
1"~
b000000010100 #+
1B
#106
b00000000000000000000000000010011 :
0#/
0#g
0"L
b00000000000000000000000000010011 d
0$+
b00000000000000000000000000010011 #J
0B
0"/
0"v
b00000000000000000000000000011000 "d
b00000000000000000000000000011000 #d
b00000000000000000000000000010011 L
0\
0$!
0"~
0>
b00000000000000000000000000010011 #%
0#"
0"K
0#'
0y
b00000000000000000000000000011000 N
b00000000000000000000000000011000 #O
0"t
0$F
0"
0"D
0#\
b00000000000000000000000000011000 4
b000000011000 ">
#111
b00000000000000000000000000010011 #x
1#'
1>
1"t
b00000000000000000000000000010011 "{
1#g
1#"
1y
1$+
1"/
1"L
1"v
1#\
b000000011000 U
1"
1"K
b000000011000 "^
1\
b00000000000000000000000000010011 #M
1$!
1$F
1"D
1#/
1"~
b000000011000 #+
1B
#116
0#/
0y
b00000000000000000000000000011100 N
0#g
b00000000000000000000000000011100 #O
0"t
0$F
0"L
0$+
b00000000000000000000000000011100 #d
0B
0"/
0"v
0"
b00000000000000000000000000011100 4
b000000011100 ">
0"D
0#\
0\
0$!
0"~
0>
0#"
0"K
b00000000000000000000000000011100 "d
0#'
#121
1#'
1>
1"t
1#g
1#"
1y
1$+
1"/
1"L
1"v
b000000011100 "^
1#\
1"
1"K
1\
1"~
1$!
1$F
1"D
1#/
b000000011100 #+
b000000011100 U
1B
#126
b000000100000 ">
b00000000000000000000000000100000 #O
0#/
0y
0#g
0"t
0$F
0"L
b00000000000000000000000000100000 4
0$+
0B
0"/
0"v
0"
0"D
0#\
0\
0$!
b00000000000000000000000000100000 #d
b00000000000000000000000000100000 N
0"~
0>
0#"
0"K
0#'
b00000000000000000000000000100000 "d
#131
1#'
1>
b000000100000 U
1"t
1#g
1#"
b000000100000 #+
1y
1$+
1"/
1"L
1"v
1#\
1"
1"K
1\
b000000100000 "^
1"~
1$!
1$F
1"D
1#/
1B
#136
0#/
0y
0#g
0"t
0$F
0"L
0$+
0B
0"/
0"v
b00000000000000000000000000100100 N
0"
0"D
0#\
0\
0$!
b000000100100 ">
0"~
0>
b00000000000000000000000000100100 #O
b00000000000000000000000000100100 #d
b00000000000000000000000000100100 "d
0#"
0"K
0#'
b00000000000000000000000000100100 4
#141
b000000100100 U
1#'
1>
1"t
1#g
1#"
b000000100100 #+
1y
1$+
1"/
1"L
1"v
1#\
1"
1"K
1\
1"~
1$!
1$F
1"D
1#/
b000000100100 "^
1B
#146
0#/
b00000000000000000000000000101000 "d
0#g
0"L
0$+
b00000000001100000000000110010011 L
0B
0"/
0"v
0\
0$!
0"~
0>
b00000000001100000000000110010011 #J
0#"
0"K
0#'
b00000000000000000000000000101000 #O
b00000000000000000000000000101000 #d
b00000000001100000000000110010011 d
0y
b00000000000000000000000000101000 N
b00000000000000000000000000101000 4
0"t
0$F
0"
0"D
b00000000001100000000000110010011 #%
0#\
b00000000001100000000000110010011 :
b000000101000 ">
#151
b000000101000 U
b000000101000 "^
b00000000001100000000000110010011 #M
1#'
1>
1"t
1#g
1#"
b00000000001100000000000110010011 "{
1y
b000000101000 #+
1"/
1$+
1"L
1"v
1#\
1"
1"K
1\
1"~
1$!
1$F
1"D
1#/
b00000000001100000000000110010011 #x
1B
