waveforms/arithImm.s.vcd
$date
2022-10-06T21:55+0000
$end
$version
0.2
$end
$comment

$end
$timescale 1ns  $end
$scope module Tile $end
 $var wire 1 5 io_regsWriteEnable $end
 $var wire 32 8 io_regsReadData $end
 $var wire 32 K io_IMEMAddress $end
 $var wire 1 Y io_regsDeviceWriteEnable $end
 $var wire 32 ~ io_DMEMAddress $end
 $var wire 32 "D io_DMEMWriteData $end
 $var wire 1 "I CPU $end
 $var wire 32 "O io_regsDeviceWriteData $end
 $var wire 5 "S io_regsDeviceWriteAddress $end
 $var wire 1 "d clock $end
 $var wire 32 "j io_currentPC $end
 $var wire 5 "l io_regsAddress $end
 $var wire 1 ## io_DMEMWriteEnable $end
 $var wire 32 #& io_memDeviceWriteAddress $end
 $var wire 32 #9 io_IMEMWriteData $end
 $var wire 32 #= io_memDeviceWriteData $end
 $var wire 32 #X io_DMEMReadData $end
 $var wire 1 #^ reset $end
 $var wire 1 #f io_setup $end
 $var wire 1 #q io_memDeviceWriteEnable $end
 $var wire 32 $- io_regsWriteData $end
  $scope module CPU.MEMBarrier $end
  $upscope $end
  $scope module CPU.EX $end
  $upscope $end
  $scope module CPU.EXBarrier $end
  $upscope $end
  $scope module CPU.MEM $end
  $upscope $end
  $scope module CPU.WB $end
  $upscope $end
  $scope module CPU.IDBarrier $end
  $upscope $end
  $scope module CPU.ID $end
  $upscope $end
  $scope module CPU.ID.registers $end
  $upscope $end
  $scope module CPU.IFBarrier $end
  $upscope $end
  $scope module CPU.IF $end
  $upscope $end
  $scope module CPU.IF.IMEM $end
  $upscope $end
  $scope module CPU.MEM.DMEM $end
  $upscope $end
  $scope module CPU.ID.Decoder $end
  $upscope $end
  $scope module CPU $end
   $var wire 1 % IDBarrier $end
   $var wire 32 3 testHarness_setupSignals_IMEMsignals_address $end
   $var wire 32 9 testHarness_setupSignals_IMEMsignals_instruction $end
   $var wire 1 H testHarness_regUpdates_writeEnable $end
   $var wire 1 \ ID $end
   $var wire 1 s testHarness_memUpdates_writeEnable $end
   $var wire 32 "% testHarness_regUpdates_writeData $end
   $var wire 5 "' testHarness_regUpdates_writeAddress $end
   $var wire 5 "( testHarness_setupSignals_registerSignals_readAddress $end
   $var wire 32 ", testHarness_testReadouts_registerRead $end
   $var wire 32 "7 testHarness_currentPC $end
   $var wire 1 "; IF $end
   $var wire 32 "E testHarness_memUpdates_writeAddress $end
   $var wire 1 "K IFBarrier $end
   $var wire 1 "L testHarness_setupSignals_DMEMsignals_setup $end
   $var wire 32 "X testHarness_testReadouts_DMEMread $end
   $var wire 32 "\ testHarness_setupSignals_DMEMsignals_dataIn $end
   $var wire 1 "` testHarness_setupSignals_IMEMsignals_setup $end
   $var wire 1 "| clock $end
   $var wire 32 #! testHarness_setupSignals_DMEMsignals_dataAddress $end
   $var wire 1 #* testHarness_setupSignals_registerSignals_setup $end
   $var wire 1 #- MEM $end
   $var wire 1 #A testHarness_setupSignals_registerSignals_writeEnable $end
   $var wire 1 #B WB $end
   $var wire 1 #C EXBarrier $end
   $var wire 1 #V EX $end
   $var wire 32 #o testHarness_memUpdates_writeData $end
   $var wire 32 #} testHarness_setupSignals_registerSignals_writeData $end
   $var wire 1 $( MEMBarrier $end
   $var wire 1 $) reset $end
   $var wire 1 $/ testHarness_setupSignals_DMEMsignals_writeEnable $end
    $scope module ID $end
     $var wire 1 ! testHarness_registerSetup_writeEnable $end
     $var wire 32 0 io_out_op2 $end
     $var wire 12 Q io_out_writeAddress $end
     $var wire 4 T io_out_aluOP $end
     $var wire 32 [ testHarness_registerPeek $end
     $var wire 1 ` io_wbIn_writeEnable $end
     $var wire 32 g io_out_memData $end
     $var wire 32 k io_wbIn_writeData $end
     $var wire 1 p testHarness_testUpdates_writeEnable $end
     $var wire 32 v immediate $end
     $var wire 32 | testHarness_registerSetup_writeData $end
     $var wire 5 "& testHarness_testUpdates_writeAddress $end
     $var wire 5 "+ rdaddress $end
     $var wire 32 "@ io_out_op1 $end
     $var wire 2 "T _GEN_0 $end
     $var wire 5 "i testHarness_registerSetup_readAddress $end
     $var wire 5 "s rs2address $end
     $var wire 32 "u io_in_instruction_instruction $end
     $var wire 1 "v registers $end
     $var wire 1 "w io_out_memRead $end
     $var wire 1 "y io_out_regWrite $end
     $var wire 5 #, io_wbIn_writeAddress $end
     $var wire 1 #F Decoder $end
     $var wire 5 #L rs1address $end
     $var wire 1 #g io_out_memWrite $end
     $var wire 1 #j testHarness_registerSetup_setup $end
     $var wire 32 #m testHarness_testUpdates_writeData $end
     $var wire 1 #v clock $end
     $var wire 32 #x io_in_pc $end
      $scope module registers $end
       $var wire 1 ) testHarness_testUpdates_writeEnable $end
       $var wire 1 , testHarness_setup_setup $end
       $var wire 32 7 testHarness_testUpdates_writeData $end
       $var wire 5 ; readAddress1 $end
       $var wire 1 @ clock $end
       $var wire 32 C io_readData1 $end
       $var wire 32 G registerFile $end
       $var wire 1 P testHarness_setup_writeEnable $end
       $var wire 1 a writeEnable $end
       $var wire 5 l io_readAddress1 $end
       $var wire 5 "* testHarness_testUpdates_writeAddress $end
       $var wire 1 "= io_writeEnable $end
       $var wire 32 "R testHarness_setup_writeData $end
       $var wire 32 "e io_writeData $end
       $var wire 5 #) testHarness_setup_readAddress $end
       $var wire 32 #/ io_readData2 $end
       $var wire 5 #3 writeAddress $end
       $var wire 5 #M io_writeAddress $end
       $var wire 5 #O io_readAddress2 $end
        $scope module registerFile $end
          $scope module _T_33 $end
           $var wire 1 $ en $end
           $var wire 1 - pipeline_valid_0 $end
           $var wire 1 = clk $end
           $var wire 5 "1 pipeline_addr_0 $end
           $var wire 1 "< mask $end
           $var wire 1 "[ valid $end
           $var wire 5 #% addr $end
           $var wire 32 #E pipeline_data_0 $end
           $var wire 32 #p data $end
          $upscope $end
          $scope module _T_41 $end
           $var wire 32 c data $end
           $var wire 1 ". en $end
           $var wire 1 "t clk $end
           $var wire 5 #d addr $end
          $upscope $end
          $scope module _T_38 $end
           $var wire 1 r clk $end
           $var wire 1 "V en $end
           $var wire 5 "h addr $end
           $var wire 32 #_ data $end
          $upscope $end
        $upscope $end
      $upscope $end
      $scope module Decoder $end
       $var wire 1 4 io_controlSignals_memWrite $end
       $var wire 1 A io_controlSignals_memRead $end
       $var wire 1 "- io_op2Select $end
       $var wire 2 "9 decodedControlSignals_6 $end
       $var wire 1 "q io_controlSignals_regWrite $end
       $var wire 4 #2 io_ALUop $end
       $var wire 1 #4 io_op1Select $end
       $var wire 32 #8 io_instruction_instruction $end
       $var wire 3 $% io_immType $end
      $upscope $end
    $upscope $end
    $scope module MEM $end
     $var wire 1 > io_out_memRead $end
     $var wire 1 S DMEM $end
     $var wire 32 Z testHarness_testUpdates_writeAddress $end
     $var wire 1 e io_in_regWrite $end
     $var wire 32 "/ io_in_memData $end
     $var wire 5 "5 io_out_writeAddress $end
     $var wire 32 ": testHarness_DMEMsetup_dataAddress $end
     $var wire 32 "> io_in_writeData $end
     $var wire 1 "B io_out_regWrite $end
     $var wire 1 "F io_in_memWrite $end
     $var wire 1 "} testHarness_testUpdates_writeEnable $end
     $var wire 32 #$ io_out_writeData $end
     $var wire 1 #+ testHarness_DMEMsetup_writeEnable $end
     $var wire 32 #7 testHarness_DMEMpeek $end
     $var wire 32 #I io_dmemReadResult $end
     $var wire 1 #Y testHarness_DMEMsetup_setup $end
     $var wire 32 #c testHarness_testUpdates_writeData $end
     $var wire 1 #l clock $end
     $var wire 1 $! io_in_memRead $end
     $var wire 32 $# testHarness_DMEMsetup_dataIn $end
     $var wire 12 $+ io_in_writeAddress $end
      $scope module DMEM $end
       $var wire 32 + testHarness_testUpdates_writeData $end
       $var wire 1 2 _GEN_6 $end
       $var wire 12 < data__T_24_addr_pipe_0 $end
       $var wire 1 M testHarness_testUpdates_writeEnable $end
       $var wire 32 V testHarness_setup_dataAddress $end
       $var wire 12 W io_dataAddress $end
       $var wire 32 ] testHarness_testUpdates_writeAddress $end
       $var wire 32 w addressSource $end
       $var wire 32 "# data $end
       $var wire 1 "M io_writeEnable $end
       $var wire 1 "~ testHarness_setup_writeEnable $end
       $var wire 1 #" testHarness_setup_setup $end
       $var wire 1 #K clock $end
       $var wire 32 #] testHarness_setup_dataIn $end
       $var wire 32 #i io_dataIn $end
       $var wire 32 #s io_dataOut $end
        $scope module data $end
          $scope module _T_26 $end
           $var wire 1 " clk $end
           $var wire 12 i addr $end
           $var wire 32 x pipeline_data_0 $end
           $var wire 1 "G pipeline_valid_0 $end
           $var wire 32 "W data $end
           $var wire 1 #D en $end
           $var wire 12 #Q pipeline_addr_0 $end
           $var wire 1 #` valid $end
           $var wire 1 #w mask $end
          $upscope $end
          $scope module _T_24 $end
           $var wire 32 L data $end
           $var wire 1 "f clk $end
           $var wire 1 #J en $end
           $var wire 12 #S addr $end
          $upscope $end
        $upscope $end
      $upscope $end
    $upscope $end
    $scope module IFBarrier $end
     $var wire 32 # io_in_instruction_instruction $end
     $var wire 32 I io_out_instruction_instruction $end
     $var wire 1 "m clock $end
     $var wire 32 "n pc $end
     $var wire 32 #6 io_in_pc $end
     $var wire 32 #k io_out_pc $end
     $var wire 1 #n reset $end
    $upscope $end
    $scope module IF $end
     $var wire 1 & testHarness_IMEMsetup_setup $end
     $var wire 1 U IMEM $end
     $var wire 32 ^ testHarness_IMEMsetup_instruction $end
     $var wire 1 "? clock $end
     $var wire 32 "C testHarness_PC $end
     $var wire 1 #0 reset $end
     $var wire 32 #> testHarness_IMEMsetup_address $end
     $var wire 32 #r io_out_pc $end
     $var wire 32 #t io_out_instruction_instruction $end
     $var wire 32 #z pc $end
     $var wire 32 $& _GEN_0 $end
      $scope module IMEM $end
       $var wire 32 J testHarness_setupSignals_instruction $end
       $var wire 12 R instructions__T_20_addr_pipe_0 $end
       $var wire 1 "$ clock $end
       $var wire 32 "U testHarness_setupSignals_address $end
       $var wire 1 "b _GEN_4 $end
       $var wire 32 "k io_instruction $end
       $var wire 1 #( testHarness_setupSignals_setup $end
       $var wire 32 #R addressSource $end
       $var wire 32 #a testHarness_requestedAddress $end
       $var wire 32 #u io_instructionAddress $end
       $var wire 32 #| instructions $end
        $scope module instructions $end
          $scope module _T_18 $end
           $var wire 1 1 valid $end
           $var wire 1 D mask $end
           $var wire 1 d pipeline_valid_0 $end
           $var wire 12 "2 addr $end
           $var wire 1 "8 clk $end
           $var wire 32 "r data $end
           $var wire 12 "x pipeline_addr_0 $end
           $var wire 32 #e pipeline_data_0 $end
           $var wire 1 #y en $end
          $upscope $end
          $scope module _T_20 $end
           $var wire 1 "" en $end
           $var wire 12 "N addr $end
           $var wire 1 "o clk $end
           $var wire 32 #< data $end
          $upscope $end
        $upscope $end
      $upscope $end
    $upscope $end
    $scope module EX $end
     $var wire 1 ' io_in_regWrite $end
     $var wire 12 O io_in_writeAddress $end
     $var wire 1 j io_out_memWrite $end
     $var wire 1 u io_in_memWrite $end
     $var wire 63 y _GEN_0 $end
     $var wire 32 "6 io_in_op2 $end
     $var wire 32 "H io_in_memData $end
     $var wire 32 "J io_out_memData $end
     $var wire 32 #5 io_in_op1 $end
     $var wire 4 #? io_in_aluOP $end
     $var wire 12 #H io_out_writeAddress $end
     $var wire 1 #[ io_in_memRead $end
     $var wire 1 #\ io_out_memRead $end
     $var wire 32 #b io_out_writeData $end
     $var wire 1 $* io_out_regWrite $end
    $upscope $end
    $scope module MEMBarrier $end
     $var wire 32 ( regs_writeData $end
     $var wire 5 ? io_out_writeAddress $end
     $var wire 1 b io_out_regWrite $end
     $var wire 32 f io_in_writeData $end
     $var wire 1 h io_in_memRead $end
     $var wire 1 n regs_memRead $end
     $var wire 1 "z io_out_memRead $end
     $var wire 1 #: io_in_regWrite $end
     $var wire 32 #; io_out_writeData $end
     $var wire 5 #N io_in_writeAddress $end
     $var wire 1 #P regs_regWrite $end
     $var wire 1 #U clock $end
     $var wire 5 #W regs_writeAddress $end
    $upscope $end
    $scope module EXBarrier $end
     $var wire 1 * regs_regWrite $end
     $var wire 1 6 io_in_regWrite $end
     $var wire 1 X clock $end
     $var wire 12 m io_in_writeAddress $end
     $var wire 1 o io_out_regWrite $end
     $var wire 32 q io_in_writeData $end
     $var wire 1 z regs_memWrite $end
     $var wire 32 { regs_memData $end
     $var wire 1 "0 io_in_memWrite $end
     $var wire 32 "3 regs_writeData $end
     $var wire 1 "A io_in_memRead $end
     $var wire 1 "] io_out_memWrite $end
     $var wire 32 "_ io_out_memData $end
     $var wire 1 #. regs_memRead $end
     $var wire 12 #Z regs_writeAddress $end
     $var wire 12 #h io_out_writeAddress $end
     $var wire 1 #{ io_out_memRead $end
     $var wire 32 $, io_in_memData $end
     $var wire 32 $. io_out_writeData $end
    $upscope $end
    $scope module IDBarrier $end
     $var wire 12 . io_in_writeAddress $end
     $var wire 1 / regs_regWrite $end
     $var wire 32 : io_out_memData $end
     $var wire 1 B regs_memRead $end
     $var wire 4 E io_out_aluOP $end
     $var wire 1 F io_in_memWrite $end
     $var wire 32 N regs_op2 $end
     $var wire 32 _ io_in_op2 $end
     $var wire 1 } regs_memWrite $end
     $var wire 32 ") io_out_op1 $end
     $var wire 1 "P io_out_memRead $end
     $var wire 32 "Q regs_op1 $end
     $var wire 4 "Y regs_aluOP $end
     $var wire 4 "Z io_in_aluOP $end
     $var wire 1 "a io_out_regWrite $end
     $var wire 1 "c io_in_memRead $end
     $var wire 32 "g io_in_op1 $end
     $var wire 32 "{ regs_memData $end
     $var wire 1 #' io_in_regWrite $end
     $var wire 12 #1 regs_writeAddress $end
     $var wire 12 #@ io_out_writeAddress $end
     $var wire 1 #T io_out_memWrite $end
     $var wire 32 $" io_in_memData $end
     $var wire 32 $$ io_out_op2 $end
     $var wire 1 $0 clock $end
    $upscope $end
    $scope module WB $end
     $var wire 5 t io_in_writeAddress $end
     $var wire 32 "! io_out_writeData $end
     $var wire 1 "4 io_out_writeEnable $end
     $var wire 1 "^ io_in_regWrite $end
     $var wire 32 "p io_in_writeData $end
     $var wire 32 #G io_dmemData $end
     $var wire 1 #~ io_in_memRead $end
     $var wire 5 $' io_out_writeAddress $end
    $upscope $end
  $upscope $end
$upscope $end
$enddefinitions $end
$dumpvars
0o
0"c
0#D
b00000000000000000000000000000000 #}
0=
b00000000000000000000000000000000 "j
b00000000000000000000000000000000 #6
b00000000000000000000000000000000 "U
b00000000000000000000000000000000 $,
0"P
b00000000000000000000000000000000 "#
0"v
b000000000000 m
b00000000000000000000000000000000 w
0a
1"b
b0000 E
b00000000000000000000000000000000 #o
b00000000000000000000000000000000 0
0/
b00000000000000000000000000000000 #=
b00000000000000000000000000000000 "\
0z
0$0
0r
0H
b00000000000000000000000000000000 #s
0@
b00000000000000000000000000000000 #k
b00000000000000000000000000000000 "u
b000000000000 #1
b00000000000000000000000000000000 "X
b00000000000000000000000000000000 #$
b00000000000000000000000000000000 "C
b00000000000000000000000000000000 #9
b00000 #O
b00000000000000000000000000000000 q
0"d
0#0
b00000 "'
b0000 T
0>
b00000000000000000000000000000000 #i
0p
b0000 #?
0"}
0#^
0#A
0"K
0"`
b00000000000000000000000000000000 #z
b00000000000000000000000000000000 #e
b000000000000 #@
0".
b00000000000000000000000000000000 3
b00000000000000000000000000000000 "g
b000000000000 <
0`
0"?
b000000000000 #Q
b000 $%
0#P
b00000000000000000000000000000000 #8
b00000000000000000000000000000000 "W
b00000000000000000000000000000000 _
0"o
b00000 "*
b00000000000000000000000000000000 "%
0"=
0#~
b00000 #N
b00000000000000000000000000000000 [
b00000000000000000000000000000000 "6
b00000000000000000000000000000000 "!
b00000 "&
1#w
0$!
0"-
0"~
b00000 #L
b00000000000000000000000000000000 #G
b00000000000000000000000000000000 "Q
b00000 t
b00000000000000000000000000000000 #u
0-
0"z
b00000000000000000000000000000000 #X
0#[
b00000000000000000000000000000000 $$
0"]
b00000 "5
b00000000000000000000000000000000 #&
b00000000000000000000000000000000 "E
b000000000000 i
b00 "9
1""
b00000000000000000000000000000000 {
0#:
b00000000000000000000000000000000 ^
b00000000000000000000000000000000 ",
0#`
0n
0Y
0#.
0"M
b000000000000 $+
0'
b00000000000000000000000000000000 #R
b00000 #W
b00000000000000000000000000000000 #5
b00000000000000000000000000000000 "7
0#\
0j
0U
0"I
0#*
b00000000000000000000000000000000 N
0#{
b00000000000000000000000000000000 #c
0M
b00000000000000000000000000000000 #x
b00000000000000000000000000000000 "e
b00000000000000000000000000000000 "3
b000000000000 W
b0000 "Z
0"y
b00000000000000000000000000000000 ~
0h
0}
0"q
0#(
b00000000000000000000000000000000 L
0"G
0"m
0$/
b00000000000000000000000000000000 ]
0\
b00000 "(
0";
b00000000000000000000000000000000 #r
0*
b00000000000000000000000000000000 +
b00000000000000000000000000000000 "_
0X
0"L
0#-
1"<
0&
b00000000000000000000000000000000 "p
b00000000000000000000000000000000 ">
b00000 "i
b00000000000000000000000000000000 #E
b00000000000000000000000000000000 $&
0$)
0"|
0#+
b00000000000000000000000000000000 :
b0000 "Y
0#v
0#n
b00000 $'
0#Y
b00000000000000000000000000000000 $"
b00000 #)
0"F
0"[
b00000000000000000000000000000000 K
05
0#'
0F
0)
0#l
0%
0#K
b00000000000000000000000000000000 "R
b00000000000000000000000000000000 Z
0"8
b00000000000000000000000000000000 (
06
b00000000000000000000000000000000 #a
b00000000000000000000000000000000 "k
b00000000000000000000000000000000 $-
0!
0$(
b00000 "S
b00000000000000000000000000000000 k
b00000000000000000000000000000000 V
0"f
0"4
0#y
b00000000000000000000000000000000 9
b00000000000000000000000000000000 #/
0"w
b00000000000000000000000000000000 |
12
b00000000000000000000000000000000 J
04
b00000 #d
b00000000000000000000000000000000 #t
b00000000000000000000000000000000 #_
b00000000000000000000000000000000 $#
b00000000000000000000000000000000 "D
b00000000000000000000000000000000 "/
0b
0"V
b000000000000 #h
b00000000000000000000000000000000 #p
0"$
b00000000000000000000000000000000 "r
b00000000000000000000000000000000 #>
b00000000000000000000000000000000 "H
0#V
b00000000000000000000000000000000 "@
b00000000000000000000000000000000 #!
b000000000000 O
0#g
b00000 "s
0u
b000000000000 .
b00000 #3
0#F
b000000000000 #Z
b00000000000000000000000000000000 8
b00000000000000000000000000000000 #b
0"
b00000000000000000000000000000000 $.
b000000000000 "2
b00000000000000000000000000000000 #
b00000000000000000000000000000000 "O
b00000000000000000000000000000000 ":
0"a
0#B
0e
b00000000000000000000000000000000 f
b00000 "1
0P
b00000000000000000000000000000000 I
b00000000000000000000000000000000 #I
b000000000000 R
b00 "T
0#j
0"t
0#U
1D
b00000 #%
0"B
0##
b00000000000000000000000000000000 G
01
b00000000000000000000000000000000 "{
b0000 #2
0#f
0$*
0#4
b00000 "+
b00000 l
b00000000000000000000000000000000 C
b00000000000000000000000000000000 #m
b000000000000 #H
0B
b00000000000000000000000000000000 #;
1#J
0S
b000000000000 "x
b000000000000 "N
b00000000000000000000000000000000 7
b00000000000000000000000000000000 #7
b000000000000000000000000000000000000000000000000000000000000000 y
0d
b00000 "l
b00000000000000000000000000000000 #]
b00000 #M
b00000 ?
0#C
b00000000000000000000000000000000 "J
b00000000000000000000000000000000 g
b00000000000000000000000000000000 #|
0"0
b000000000000 Q
0#q
b00000 "h
b00000 ;
0#T
0"^
b00000 #,
b00000000000000000000000000000000 x
b00000000000000000000000000000000 #<
0"A
b000000000000 #S
b00000000000000000000000000000000 ")
0#"
b00000000000000000000000000000000 c
0s
0A
0,
0$
b00000000000000000000000000000000 "n
b00000000000000000000000000000000 v
$end
#0
1$)
b1111 #2
1#^
1#n
b1111 "Z
1#0
b00000000000000000000000000000100 $&
b1111 T
#1
1#v
1@
1X
1$0
1#U
1"
1#l
b1111 "Y
1"f
1"m
b1111 #?
1"|
1=
1"?
1"o
b1111 E
1"t
1"d
1#K
1r
1"8
1"$
#6
0$0
0"t
0#U
0"f
0"8
0"|
0#v
0"d
0"o
0=
0r
0X
0@
0#K
0#l
0"
0"?
0"m
0"$
#11
1#v
1@
1X
1$0
1#U
1"
1#l
1"f
1"m
1"|
1=
1"?
1"o
1"t
1"d
1#K
1r
1"8
1"$
#16
0$0
0"t
0#U
0"f
0"8
0"|
0#v
0"d
0"o
0=
0r
0X
0@
0#K
0#l
0"
0"?
0"m
0"$
#21
1#v
1@
1X
1$0
1#U
1"
1#l
1"f
1"m
1"|
1=
1"?
1"o
1"t
1"d
1#K
1r
1"8
1"$
#26
0$0
0"t
0#U
0"f
0"8
0"|
0#v
0"d
0"o
0=
0r
0X
0@
0#K
0#l
0"
0"?
0"m
0"$
#31
1#v
1@
1X
1$0
1#U
1"
1#l
1"f
1"m
1"|
1=
1"?
1"o
1"t
1"d
1#K
1r
1"8
1"$
#36
0$0
0"t
0#U
0"f
0"8
0"|
0#v
0"d
0"o
0=
0r
0X
0@
0#K
0#l
0"
0"?
0"m
0"$
#41
1#v
1@
1X
1$0
1#U
1"
1#l
1"f
1"m
1"|
1=
1"?
1"o
1"t
1"d
1#K
1r
1"8
1"$
#46
1"y
1#j
0#U
0"|
0"8
1&
0#n
0#^
0"o
b00000000000100000000000010010011 9
1"q
0r
1#"
b00000000000000000000000000010011 #
b0000 "Z
0@
1#Y
1#(
0"
b00000000000000000000000000010011 I
0"?
0"m
0#0
0$)
0$0
1#f
0"t
11
0"f
0#v
0"d
b00000000000100000000000010010011 ^
1#*
b00000000000100000000000010010011 "r
0=
b00000000000000000000000000010011 "u
1#y
b0000 #2
0X
b00000000000100000000000010010011 J
1"-
b0000 T
0#K
0#l
b00000000000000000000000000010011 #t
1#'
1"L
b00000000000100000000000010010011 #9
1"`
b00000000000000000000000000000000 $&
0"$
b00000000000000000000000000010011 #8
1,
#51
b00000000000100000000000010010011 #<
1#v
1@
1X
1$0
1"a
1"f
b00000000000100000000000010010011 "k
b0000 E
1/
1"o
1"t
1d
b00000000000100000000000010010011 #e
1#U
1"
b0000 "Y
1#l
1"m
1"|
1"?
1=
1"d
1#K
b0000 #?
1r
1'
1"$
1"8
#56
0#U
0"|
0"8
0"o
b00000000000000000000000000010011 J
b00000000000000000000000000000100 #R
0r
0@
0"
b00000000000000000000000000000100 "U
0"?
0"m
0$0
b00000000000000000000000000000100 3
0"t
0"f
0#v
0"d
0=
b00000000000000000000000000010011 "r
0X
b00000000000000000000000000010011 ^
b00000000000000000000000000010011 9
0#K
0#l
b000000000100 "2
b00000000000000000000000000010011 #9
0"$
b00000000000000000000000000000100 K
b00000000000000000000000000000100 #>
#61
1#v
b000000000100 "x
b00000000000000000000000000010011 #<
1@
1X
1$0
1#U
1"
1#l
1"f
1"m
b00000000000000000000000000010011 #e
b000000000100 "N
b000000000100 R
1"|
1"?
1=
1"o
1"t
b00000000000000000000000000010011 "k
1"d
1#K
1r
1"$
1"8
#66
0$0
0"t
0#U
0"f
0"8
0"|
0#v
0"d
0"o
b00000000000000000000000000001000 "U
0=
b000000001000 "2
0r
0X
b00000000000000000000000000001000 #>
b00000000000000000000000000001000 #R
0@
0#K
0#l
0"
0"?
0"m
0"$
b00000000000000000000000000001000 3
b00000000000000000000000000001000 K
#71
1#v
1@
1X
b000000001000 R
1$0
1#U
1"
1#l
1"f
b000000001000 "N
b000000001000 "x
1"m
1"|
1"?
1=
1"o
1"t
1"d
1#K
1r
1"8
1"$
#76
0$0
0"t
0#U
b000000001100 "2
0"f
0"8
0"|
0#v
0"d
0"o
0=
0r
0X
b00000000000000000000000000001100 #>
0@
0#K
0#l
0"
b00000000000000000000000000001100 K
0"?
b00000000000000000000000000001100 3
b00000000000000000000000000001100 #R
0"m
0"$
b00000000000000000000000000001100 "U
#81
1#v
1@
1X
1$0
1#U
1"
1#l
1"f
1"m
b000000001100 "x
1"|
1"?
1=
b000000001100 R
1"o
b000000001100 "N
1"t
1"d
1#K
1r
1"8
1"$
#86
0$0
0"t
0#U
b00000000000000000000000000010000 "U
0"f
0"8
0"|
0#v
0"d
0"o
0=
b00000000000000000000000000010000 #>
0r
b000000010000 "2
0X
0@
0#K
0#l
0"
0"?
b00000000000000000000000000010000 K
b00000000000000000000000000010000 #R
b00000000000000000000000000010000 3
0"m
0"$
#91
1#v
b000000010000 R
1@
1X
1$0
b000000010000 "x
1#U
1"
1#l
1"f
1"m
1"|
1"?
1=
1"o
1"t
b000000010000 "N
1"d
1#K
1r
1"8
1"$
#96
0#U
b00000000000000000000000000010100 #R
0"|
0"8
b000000010100 "2
0"o
0r
b11111111111100000000000100010011 #9
b00000000000000000000000000010100 3
0@
b11111111111100000000000100010011 ^
0"
0"?
b00000000000000000000000000010100 #>
0"m
0$0
0"t
0"f
0#v
0"d
0=
b11111111111100000000000100010011 "r
0X
b11111111111100000000000100010011 9
0#K
0#l
b00000000000000000000000000010100 "U
b00000000000000000000000000010100 K
b11111111111100000000000100010011 J
0"$
#101
1#v
1@
1X
1$0
1#U
1"
b11111111111100000000000100010011 #<
1#l
1"f
b000000010100 "N
1"m
b000000010100 R
1"|
1"?
b11111111111100000000000100010011 #e
1=
1"o
1"t
b000000010100 "x
b11111111111100000000000100010011 "k
1"d
1#K
1r
1"8
1"$
#106
0#U
0"|
0"8
0"o
b00000000000000000000000000010011 J
0r
b00000000000000000000000000011000 3
0@
0"
0"?
0"m
0$0
0"t
b000000011000 "2
0"f
b00000000000000000000000000011000 "U
0#v
0"d
0=
b00000000000000000000000000011000 #>
b00000000000000000000000000010011 "r
0X
b00000000000000000000000000010011 ^
b00000000000000000000000000011000 K
b00000000000000000000000000010011 9
0#K
0#l
b00000000000000000000000000011000 #R
b00000000000000000000000000010011 #9
0"$
#111
1#v
b00000000000000000000000000010011 #<
1@
1X
1$0
1#U
b000000011000 R
1"
1#l
1"f
1"m
b00000000000000000000000000010011 #e
1"|
1"?
1=
b000000011000 "x
1"o
1"t
b00000000000000000000000000010011 "k
1"d
1#K
b000000011000 "N
1r
1"8
1"$
#116
0$0
0"t
b000000011100 "2
0#U
b00000000000000000000000000011100 K
0"f
0"8
0"|
0#v
0"d
0"o
b00000000000000000000000000011100 "U
0=
0r
b00000000000000000000000000011100 #>
0X
0@
0#K
0#l
0"
0"?
b00000000000000000000000000011100 3
0"m
0"$
b00000000000000000000000000011100 #R
#121
1#v
b000000011100 "x
1@
1X
1$0
1#U
1"
b000000011100 "N
1#l
1"f
1"m
b000000011100 R
1"|
1"?
1=
1"o
1"t
1"d
1#K
1r
1"8
1"$
#126
0$0
0"t
b00000000000000000000000000100000 #>
0#U
0"f
0"8
0"|
b00000000000000000000000000100000 3
0#v
0"d
0"o
b00000000000000000000000000100000 #R
0=
0r
0X
b00000000000000000000000000100000 K
b000000100000 "2
0@
0#K
0#l
0"
b00000000000000000000000000100000 "U
0"?
0"m
0"$
#131
1#v
1@
1X
1$0
1#U
b000000100000 R
1"
1#l
1"f
1"m
b000000100000 "x
1"|
1"?
1=
b000000100000 "N
1"o
1"t
1"d
1#K
1r
1"8
1"$
#136
0$0
0"t
b00000000000000000000000000100100 K
b00000000000000000000000000100100 #>
0#U
0"f
0"8
0"|
0#v
0"d
0"o
b000000100100 "2
0=
0r
0X
0@
0#K
0#l
0"
0"?
b00000000000000000000000000100100 "U
0"m
0"$
b00000000000000000000000000100100 #R
b00000000000000000000000000100100 3
#141
1#v
b000000100100 R
1@
1X
1$0
1#U
b000000100100 "N
1"
1#l
1"f
1"m
1"|
1"?
1=
1"o
1"t
b000000100100 "x
1"d
1#K
1r
1"8
1"$
#146
0#U
0"|
0"8
0"o
b00000000000000000000000000101000 3
0r
b000000101000 "2
b00000000001100000000000110010011 J
0@
0"
b00000000000000000000000000101000 #>
0"?
b00000000001100000000000110010011 9
0"m
0$0
0"t
0"f
0#v
0"d
0=
b00000000001100000000000110010011 "r
0X
0#K
0#l
b00000000001100000000000110010011 ^
b00000000000000000000000000101000 K
b00000000001100000000000110010011 #9
b00000000000000000000000000101000 "U
b00000000000000000000000000101000 #R
0"$
#151
1#v
1@
1X
1$0
1#U
1"
1#l
1"f
b000000101000 R
1"m
b000000101000 "x
b00000000001100000000000110010011 #e
b000000101000 "N
1"|
1"?
1=
1"o
1"t
b00000000001100000000000110010011 #<
1"d
1#K
b00000000001100000000000110010011 "k
1r
1"8
1"$
#156
b00000000000000000000000000101100 #R
0#U
0"|
0"8
b00000000000000000000000000101100 3
0"o
b00000000000000000000000000010011 J
0r
b00000000000000000000000000101100 #>
0@
0"
0"?
0"m
0$0
b000000101100 "2
0"t
0"f
0#v
0"d
0=
b00000000000000000000000000101100 K
b00000000000000000000000000010011 "r
0X
b00000000000000000000000000010011 ^
b00000000000000000000000000010011 9
0#K
0#l
b00000000000000000000000000010011 #9
b00000000000000000000000000101100 "U
0"$
#161
1#v
b00000000000000000000000000010011 #<
1@
1X
1$0
1#U
1"
1#l
1"f
1"m
b00000000000000000000000000010011 #e
1"|
1"?
1=
b000000101100 "N
b000000101100 R
1"o
1"t
b000000101100 "x
b00000000000000000000000000010011 "k
1"d
1#K
1r
1"8
1"$
#166
b00000000000000000000000000110000 #R
0$0
0"t
0#U
0"f
0"8
0"|
b00000000000000000000000000110000 #>
0#v
0"d
0"o
0=
0r
b00000000000000000000000000110000 3
0X
b00000000000000000000000000110000 "U
0@
0#K
0#l
0"
0"?
b00000000000000000000000000110000 K
0"m
0"$
b000000110000 "2
#171
1#v
1@
1X
1$0
1#U
1"
1#l
1"f
b000000110000 R
1"m
b000000110000 "N
1"|
1"?
1=
1"o
1"t
b000000110000 "x
1"d
1#K
1r
1"8
1"$
#176
0$0
0"t
0#U
b000000110100 "2
b00000000000000000000000000110100 K
0"f
0"8
0"|
0#v
0"d
0"o
b00000000000000000000000000110100 "U
b00000000000000000000000000110100 #R
0=
b00000000000000000000000000110100 #>
0r
b00000000000000000000000000110100 3
0X
0@
0#K
0#l
0"
0"?
0"m
0"$
