waveforms/BTreeO3.s.vcd
$date
2022-10-11T17:07+0000
$end
$version
0.2
$end
$comment

$end
$timescale 1ns  $end
$scope module Tile $end
 $var wire 1 : io_regsWriteEnable $end
 $var wire 32 ; io_regsReadData $end
 $var wire 32 P io_IMEMAddress $end
 $var wire 1 ` io_regsDeviceWriteEnable $end
 $var wire 32 "- io_DMEMAddress $end
 $var wire 32 "S io_DMEMWriteData $end
 $var wire 1 "X CPU $end
 $var wire 32 "` io_regsDeviceWriteData $end
 $var wire 5 "d io_regsDeviceWriteAddress $end
 $var wire 1 "x clock $end
 $var wire 32 "} io_currentPC $end
 $var wire 5 ## io_regsAddress $end
 $var wire 1 #8 io_DMEMWriteEnable $end
 $var wire 32 #: io_memDeviceWriteAddress $end
 $var wire 32 #O io_IMEMWriteData $end
 $var wire 32 #S io_memDeviceWriteData $end
 $var wire 32 #o io_DMEMReadData $end
 $var wire 1 #u reset $end
 $var wire 1 #~ io_setup $end
 $var wire 1 $, io_memDeviceWriteEnable $end
 $var wire 32 $I io_regsWriteData $end
  $scope module CPU.MEMBarrier $end
  $upscope $end
  $scope module CPU.EX $end
  $upscope $end
  $scope module CPU.EXBarrier $end
  $upscope $end
  $scope module CPU.MEM $end
  $upscope $end
  $scope module CPU.WB $end
  $upscope $end
  $scope module CPU.JBarrier $end
  $upscope $end
  $scope module CPU.IDBarrier $end
  $upscope $end
  $scope module CPU.ID $end
  $upscope $end
  $scope module CPU.ID.registers $end
  $upscope $end
  $scope module CPU.IFBarrier $end
  $upscope $end
  $scope module CPU.IF $end
  $upscope $end
  $scope module CPU.IF.IMEM $end
  $upscope $end
  $scope module CPU.MEM.DMEM $end
  $upscope $end
  $scope module CPU.ID.Decoder $end
  $upscope $end
  $scope module CPU $end
   $var wire 1 & IDBarrier $end
   $var wire 32 8 testHarness_setupSignals_IMEMsignals_address $end
   $var wire 32 > testHarness_setupSignals_IMEMsignals_instruction $end
   $var wire 1 N testHarness_regUpdates_writeEnable $end
   $var wire 1 e ID $end
   $var wire 1 | testHarness_memUpdates_writeEnable $end
   $var wire 32 "2 testHarness_regUpdates_writeData $end
   $var wire 5 "3 testHarness_regUpdates_writeAddress $end
   $var wire 5 "5 testHarness_setupSignals_registerSignals_readAddress $end
   $var wire 32 ": testHarness_testReadouts_registerRead $end
   $var wire 32 "E testHarness_currentPC $end
   $var wire 1 "J IF $end
   $var wire 32 "T testHarness_memUpdates_writeAddress $end
   $var wire 1 "Z IFBarrier $end
   $var wire 1 "[ testHarness_setupSignals_DMEMsignals_setup $end
   $var wire 1 "] JBarrier $end
   $var wire 32 "j testHarness_testReadouts_DMEMread $end
   $var wire 32 "n testHarness_setupSignals_DMEMsignals_dataIn $end
   $var wire 1 "t testHarness_setupSignals_IMEMsignals_setup $end
   $var wire 1 #3 clock $end
   $var wire 32 #6 testHarness_setupSignals_DMEMsignals_dataAddress $end
   $var wire 1 #@ testHarness_setupSignals_registerSignals_setup $end
   $var wire 1 #C MEM $end
   $var wire 1 #W testHarness_setupSignals_registerSignals_writeEnable $end
   $var wire 1 #X WB $end
   $var wire 1 #Y EXBarrier $end
   $var wire 1 #n EX $end
   $var wire 32 $* testHarness_memUpdates_writeData $end
   $var wire 32 $8 testHarness_setupSignals_registerSignals_writeData $end
   $var wire 1 $C reset $end
   $var wire 1 $D MEMBarrier $end
   $var wire 1 $J testHarness_setupSignals_DMEMsignals_writeEnable $end
    $scope module ID $end
     $var wire 1 ! testHarness_registerSetup_writeEnable $end
     $var wire 12 % io_ex_writeAddress $end
     $var wire 32 ( io_ex_writeData $end
     $var wire 32 2 io_out_op2 $end
     $var wire 32 5 io_wb_writeData $end
     $var wire 12 W io_out_writeAddress $end
     $var wire 4 Y io_out_aluOP $end
     $var wire 32 \ b $end
     $var wire 12 b _GEN_18 $end
     $var wire 32 c testHarness_registerPeek $end
     $var wire 32 g _GEN_1 $end
     $var wire 1 j io_wb_writeEnable $end
     $var wire 1 l io_outJ_jump $end
     $var wire 32 r io_out_memData $end
     $var wire 1 { testHarness_testUpdates_writeEnable $end
     $var wire 32 "" immediate $end
     $var wire 32 "* io_outJ_nextPC $end
     $var wire 32 "+ testHarness_registerSetup_writeData $end
     $var wire 5 "4 testHarness_testUpdates_writeAddress $end
     $var wire 5 "9 rdaddress $end
     $var wire 32 "O io_out_op1 $end
     $var wire 12 "^ _GEN_14 $end
     $var wire 5 "g io_mem_writeAddress $end
     $var wire 32 "i a $end
     $var wire 1 "r io_mem_regWrite $end
     $var wire 1 "s io_ex_regWrite $end
     $var wire 5 "~ testHarness_registerSetup_readAddress $end
     $var wire 5 #" _GEN_11 $end
     $var wire 32 #+ io_in_instruction_instruction $end
     $var wire 5 #, rs2address $end
     $var wire 1 #- registers $end
     $var wire 1 #. io_out_memRead $end
     $var wire 1 #0 io_out_regWrite $end
     $var wire 32 #= io_mem_writeData $end
     $var wire 5 #B io_wb_writeAddress $end
     $var wire 1 #\ Decoder $end
     $var wire 5 #b rs1address $end
     $var wire 1 $! io_out_memWrite $end
     $var wire 1 $$ testHarness_registerSetup_setup $end
     $var wire 2 $' _GEN_16 $end
     $var wire 32 $( testHarness_testUpdates_writeData $end
     $var wire 1 $1 clock $end
     $var wire 32 $3 io_in_pc $end
      $scope module registers $end
       $var wire 1 + testHarness_testUpdates_writeEnable $end
       $var wire 1 - testHarness_setup_setup $end
       $var wire 32 < testHarness_testUpdates_writeData $end
       $var wire 5 ? readAddress1 $end
       $var wire 1 E clock $end
       $var wire 32 H io_readData1 $end
       $var wire 32 L registerFile $end
       $var wire 1 V testHarness_setup_writeEnable $end
       $var wire 1 k writeEnable $end
       $var wire 5 v io_readAddress1 $end
       $var wire 5 "8 testHarness_testUpdates_writeAddress $end
       $var wire 1 "K io_writeEnable $end
       $var wire 32 "c testHarness_setup_writeData $end
       $var wire 32 "y io_writeData $end
       $var wire 5 #? testHarness_setup_readAddress $end
       $var wire 32 #E io_readData2 $end
       $var wire 5 #I writeAddress $end
       $var wire 5 #c io_writeAddress $end
       $var wire 5 #e io_readAddress2 $end
        $scope module registerFile $end
          $scope module _T_33 $end
           $var wire 1 $ en $end
           $var wire 1 / pipeline_valid_0 $end
           $var wire 1 A clk $end
           $var wire 5 "? pipeline_addr_0 $end
           $var wire 1 "I mask $end
           $var wire 1 "m valid $end
           $var wire 5 #9 addr $end
           $var wire 32 #[ pipeline_data_0 $end
           $var wire 32 $+ data $end
          $upscope $end
          $scope module _T_41 $end
           $var wire 32 n data $end
           $var wire 1 "< en $end
           $var wire 1 #* clk $end
           $var wire 5 #| addr $end
          $upscope $end
          $scope module _T_38 $end
           $var wire 1 } clk $end
           $var wire 1 "f en $end
           $var wire 5 "| addr $end
           $var wire 32 #v data $end
          $upscope $end
        $upscope $end
      $upscope $end
      $scope module Decoder $end
       $var wire 1 7 io_controlSignals_memWrite $end
       $var wire 1 F io_controlSignals_memRead $end
       $var wire 1 "; io_op2Select $end
       $var wire 2 "G decodedControlSignals_6 $end
       $var wire 1 #( io_controlSignals_regWrite $end
       $var wire 4 #H io_ALUop $end
       $var wire 1 #J io_op1Select $end
       $var wire 32 #M io_instruction_instruction $end
       $var wire 1 #w io_controlSignals_jump $end
       $var wire 3 $5 io_branchType $end
       $var wire 1 $? io_controlSignals_branch $end
       $var wire 3 $@ io_immType $end
      $upscope $end
    $upscope $end
    $scope module MEM $end
     $var wire 1 C io_out_memRead $end
     $var wire 1 Z DMEM $end
     $var wire 32 a testHarness_testUpdates_writeAddress $end
     $var wire 1 p io_in_regWrite $end
     $var wire 32 "= io_in_memData $end
     $var wire 5 "D io_out_writeAddress $end
     $var wire 32 "H testHarness_DMEMsetup_dataAddress $end
     $var wire 32 "L io_in_writeData $end
     $var wire 1 "Q io_out_regWrite $end
     $var wire 1 "U io_in_memWrite $end
     $var wire 1 #4 testHarness_testUpdates_writeEnable $end
     $var wire 32 #; io_out_writeData $end
     $var wire 1 #A testHarness_DMEMsetup_writeEnable $end
     $var wire 32 #N testHarness_DMEMpeek $end
     $var wire 32 #_ io_dmemReadResult $end
     $var wire 1 #p testHarness_DMEMsetup_setup $end
     $var wire 32 #{ testHarness_testUpdates_writeData $end
     $var wire 1 $& clock $end
     $var wire 1 $: io_in_memRead $end
     $var wire 32 $> testHarness_DMEMsetup_dataIn $end
     $var wire 12 $F io_in_writeAddress $end
      $scope module DMEM $end
       $var wire 32 . testHarness_testUpdates_writeData $end
       $var wire 1 6 _GEN_6 $end
       $var wire 12 @ data__T_24_addr_pipe_0 $end
       $var wire 1 S testHarness_testUpdates_writeEnable $end
       $var wire 32 ] testHarness_setup_dataAddress $end
       $var wire 12 ^ io_dataAddress $end
       $var wire 32 f testHarness_testUpdates_writeAddress $end
       $var wire 32 "# addressSource $end
       $var wire 32 "0 data $end
       $var wire 1 "\ io_writeEnable $end
       $var wire 1 #5 testHarness_setup_writeEnable $end
       $var wire 1 #7 testHarness_setup_setup $end
       $var wire 1 #a clock $end
       $var wire 32 #t testHarness_setup_dataIn $end
       $var wire 32 $# io_dataIn $end
       $var wire 32 $. io_dataOut $end
        $scope module data $end
          $scope module _T_26 $end
           $var wire 1 " clk $end
           $var wire 12 t addr $end
           $var wire 32 "% pipeline_data_0 $end
           $var wire 1 "W pipeline_valid_0 $end
           $var wire 32 "h data $end
           $var wire 1 #Z en $end
           $var wire 12 #h pipeline_addr_0 $end
           $var wire 1 #x valid $end
           $var wire 1 $2 mask $end
          $upscope $end
          $scope module _T_24 $end
           $var wire 32 R data $end
           $var wire 1 "z clk $end
           $var wire 1 #` en $end
           $var wire 12 #j addr $end
          $upscope $end
        $upscope $end
      $upscope $end
    $upscope $end
    $scope module IFBarrier $end
     $var wire 32 # io_in_instruction_instruction $end
     $var wire 32 M io_out_instruction_instruction $end
     $var wire 1 #$ clock $end
     $var wire 32 #% pc $end
     $var wire 32 #L io_in_pc $end
     $var wire 32 $% io_out_pc $end
     $var wire 1 $) reset $end
    $upscope $end
    $scope module IF $end
     $var wire 1 ' testHarness_IMEMsetup_setup $end
     $var wire 1 [ IMEM $end
     $var wire 32 i testHarness_IMEMsetup_instruction $end
     $var wire 32 "( io_inJ_nextPC $end
     $var wire 1 "7 io_inJ_jump $end
     $var wire 1 "M clock $end
     $var wire 32 "R testHarness_PC $end
     $var wire 1 #F reset $end
     $var wire 32 #T testHarness_IMEMsetup_address $end
     $var wire 32 $- io_out_pc $end
     $var wire 32 $/ io_out_instruction_instruction $end
     $var wire 32 $6 pc $end
     $var wire 32 $A _GEN_0 $end
      $scope module IMEM $end
       $var wire 32 O testHarness_setupSignals_instruction $end
       $var wire 12 X instructions__T_20_addr_pipe_0 $end
       $var wire 1 "1 clock $end
       $var wire 32 "e testHarness_setupSignals_address $end
       $var wire 1 "v _GEN_4 $end
       $var wire 32 #! io_instruction $end
       $var wire 1 #> testHarness_setupSignals_setup $end
       $var wire 32 #i addressSource $end
       $var wire 32 #y testHarness_requestedAddress $end
       $var wire 32 $0 io_instructionAddress $end
       $var wire 32 $9 instructions $end
        $scope module instructions $end
          $scope module _T_18 $end
           $var wire 1 3 valid $end
           $var wire 1 I mask $end
           $var wire 1 o pipeline_valid_0 $end
           $var wire 12 "A addr $end
           $var wire 1 "F clk $end
           $var wire 32 #) data $end
           $var wire 12 #/ pipeline_addr_0 $end
           $var wire 32 #} pipeline_data_0 $end
           $var wire 1 $4 en $end
          $upscope $end
          $scope module _T_20 $end
           $var wire 1 "/ en $end
           $var wire 12 "_ addr $end
           $var wire 1 #& clk $end
           $var wire 32 #R data $end
          $upscope $end
        $upscope $end
      $upscope $end
    $upscope $end
    $scope module MEMBarrier $end
     $var wire 32 ) regs_writeData $end
     $var wire 5 D io_out_writeAddress $end
     $var wire 1 m io_out_regWrite $end
     $var wire 32 q io_in_writeData $end
     $var wire 1 s io_in_memRead $end
     $var wire 1 x regs_memRead $end
     $var wire 1 #1 io_out_memRead $end
     $var wire 1 #P io_in_regWrite $end
     $var wire 32 #Q io_out_writeData $end
     $var wire 5 #d io_in_writeAddress $end
     $var wire 1 #f regs_regWrite $end
     $var wire 1 #l clock $end
     $var wire 5 #m regs_writeAddress $end
    $upscope $end
    $scope module EX $end
     $var wire 1 * io_in_regWrite $end
     $var wire 12 U io_in_writeAddress $end
     $var wire 1 u io_out_memWrite $end
     $var wire 1 "! io_in_memWrite $end
     $var wire 63 "$ _GEN_0 $end
     $var wire 32 "C io_in_op2 $end
     $var wire 32 "V io_in_memData $end
     $var wire 32 "Y io_out_memData $end
     $var wire 32 #K io_in_op1 $end
     $var wire 4 #U io_in_aluOP $end
     $var wire 12 #^ io_out_writeAddress $end
     $var wire 1 #r io_in_memRead $end
     $var wire 1 #s io_out_memRead $end
     $var wire 32 #z io_out_writeData $end
     $var wire 1 $E io_out_regWrite $end
    $upscope $end
    $scope module EXBarrier $end
     $var wire 1 , regs_regWrite $end
     $var wire 1 9 io_in_regWrite $end
     $var wire 1 _ clock $end
     $var wire 12 w io_in_writeAddress $end
     $var wire 1 y io_out_regWrite $end
     $var wire 32 z io_in_writeData $end
     $var wire 1 "' regs_memWrite $end
     $var wire 32 ") regs_memData $end
     $var wire 1 "> io_in_memWrite $end
     $var wire 32 "@ regs_writeData $end
     $var wire 1 "P io_in_memRead $end
     $var wire 1 "o io_out_memWrite $end
     $var wire 32 "q io_out_memData $end
     $var wire 1 #D regs_memRead $end
     $var wire 12 #q regs_writeAddress $end
     $var wire 12 $" io_out_writeAddress $end
     $var wire 1 $7 io_out_memRead $end
     $var wire 32 $G io_in_memData $end
     $var wire 32 $H io_out_writeData $end
    $upscope $end
    $scope module IDBarrier $end
     $var wire 12 0 io_in_writeAddress $end
     $var wire 1 1 regs_regWrite $end
     $var wire 32 = io_out_memData $end
     $var wire 1 G regs_memRead $end
     $var wire 4 J io_out_aluOP $end
     $var wire 1 K io_in_memWrite $end
     $var wire 32 T regs_op2 $end
     $var wire 32 h io_in_op2 $end
     $var wire 1 ", regs_memWrite $end
     $var wire 32 "6 io_out_op1 $end
     $var wire 1 "a io_out_memRead $end
     $var wire 32 "b regs_op1 $end
     $var wire 4 "k regs_aluOP $end
     $var wire 4 "l io_in_aluOP $end
     $var wire 1 "u io_out_regWrite $end
     $var wire 1 "w io_in_memRead $end
     $var wire 32 "{ io_in_op1 $end
     $var wire 32 #2 regs_memData $end
     $var wire 1 #< io_in_regWrite $end
     $var wire 12 #G regs_writeAddress $end
     $var wire 12 #V io_out_writeAddress $end
     $var wire 1 #k io_out_memWrite $end
     $var wire 32 $< io_in_memData $end
     $var wire 32 $= io_out_op2 $end
     $var wire 1 $K clock $end
    $upscope $end
    $scope module JBarrier $end
     $var wire 1 4 io_in_jump $end
     $var wire 32 B regs_nextPC $end
     $var wire 32 Q io_out_nextPC $end
     $var wire 1 d regs_jump $end
     $var wire 32 "& io_in_nextPC $end
     $var wire 1 "N clock $end
     $var wire 1 #g io_out_jump $end
    $upscope $end
    $scope module WB $end
     $var wire 5 ~ io_in_writeAddress $end
     $var wire 32 ". io_out_writeData $end
     $var wire 1 "B io_out_writeEnable $end
     $var wire 1 "p io_in_regWrite $end
     $var wire 32 #' io_in_writeData $end
     $var wire 32 #] io_dmemData $end
     $var wire 1 $; io_in_memRead $end
     $var wire 5 $B io_out_writeAddress $end
    $upscope $end
  $upscope $end
$upscope $end
$enddefinitions $end
$dumpvars
b00000 #?
0o
0#D
b00000000000000000000000000000000 #}
b00000 #m
0"1
b00000000000000000000000000000000 $I
0$D
b00000000000000000000000000000000 "j
b00000000000000000000000000000000 #K
b00000000000000000000000000000000 r
b00000000000000000000000000000000 #6
0#1
0"P
b00000000000000000000000000000000 "#
b00000 $B
0#W
0m
b00000 "9
b00000000000000000000000000000000 Q
0$4
0"r
b00000 #|
0/
b00000000000000000000000000000000 "y
b00000000000000000000000000000000 #o
b00000000000000000000000000000000 #=
b00000000000000000000000000000000 "*
0"Q
0"<
0+
b00000000000000000000000000000000 "C
b00000000000000000000000000000000 "&
0#w
0$C
b00000000000000000000000000000000 q
0$&
0p
0#0
b00000000000000000000000000000000 T
b00000000000000000000000000000000 #i
0#s
0$?
0l
0#A
0"K
b00000 "8
b00000000000000000000000000000000 P
0#$
0:
b00000000000000000000000000000000 #z
b000000000000 "_
1"v
0`
b00000000000000000000000000000000 #v
1"/
b00000000000000000000000000000000 $%
b00000000000000000000000000000000 "c
b000000000000 U
0$1
0#P
0"o
b00000000000000000000000000000000 "%
b00000000000000000000000000000000 B
b00000000000000000000000000000000 $8
0#~
b00000000000000000000000000000000 $G
0#a
b00000 #9
b00000000000000000000000000000000 "S
0Z
0"N
b00000000000000000000000000000000 "6
b00000000000000000000000000000000 >
0k
0#@
b000000000000 #q
0$!
0N
09
b00000000000000000000000000000000 #y
b000000000000 "^
b00000000000000000000000000000000 2
b00000000000000000000000000000000 $(
b000000000000 "A
b00000000000000000000000000000000 #2
b000000000000 X
0|
b00000 #e
0#p
b00000000000000000000000000000000 $9
b00000000000000000000000000000000 .
0-
b00000000000000000000000000000000 "b
0"]
0#>
b00000000000000000000000000000000 "0
b00000000000000000000000000000000 M
b00000000000000000000000000000000 "E
b00000000000000000000000000000000 "(
0"z
b00000 "5
b00000 "|
b00000 "g
b000 $5
0#.
0"M
b00000000000000000000000000000000 =
0'
b00000000000000000000000000000000 $H
b00000000000000000000000000000000 $3
b00000000000000000000000000000000 #R
b00000000000000000000000000000000 "i
b00000000000000000000000000000000 $+
b00000000000000000000000000000000 "T
b00000000000000000000000000000000 "q
b00000000000000000000000000000000 ""
0#\
0j
16
0#*
0",
b00000000000000000000000000000000 #N
b00000000000000000000000000000000 $/
b00000000000000000000000000000000 "e
b000000000000 t
b000000000000 W
b000000000000 %
0#Z
0$;
0}
1I
0"\
0#(
b00000000000000000000000000000000 a
b00000000000000000000000000000000 L
b00000 "4
0K
1$2
b0000 "k
0#k
0y
b00000000000000000000000000000000 z
0"X
b000000000000 #j
b00000000000000000000000000000000 ]
0G
0";
0"m
b00000000000000000000000000000000 H
0*
b00000000000000000000000000000000 $6
b00000000000000000000000000000000 n
0#-
0"7
0C
b000000000000 #^
0&
b00000000000000000000000000000000 #Q
b00000000000000000000000000000000 <
b000000000000 w
b000000000000 b
b000000000000 0
1#`
b00 "G
b00000 v
b00000 D
b00000000000000000000000000000000 #E
0$)
0V
0"J
b00000000000000000000000000000000 "2
b00000000000000000000000000000000 O
b00000 #c
0#n
0#Y
0$:
b00000000000000000000000000000000 "`
b00000000000000000000000000000000 h
0"[
0"F
b00000000000000000000000000000000 ".
0#<
0"x
b00000 "3
b00000000000000000000000000000000 $A
b0000 #U
0x
b0000 "l
0[
0F
0#l
b00000000000000000000000000000000 #T
b00 $'
b00000000000000000000000000000000 ;
0$,
0"U
b00000000000000000000000000000000 "=
b00000 ##
b00000000000000000000000000000000 "R
b00000000000000000000000000000000 (
0!
b00000000000000000000000000000000 $-
b00000000000000000000000000000000 #L
0$E
0"f
b000000000000 @
0#X
0"w
0{
b0000 J
0#&
0"Z
04
b00000000000000000000000000000000 #t
b00000 #d
b00000000000000000000000000000000 #_
b00000000000000000000000000000000 $#
b00000000000000000000000000000000 "L
b00000000000000000000000000000000 i
b00000000000000000000000000000000 #%
0$J
0#7
b000000000000 #h
b000 $@
0E
b00000000000000000000000000000000 $<
b00000000000000000000000000000000 #[
b00000000000000000000000000000000 )
0$7
b00000000000000000000000000000000 #S
0"u
b00000000000000000000000000000000 "H
b00000000000000000000000000000000 #)
b00000000000000000000000000000000 "@
b00000000000000000000000000000000 "+
b00000000000000000000000000000000 #!
b0000 #H
0#g
0u
0#J
0#5
b0000 Y
b00000 #"
b000000000000000000000000000000000000000000000000000000000000000 "$
0#x
0#F
b00000 ~
07
0"
b00000000000000000000000000000000 #
b00000000000000000000000000000000 $.
b00000000000000000000000000000000 8
b00000000000000000000000000000000 #M
b00000000000000000000000000000000 "O
b00000000000000000000000000000000 ":
b000000000000 ^
0"a
b00000000000000000000000000000000 f
0e
b00000000000000000000000000000000 #{
b000000000000 #V
1"I
03
b000000000000 $"
b00000000000000000000000000000000 "h
b00000000000000000000000000000000 $*
b00000000000000000000000000000000 "}
0"'
0#r
b00000 "~
0$K
b00000 #B
0"t
0#8
0"B
0"W
b00000000000000000000000000000000 \
01
b00000000000000000000000000000000 "{
b00000 "D
b00000000000000000000000000000000 $=
0#f
0"p
0_
0#4
0">
b000000000000 $F
0"!
b00000000000000000000000000000000 #;
0S
b000000000000 #/
b00000000000000000000000000000000 "V
0d
b00000 #b
b00000000000000000000000000000000 $>
b00000000000000000000000000000000 #]
b00000 ?
b00000 "d
0#C
b00000000000000000000000000000000 #+
b00000000000000000000000000000000 g
b00000000000000000000000000000000 R
0#u
b00000000000000000000000000000000 "-
0$$
b00000000000000000000000000000000 5
b00000 #I
0"s
b00000 #,
b00000000000000000000000000000000 #'
b00000000000000000000000000000000 c
b00000000000000000000000000000000 ")
0s
b00000 "?
0#3
0A
0,
b000000000000 #G
0$
b00000000000000000000000000000000 "n
b00000000000000000000000000000000 "Y
b00000000000000000000000000000000 $0
b00000000000000000000000000000000 #:
b00000000000000000000000000000000 #O
$end
#0
b1111 Y
1#F
b00000000000000000000000000000100 $A
b1111 #H
1#u
b1111 "l
1$C
1$)
#1
1_
1"M
1#3
1A
1"x
1"
1E
1#&
1"N
1#$
1$K
1#a
b1111 J
1"1
b1111 #U
1$1
1}
1#*
1"z
1$&
1"F
1#l
b1111 "k
#6
0"x
0E
0_
0#l
0"1
0"z
0#&
0$1
0"
0#$
0A
0#3
0}
0"F
0$K
0"N
0#a
0"M
0#*
0$&
#11
1"M
1#3
1A
1"x
1"
1E
1#&
1"N
1#$
1$K
1#a
1"1
1$1
1}
1#*
1"z
1$&
1"F
1#l
1_
#16
0"x
0E
0_
0#l
0"1
0"z
0#&
0$1
0"
0#$
0A
0#3
0}
0"F
0$K
0"N
0#a
0"M
0#*
0$&
#21
1"M
1#3
1A
1"x
1"
1E
1#&
1"N
1#$
1$K
1#a
1"1
1$1
1}
1#*
1"z
1$&
1"F
1#l
1_
#26
0"x
0E
0_
0#l
0"1
0"z
0#&
0$1
0"
0#$
0A
0#3
0}
0"F
0$K
0"N
0#a
0"M
0#*
0$&
#31
1"M
1#3
1A
1"x
1"
1E
1#&
1"N
1#$
1$K
1#a
1"1
1$1
1}
1#*
1"z
1$&
1"F
1#l
1_
#36
0"x
0E
0_
0#l
0"1
0"z
0#&
0$1
0"
0#$
0A
0#3
0}
0"F
0$K
0"N
0#a
0"M
0#*
0$&
#41
1"M
1#3
1A
1"x
1"
1E
1#&
1"N
1#$
1$K
1#a
1"1
1$1
1}
1#*
1"z
1$&
1"F
1#l
1_
#46
b00000000000000000000000000010011 $/
0"x
1"t
b00000000000000000000000000010011 M
0"1
0$C
1";
1#0
0"z
1"[
b00000000000000000000000000010011 #M
0#&
0$1
b00000000000000000000000000010011 #
0"
b0000 "l
0}
0"F
0$K
1#7
b0000 #H
0#a
1#<
1#@
b00000000000000000000000000000000 $A
0$&
0E
0_
0$)
0#l
1#>
1#(
1#~
1$$
b11111111000000010000000100010011 #O
b11111111000000010000000100010011 >
1#p
b11111111000000010000000100010011 i
0#F
b11111111000000010000000100010011 #)
b11111111000000010000000100010011 O
1-
0#$
1'
0#u
0A
0#3
1$4
0"N
0"M
0#*
13
b00000000000000000000000000010011 #+
b0000 Y
#51
b0000 #U
1#3
11
1"
1*
1#&
1"u
b11111111000000010000000100010011 #R
b11111111000000010000000100010011 #}
1"N
1$K
1$1
1#*
1"z
1$&
1"F
1#l
1_
1"M
1A
1"x
1E
1#$
1#a
1"1
1o
b11111111000000010000000100010011 #!
1}
b0000 "k
b0000 J
#56
b00000000000000000000000000000100 #T
0"x
b00000000000000000000000000010011 O
b000000000100 "A
0"1
0"z
b00000000000000000000000000010011 #O
0#&
0$1
b00000000000000000000000000000100 "e
0"
b00000000000000000000000000010011 #)
0}
0"F
0$K
b00000000000000000000000000000100 P
0#a
0$&
0E
0_
0#l
b00000000000000000000000000010011 >
0#$
b00000000000000000000000000010011 i
0A
0#3
b00000000000000000000000000000100 #i
b00000000000000000000000000000100 8
0"N
0"M
0#*
#61
1"M
1#3
1A
1"x
b000000000100 "_
1"
1E
b00000000000000000000000000010011 #R
1#&
1"N
1#$
1$K
b000000000100 #/
1#a
1"1
b00000000000000000000000000010011 #}
1$1
1}
b000000000100 X
1#*
1"z
1$&
1"F
b00000000000000000000000000010011 #!
1#l
1_
#66
0"x
0E
0_
0#l
0"1
0"z
0#&
0$1
b00000000000000000000000000001000 #i
0"
0#$
0A
b00000000000000000000000000001000 P
0#3
0}
0"F
0$K
b00000000000000000000000000001000 8
0"N
0#a
b00000000000000000000000000001000 #T
b00000000000000000000000000001000 "e
0"M
b000000001000 "A
0#*
0$&
#71
b000000001000 "_
1"M
1#3
1A
1"x
1"
1E
1#&
1"N
b000000001000 #/
b000000001000 X
1#$
1$K
1#a
1"1
1$1
1}
1#*
1"z
1$&
1"F
1#l
1_
#76
0"x
0E
0_
0#l
0"1
b00000000000000000000000000001100 "e
0"z
b000000001100 "A
0#&
0$1
b00000000000000000000000000001100 P
0"
0#$
b00000000000000000000000000001100 8
0A
0#3
b00000000000000000000000000001100 #i
0}
0"F
0$K
0"N
0#a
b00000000000000000000000000001100 #T
0"M
0#*
0$&
#81
1"M
1#3
1A
1"x
b000000001100 "_
b000000001100 X
1"
1E
1#&
1"N
b000000001100 #/
1$K
1#a
1#$
1"1
1$1
1}
1#*
1"z
1$&
1"F
1#l
1_
#86
0"x
0E
0_
0#l
b00000000000000000000000000010000 P
0"1
0"z
b00000000000000000000000000010000 "e
0#&
0$1
0"
0#$
b00000000000000000000000000010000 #i
0A
0#3
b00000000000000000000000000010000 8
b000000010000 "A
0}
0"F
0$K
0"N
0#a
b00000000000000000000000000010000 #T
0"M
0#*
0$&
#91
1"M
1#3
1A
1"x
b000000010000 "_
1"
1E
1#&
1"N
1#$
1$K
1#a
b000000010000 #/
1"1
1$1
1}
1#*
b000000010000 X
1"z
1$&
1"F
1#l
1_
#96
0"x
b00000000000000000000000000010100 #T
0"1
0"z
0#&
0$1
0"
b00000000000100010010011000100011 #)
b00000000000000000000000000010100 "e
0}
0"F
0$K
b00000000000100010010011000100011 >
0#a
b00000000000100010010011000100011 #O
b00000000000100010010011000100011 O
0$&
0E
0_
0#l
b00000000000000000000000000010100 8
b00000000000100010010011000100011 i
b000000010100 "A
0#$
0A
0#3
0"N
b00000000000000000000000000010100 P
0"M
0#*
b00000000000000000000000000010100 #i
#101
1"M
1#3
b00000000000100010010011000100011 #}
1A
b00000000000100010010011000100011 #R
1"x
1"
1E
1#&
1"N
b000000010100 X
b000000010100 #/
1$K
1#a
1#$
1"1
1$1
1}
1#*
b00000000000100010010011000100011 #!
1"z
1$&
1"F
b000000010100 "_
1#l
1_
#106
0"x
b00000000000000000000000000010011 O
b00000000000000000000000000011000 P
b00000000000000000000000000011000 "e
0"1
b00000000000000000000000000011000 #i
0"z
b00000000000000000000000000010011 #O
0#&
0$1
0"
b000000011000 "A
b00000000000000000000000000010011 #)
0}
0"F
0$K
0#a
b00000000000000000000000000011000 8
0$&
0E
0_
0#l
b00000000000000000000000000010011 >
0#$
b00000000000000000000000000011000 #T
b00000000000000000000000000010011 i
0A
0#3
0"N
0"M
0#*
#111
1"M
1#3
1A
1"x
b000000011000 #/
1"
1E
b00000000000000000000000000010011 #R
1#&
1"N
b000000011000 X
1#$
1$K
1#a
1"1
b00000000000000000000000000010011 #}
1$1
b000000011000 "_
1#*
1}
1"z
1$&
1"F
b00000000000000000000000000010011 #!
1#l
1_
#116
0"x
0E
0_
b00000000000000000000000000011100 8
0#l
b00000000000000000000000000011100 #i
0"1
0"z
b000000011100 "A
0#&
0$1
0"
b00000000000000000000000000011100 "e
0#$
0A
b00000000000000000000000000011100 #T
0#3
0}
0"F
0$K
0"N
0#a
0"M
0#*
0$&
b00000000000000000000000000011100 P
#121
b000000011100 "_
1"M
1#3
1A
1"x
b000000011100 #/
1"
1E
1#&
1"N
1#$
1$K
1#a
1"1
1$1
1}
b000000011100 X
1#*
1"z
1$&
1"F
1#l
1_
#126
0"x
0E
0_
0#l
b00000000000000000000000000100000 P
0"1
0"z
b00000000000000000000000000100000 8
b000000100000 "A
0#&
0$1
0"
0#$
b00000000000000000000000000100000 "e
0A
0#3
b00000000000000000000000000100000 #T
0}
0"F
0$K
0"N
0#a
b00000000000000000000000000100000 #i
0"M
0#*
0$&
#131
b000000100000 X
1"M
1#3
1A
1"x
1"
1E
1#&
1"N
1#$
1$K
1#a
b000000100000 "_
1"1
1$1
1}
1#*
b000000100000 #/
1"z
1$&
1"F
1#l
1_
#136
0"x
0E
0_
b00000000000000000000000000100100 #i
0#l
0"1
0"z
b00000000000000000000000000100100 P
b000000100100 "A
b00000000000000000000000000100100 #T
0#&
0$1
0"
0#$
b00000000000000000000000000100100 "e
0A
0#3
0}
0"F
0$K
0"N
0#a
b00000000000000000000000000100100 8
0"M
0#*
0$&
#141
b000000100100 "_
1"M
1#3
1A
1"x
1"
1E
1#&
b000000100100 #/
1"N
1#$
1$K
1#a
1"1
1$1
1}
1#*
1"z
1$&
1"F
1#l
b000000100100 X
1_
#146
b00000000000000000010010100000011 #)
0"x
0"1
0"z
b00000000000000000000000000101000 #i
0#&
0$1
0"
b00000000000000000010010100000011 >
b00000000000000000000000000101000 #T
b00000000000000000010010100000011 O
0}
0"F
0$K
b00000000000000000010010100000011 #O
0#a
b00000000000000000010010100000011 i
b00000000000000000000000000101000 P
0$&
0E
0_
0#l
b00000000000000000000000000101000 8
b000000101000 "A
0#$
0A
0#3
0"N
b00000000000000000000000000101000 "e
0"M
0#*
