waveforms/forward2.s.vcd
$date
2022-10-05T22:19+0000
$end
$version
0.2
$end
$comment

$end
$timescale 1ns  $end
$scope module Tile $end
 $var wire 1 5 io_regsWriteEnable $end
 $var wire 32 8 io_regsReadData $end
 $var wire 32 K io_IMEMAddress $end
 $var wire 1 Y io_regsDeviceWriteEnable $end
 $var wire 32 ~ io_DMEMAddress $end
 $var wire 32 "C io_DMEMWriteData $end
 $var wire 1 "H CPU $end
 $var wire 32 "N io_regsDeviceWriteData $end
 $var wire 5 "R io_regsDeviceWriteAddress $end
 $var wire 1 "b clock $end
 $var wire 32 "h io_currentPC $end
 $var wire 5 "j io_regsAddress $end
 $var wire 1 "} io_DMEMWriteEnable $end
 $var wire 32 #" io_memDeviceWriteAddress $end
 $var wire 32 #3 io_IMEMWriteData $end
 $var wire 32 #7 io_memDeviceWriteData $end
 $var wire 32 #R io_DMEMReadData $end
 $var wire 1 #X reset $end
 $var wire 1 #` io_setup $end
 $var wire 1 #i io_memDeviceWriteEnable $end
 $var wire 32 $# io_regsWriteData $end
  $scope module CPU.MEMBarrier $end
  $upscope $end
  $scope module CPU.EX $end
  $upscope $end
  $scope module CPU.EXBarrier $end
  $upscope $end
  $scope module CPU.MEM $end
  $upscope $end
  $scope module CPU.WB $end
  $upscope $end
  $scope module CPU.IDBarrier $end
  $upscope $end
  $scope module CPU.ID $end
  $upscope $end
  $scope module CPU.ID.registers $end
  $upscope $end
  $scope module CPU.IFBarrier $end
  $upscope $end
  $scope module CPU.IF $end
  $upscope $end
  $scope module CPU.IF.IMEM $end
  $upscope $end
  $scope module CPU.MEM.DMEM $end
  $upscope $end
  $scope module CPU.ID.Decoder $end
  $upscope $end
  $scope module CPU $end
   $var wire 1 % IDBarrier $end
   $var wire 32 3 testHarness_setupSignals_IMEMsignals_address $end
   $var wire 32 9 testHarness_setupSignals_IMEMsignals_instruction $end
   $var wire 1 I testHarness_regUpdates_writeEnable $end
   $var wire 1 \ ID $end
   $var wire 1 s testHarness_memUpdates_writeEnable $end
   $var wire 32 "% testHarness_regUpdates_writeData $end
   $var wire 5 "' testHarness_regUpdates_writeAddress $end
   $var wire 5 "( testHarness_setupSignals_registerSignals_readAddress $end
   $var wire 32 ", testHarness_testReadouts_registerRead $end
   $var wire 32 "7 testHarness_currentPC $end
   $var wire 1 "; IF $end
   $var wire 32 "D testHarness_memUpdates_writeAddress $end
   $var wire 1 "J IFBarrier $end
   $var wire 1 "K testHarness_setupSignals_DMEMsignals_setup $end
   $var wire 32 "V testHarness_testReadouts_DMEMread $end
   $var wire 32 "Z testHarness_setupSignals_DMEMsignals_dataIn $end
   $var wire 1 "^ testHarness_setupSignals_IMEMsignals_setup $end
   $var wire 1 "x clock $end
   $var wire 32 "{ testHarness_setupSignals_DMEMsignals_dataAddress $end
   $var wire 1 #& testHarness_setupSignals_registerSignals_setup $end
   $var wire 1 #) MEM $end
   $var wire 1 #; testHarness_setupSignals_registerSignals_writeEnable $end
   $var wire 1 #< WB $end
   $var wire 1 #= EXBarrier $end
   $var wire 1 #P EX $end
   $var wire 32 #g testHarness_memUpdates_writeData $end
   $var wire 32 #s testHarness_setupSignals_registerSignals_writeData $end
   $var wire 1 #| MEMBarrier $end
   $var wire 1 #} reset $end
   $var wire 1 $% testHarness_setupSignals_DMEMsignals_writeEnable $end
    $scope module ID $end
     $var wire 1 ! testHarness_registerSetup_writeEnable $end
     $var wire 32 0 io_out_op2 $end
     $var wire 12 Q io_out_writeAddress $end
     $var wire 4 T io_out_aluOP $end
     $var wire 32 [ testHarness_registerPeek $end
     $var wire 1 ` io_wbIn_writeEnable $end
     $var wire 32 g io_out_memData $end
     $var wire 32 k io_wbIn_writeData $end
     $var wire 1 p testHarness_testUpdates_writeEnable $end
     $var wire 32 v immediate $end
     $var wire 32 | testHarness_registerSetup_writeData $end
     $var wire 5 "& testHarness_testUpdates_writeAddress $end
     $var wire 5 "+ rdaddress $end
     $var wire 32 "? io_out_op1 $end
     $var wire 5 "g testHarness_registerSetup_readAddress $end
     $var wire 32 "p io_in_instruction_instruction $end
     $var wire 5 "q rs2address $end
     $var wire 1 "r registers $end
     $var wire 1 "s io_out_memRead $end
     $var wire 1 "u io_out_regWrite $end
     $var wire 5 #( io_wbIn_writeAddress $end
     $var wire 1 #@ Decoder $end
     $var wire 5 #F rs1address $end
     $var wire 1 #a io_out_memWrite $end
     $var wire 1 #d testHarness_registerSetup_setup $end
     $var wire 32 #f testHarness_testUpdates_writeData $end
     $var wire 1 #m clock $end
      $scope module registers $end
       $var wire 1 ) testHarness_testUpdates_writeEnable $end
       $var wire 1 , testHarness_setup_setup $end
       $var wire 32 7 testHarness_testUpdates_writeData $end
       $var wire 5 ; readAddress1 $end
       $var wire 1 @ clock $end
       $var wire 32 C io_readData1 $end
       $var wire 32 G registerFile $end
       $var wire 1 P testHarness_setup_writeEnable $end
       $var wire 1 a writeEnable $end
       $var wire 5 l io_readAddress1 $end
       $var wire 5 "* testHarness_testUpdates_writeAddress $end
       $var wire 1 "< io_writeEnable $end
       $var wire 32 "Q testHarness_setup_writeData $end
       $var wire 32 "c io_writeData $end
       $var wire 5 #% testHarness_setup_readAddress $end
       $var wire 32 #+ io_readData2 $end
       $var wire 5 #/ writeAddress $end
       $var wire 5 #G io_writeAddress $end
       $var wire 5 #I io_readAddress2 $end
        $scope module registerFile $end
          $scope module _T_33 $end
           $var wire 1 $ en $end
           $var wire 1 - pipeline_valid_0 $end
           $var wire 1 = clk $end
           $var wire 5 "1 pipeline_addr_0 $end
           $var wire 1 ": mask $end
           $var wire 1 "Y valid $end
           $var wire 5 #! addr $end
           $var wire 32 #? pipeline_data_0 $end
           $var wire 32 #h data $end
          $upscope $end
          $scope module _T_41 $end
           $var wire 32 c data $end
           $var wire 1 ". en $end
           $var wire 1 "o clk $end
           $var wire 5 #^ addr $end
          $upscope $end
          $scope module _T_38 $end
           $var wire 1 r clk $end
           $var wire 1 "T en $end
           $var wire 5 "f addr $end
           $var wire 32 #Y data $end
          $upscope $end
        $upscope $end
      $upscope $end
      $scope module Decoder $end
       $var wire 1 4 io_controlSignals_memWrite $end
       $var wire 1 A io_controlSignals_memRead $end
       $var wire 1 "- io_op2Select $end
       $var wire 1 "m io_controlSignals_regWrite $end
       $var wire 4 #. io_ALUop $end
       $var wire 32 #2 io_instruction_instruction $end
       $var wire 3 #y io_immType $end
      $upscope $end
    $upscope $end
    $scope module MEM $end
     $var wire 1 > io_out_memRead $end
     $var wire 1 S DMEM $end
     $var wire 32 Z testHarness_testUpdates_writeAddress $end
     $var wire 1 e io_in_regWrite $end
     $var wire 32 "/ io_in_memData $end
     $var wire 5 "5 io_out_writeAddress $end
     $var wire 32 "9 testHarness_DMEMsetup_dataAddress $end
     $var wire 32 "= io_in_writeData $end
     $var wire 1 "A io_out_regWrite $end
     $var wire 1 "E io_in_memWrite $end
     $var wire 1 "y testHarness_testUpdates_writeEnable $end
     $var wire 32 "~ io_out_writeData $end
     $var wire 1 #' testHarness_DMEMsetup_writeEnable $end
     $var wire 32 #1 testHarness_DMEMpeek $end
     $var wire 32 #C io_dmemReadResult $end
     $var wire 1 #S testHarness_DMEMsetup_setup $end
     $var wire 32 #] testHarness_testUpdates_writeData $end
     $var wire 1 #e clock $end
     $var wire 1 #u io_in_memRead $end
     $var wire 32 #w testHarness_DMEMsetup_dataIn $end
     $var wire 12 $! io_in_writeAddress $end
      $scope module DMEM $end
       $var wire 32 + testHarness_testUpdates_writeData $end
       $var wire 1 2 _GEN_6 $end
       $var wire 12 < data__T_24_addr_pipe_0 $end
       $var wire 1 M testHarness_testUpdates_writeEnable $end
       $var wire 32 V testHarness_setup_dataAddress $end
       $var wire 12 W io_dataAddress $end
       $var wire 32 ] testHarness_testUpdates_writeAddress $end
       $var wire 32 w addressSource $end
       $var wire 32 "# data $end
       $var wire 1 "L io_writeEnable $end
       $var wire 1 "z testHarness_setup_writeEnable $end
       $var wire 1 "| testHarness_setup_setup $end
       $var wire 1 #E clock $end
       $var wire 32 #W testHarness_setup_dataIn $end
       $var wire 32 #c io_dataIn $end
       $var wire 32 #j io_dataOut $end
        $scope module data $end
          $scope module _T_26 $end
           $var wire 1 " clk $end
           $var wire 12 i addr $end
           $var wire 32 x pipeline_data_0 $end
           $var wire 1 "F pipeline_valid_0 $end
           $var wire 32 "U data $end
           $var wire 1 #> en $end
           $var wire 12 #K pipeline_addr_0 $end
           $var wire 1 #Z valid $end
           $var wire 1 #n mask $end
          $upscope $end
          $scope module _T_24 $end
           $var wire 32 L data $end
           $var wire 1 "d clk $end
           $var wire 1 #D en $end
           $var wire 12 #M addr $end
          $upscope $end
        $upscope $end
      $upscope $end
    $upscope $end
    $scope module IFBarrier $end
     $var wire 32 # io_in_instruction_instruction $end
     $var wire 32 H io_out_instruction_instruction $end
    $upscope $end
    $scope module IF $end
     $var wire 1 & testHarness_IMEMsetup_setup $end
     $var wire 1 U IMEM $end
     $var wire 32 _ testHarness_IMEMsetup_instruction $end
     $var wire 1 "> clock $end
     $var wire 32 "B testHarness_PC $end
     $var wire 1 #, reset $end
     $var wire 32 #8 testHarness_IMEMsetup_address $end
     $var wire 32 #k io_out_instruction_instruction $end
     $var wire 32 #p pc $end
     $var wire 32 #z _GEN_0 $end
      $scope module IMEM $end
       $var wire 32 J testHarness_setupSignals_instruction $end
       $var wire 12 R instructions__T_20_addr_pipe_0 $end
       $var wire 1 "$ clock $end
       $var wire 32 "S testHarness_setupSignals_address $end
       $var wire 1 "` _GEN_4 $end
       $var wire 32 "i io_instruction $end
       $var wire 1 #$ testHarness_setupSignals_setup $end
       $var wire 32 #L addressSource $end
       $var wire 32 #[ testHarness_requestedAddress $end
       $var wire 32 #l io_instructionAddress $end
       $var wire 32 #r instructions $end
        $scope module instructions $end
          $scope module _T_18 $end
           $var wire 1 1 valid $end
           $var wire 1 D mask $end
           $var wire 1 d pipeline_valid_0 $end
           $var wire 12 "2 addr $end
           $var wire 1 "8 clk $end
           $var wire 32 "n data $end
           $var wire 12 "t pipeline_addr_0 $end
           $var wire 32 #_ pipeline_data_0 $end
           $var wire 1 #o en $end
          $upscope $end
          $scope module _T_20 $end
           $var wire 1 "" en $end
           $var wire 12 "M addr $end
           $var wire 1 "k clk $end
           $var wire 32 #6 data $end
          $upscope $end
        $upscope $end
      $upscope $end
    $upscope $end
    $scope module EX $end
     $var wire 1 ' io_in_regWrite $end
     $var wire 12 O io_in_writeAddress $end
     $var wire 1 j io_out_memWrite $end
     $var wire 1 u io_in_memWrite $end
     $var wire 63 y _GEN_0 $end
     $var wire 32 "6 io_in_op2 $end
     $var wire 32 "G io_in_memData $end
     $var wire 32 "I io_out_memData $end
     $var wire 32 #0 io_in_op1 $end
     $var wire 4 #9 io_in_aluOP $end
     $var wire 12 #B io_out_writeAddress $end
     $var wire 1 #U io_in_memRead $end
     $var wire 1 #V io_out_memRead $end
     $var wire 32 #\ io_out_writeData $end
     $var wire 1 #~ io_out_regWrite $end
    $upscope $end
    $scope module MEMBarrier $end
     $var wire 32 ( regs_writeData $end
     $var wire 5 ? io_out_writeAddress $end
     $var wire 1 b io_out_regWrite $end
     $var wire 32 f io_in_writeData $end
     $var wire 1 h io_in_memRead $end
     $var wire 1 n regs_memRead $end
     $var wire 1 "v io_out_memRead $end
     $var wire 1 #4 io_in_regWrite $end
     $var wire 32 #5 io_out_writeData $end
     $var wire 5 #H io_in_writeAddress $end
     $var wire 1 #J regs_regWrite $end
     $var wire 1 #O clock $end
     $var wire 5 #Q regs_writeAddress $end
    $upscope $end
    $scope module EXBarrier $end
     $var wire 1 * regs_regWrite $end
     $var wire 1 6 io_in_regWrite $end
     $var wire 1 X clock $end
     $var wire 12 m io_in_writeAddress $end
     $var wire 1 o io_out_regWrite $end
     $var wire 32 q io_in_writeData $end
     $var wire 1 z regs_memWrite $end
     $var wire 32 { regs_memData $end
     $var wire 1 "0 io_in_memWrite $end
     $var wire 32 "3 regs_writeData $end
     $var wire 1 "@ io_in_memRead $end
     $var wire 1 "[ io_out_memWrite $end
     $var wire 32 "] io_out_memData $end
     $var wire 1 #* regs_memRead $end
     $var wire 12 #T regs_writeAddress $end
     $var wire 12 #b io_out_writeAddress $end
     $var wire 1 #q io_out_memRead $end
     $var wire 32 $" io_in_memData $end
     $var wire 32 $$ io_out_writeData $end
    $upscope $end
    $scope module IDBarrier $end
     $var wire 12 . io_in_writeAddress $end
     $var wire 1 / regs_regWrite $end
     $var wire 32 : io_out_memData $end
     $var wire 1 B regs_memRead $end
     $var wire 4 E io_out_aluOP $end
     $var wire 1 F io_in_memWrite $end
     $var wire 32 N regs_op2 $end
     $var wire 32 ^ io_in_op2 $end
     $var wire 1 } regs_memWrite $end
     $var wire 32 ") io_out_op1 $end
     $var wire 1 "O io_out_memRead $end
     $var wire 32 "P regs_op1 $end
     $var wire 4 "W regs_aluOP $end
     $var wire 4 "X io_in_aluOP $end
     $var wire 1 "_ io_out_regWrite $end
     $var wire 1 "a io_in_memRead $end
     $var wire 32 "e io_in_op1 $end
     $var wire 32 "w regs_memData $end
     $var wire 1 ## io_in_regWrite $end
     $var wire 12 #- regs_writeAddress $end
     $var wire 12 #: io_out_writeAddress $end
     $var wire 1 #N io_out_memWrite $end
     $var wire 32 #v io_in_memData $end
     $var wire 32 #x io_out_op2 $end
     $var wire 1 $& clock $end
    $upscope $end
    $scope module WB $end
     $var wire 5 t io_in_writeAddress $end
     $var wire 32 "! io_out_writeData $end
     $var wire 1 "4 io_out_writeEnable $end
     $var wire 1 "\ io_in_regWrite $end
     $var wire 32 "l io_in_writeData $end
     $var wire 32 #A io_dmemData $end
     $var wire 1 #t io_in_memRead $end
     $var wire 5 #{ io_out_writeAddress $end
    $upscope $end
  $upscope $end
$upscope $end
$enddefinitions $end
$dumpvars
0o
0$%
0=
b00000000000000000000000000000000 #h
b00000000000000000000000000000000 "U
b00000000000000000000000000000000 #6
b00000000000000000000000000000000 "#
0#t
0"v
b00000000000000000000000000000000 "I
b000000000000 m
b000 #y
0#S
0"r
b00000000000000000000000000000000 w
0a
b0000 E
b00000000000000000000000000000000 #w
0"@
b00000000000000000000000000000000 0
0/
b00000000000000000000000000000000 "G
0z
0#O
0r
b00000000000000000000000000000000 #s
0"<
0@
b00000000000000000000000000000000 #k
b00000000000000000000000000000000 "C
b0000 #.
b00000000000000000000000000000000 q
0#E
0$&
0"d
0"O
0>
b0000 T
0p
b00000 "'
0"}
b00000 "j
0#,
0"K
0#$
b000000000000 "t
b000000000000 $!
b00000000000000000000000000000000 3
b00000000000000000000000000000000 #z
0".
b000000000000 <
0`
b00000 #{
b00000000000000000000000000000000 #v
b00000000000000000000000000000000 "c
b00000000000000000000000000000000 #j
0#m
0"o
b00000 #(
b00000000000000000000000000000000 #8
b00000000000000000000000000000000 _
0#P
b00000 "*
b00000000000000000000000000000000 "%
b00000000000000000000000000000000 #W
0#~
b00000000000000000000000000000000 #f
0#a
0"k
b00000000000000000000000000000000 "S
b00000000000000000000000000000000 [
b00000000000000000000000000000000 "6
b00000000000000000000000000000000 "!
b00000 "&
b000000000000 "M
0"_
0#@
0"-
b00000000000000000000000000000000 "Q
b00000000000000000000000000000000 #2
1"`
b00000 t
0-
b00000 "g
b00000000000000000000000000000000 $$
b00000000000000000000000000000000 "w
0"z
0#>
b00000 "5
b00000 #H
b00000000000000000000000000000000 #C
b000000000000 i
b00000000000000000000000000000000 #?
b00000000000000000000000000000000 {
1""
0"Y
b00000000000000000000000000000000 #"
b00000000000000000000000000000000 ",
b00000000000000000000000000000000 ^
0#`
0n
0Y
0'
b000000000000 #B
b000000000000 #-
b00000000000000000000000000000000 #g
b00000000000000000000000000000000 "i
b00000000000000000000000000000000 #5
b00000000000000000000000000000000 "?
b00000000000000000000000000000000 #R
b00000000000000000000000000000000 "7
0j
0U
1#D
0#*
0M
b00000000000000000000000000000000 #x
b00000000000000000000000000000000 #c
b00000000000000000000000000000000 N
b00000000000000000000000000000000 "e
b00000000000000000000000000000000 "P
b00000000000000000000000000000000 #1
b00000000000000000000000000000000 "3
b000000000000 W
0#o
0"y
0#Z
b00000 #G
0}
0#=
b00000 "f
0h
b00000000000000000000000000000000 L
b00000000000000000000000000000000 ~
0"\
0"m
0#N
b0000 #9
b00000000000000000000000000000000 ]
0\
b00000000000000000000000000000000 #r
b00000 "(
b000000000000 #M
0*
b0000 "X
0";
b00000000000000000000000000000000 +
b000000000000 #b
b00000000000000000000000000000000 H
b00000000000000000000000000000000 "B
0X
0"L
0&
b00000000000000000000000000000000 "p
0"|
0"J
b00000000000000000000000000000000 :
b00000 #F
b00000000000000000000000000000000 $"
b00000000000000000000000000000000 #A
0"x
0"[
0#<
0"F
b00000000000000000000000000000000 K
0#'
05
b0000 "W
0F
0)
0#}
0%
b00000000000000000000000000000000 #3
b00000000000000000000000000000000 "=
b00000000000000000000000000000000 Z
0"8
b00000000000000000000000000000000 (
06
b00000 #Q
b00000000000000000000000000000000 #L
0#d
0!
b00000000000000000000000000000000 "N
b00000000000000000000000000000000 "9
b00000000000000000000000000000000 V
b00000000000000000000000000000000 k
0"4
b00000000000000000000000000000000 9
0#X
b00000000000000000000000000000000 |
0#;
0#&
0"E
b00000000000000000000000000000000 J
04
b00000000000000000000000000000000 "~
b000000000000 #:
12
0I
b00000000000000000000000000000000 $#
b00000000000000000000000000000000 #_
b00000000000000000000000000000000 "D
b00000000000000000000000000000000 "/
0#i
1#n
0b
b00000000000000000000000000000000 #p
b00000000000000000000000000000000 #[
0"$
b000000000000 #K
0#V
0"u
b00000000000000000000000000000000 "]
b000000000000 O
0#|
0u
0#J
0"T
b000000000000 .
b00000 "R
0"H
0#)
b00000000000000000000000000000000 8
b00000000000000000000000000000000 #
b00000000000000000000000000000000 "l
0"
b000000000000 "2
b00000 "q
b00000000000000000000000000000000 #0
b00000 #/
0"a
b00000000000000000000000000000000 f
0e
0P
b00000 "1
b00000000000000000000000000000000 "h
b000000000000 R
0#U
1D
b00000 #%
0##
b000000000000 #T
b00000000000000000000000000000000 G
01
b00000000000000000000000000000000 #\
b00000000000000000000000000000000 "{
b00000 #!
b00000 "+
b00000 l
0B
b00000000000000000000000000000000 C
0#4
0">
b00000000000000000000000000000000 "Z
0S
b00000000000000000000000000000000 7
b00000000000000000000000000000000 "V
b00000000000000000000000000000000 #7
b000000000000000000000000000000000000000000000000000000000000000 y
0d
0#u
b00000000000000000000000000000000 #]
b00000 ?
0"b
b00000000000000000000000000000000 #+
b00000000000000000000000000000000 g
0"0
b000000000000 Q
0#q
b00000 #I
b00000000000000000000000000000000 #Y
b00000 ;
0"s
0"^
b00000 #^
b00000000000000000000000000000000 c
b00000000000000000000000000000000 x
0"A
b00000000000000000000000000000000 ")
0#e
0s
0A
0,
1":
b00000000000000000000000000000000 #l
0$
b00000000000000000000000000000000 "n
b00000000000000000000000000000000 v
$end
#0
b1111 "X
1#}
b1111 T
b1111 #.
b00000000000000000000000000000100 #z
1#,
1#X
#1
1#m
1"b
1"k
1@
1r
1"$
1X
1#e
1"8
b1111 "W
1">
b1111 #9
1"o
1=
b1111 E
1#O
1"d
1"x
1#E
1"
1$&
#6
0#e
0#O
0=
0r
0@
0#E
0X
0#m
0"
0$&
0">
0"k
0"x
0"o
0"8
0"$
0"b
0"d
#11
1#m
1"b
1"k
1@
1r
1"$
1X
1#e
1"8
1">
1"o
1=
1#O
1"d
1"x
1#E
1"
1$&
#16
0#e
0#O
0=
0r
0@
0#E
0X
0#m
0"
0$&
0">
0"k
0"x
0"o
0"8
0"$
0"b
0"d
#21
1#m
1"b
1"k
1@
1r
1"$
1X
1#e
1"8
1">
1"o
1=
1#O
1"d
1"x
1#E
1"
1$&
#26
0#e
0#O
0=
0r
0@
0#E
0X
0#m
0"
0$&
0">
0"k
0"x
0"o
0"8
0"$
0"b
0"d
#31
1#m
1"b
1"k
1@
1r
1"$
1X
1#e
1"8
1">
1"o
1=
1#O
1"d
1"x
1#E
1"
1$&
#36
0#e
0#O
0=
0r
0@
0#E
0X
0#m
0"
0$&
0">
0"k
0"x
0"o
0"8
0"$
0"b
0"d
#41
1#m
1"b
1"k
1@
1r
1"$
1X
1#e
1"8
1">
1"o
1=
1#O
1"d
1"x
1#E
1"
1$&
#46
1"m
0#O
1##
b11100000100100011110000110010011 "n
0=
b11100000100100011110000110010011 #3
1,
1#S
0">
0"
0"k
b0000 T
0"o
0"8
b0000 #.
1"|
0#e
1"^
b00000000000000000000000000010011 #2
1"-
b00000000000000000000000000010011 #k
b00000000000000000000000000010011 #
b11100000100100011110000110010011 _
b00000000000000000000000000000000 #z
1"K
0r
0@
0#E
0X
0#m
0$&
b11100000100100011110000110010011 9
0#,
1#`
11
0"x
1#o
1#&
b0000 "X
1&
b00000000000000000000000000010011 "p
b00000000000000000000000000010011 H
0"$
1"u
1#d
b11100000100100011110000110010011 J
0"b
0"d
0#}
0#X
1#$
#51
1#m
b0000 E
1"b
1"k
1@
1d
1/
1"8
b11100000100100011110000110010011 "i
1'
1#O
1"x
1"
b11100000100100011110000110010011 #6
1$&
1"_
b0000 "W
b0000 #9
1r
b11100000100100011110000110010011 #_
1"$
1X
1#e
1">
1"o
1=
1"d
1#E
#56
0#O
0=
0">
0"
0"k
b000000000100 "2
b00000000000000000000000000000100 #L
b00000000000000000000000000010011 _
0"o
b00000000000000000000000000000100 3
0"8
b00000000000000000000000000000100 #8
b00000000000000000000000000000100 K
0#e
b00000000000000000000000000010011 #3
b00000000000000000000000000010011 "n
0r
0@
0#E
0X
0#m
0$&
b00000000000000000000000000000100 "S
b00000000000000000000000000010011 J
0"x
0"$
b00000000000000000000000000010011 9
0"b
0"d
#61
1#m
b000000000100 R
1"b
1"k
1@
b00000000000000000000000000010011 "i
1r
1"$
b00000000000000000000000000010011 #6
1X
b00000000000000000000000000010011 #_
1#e
b000000000100 "M
1"8
1">
b000000000100 "t
1"o
1=
1#O
1"d
1"x
1#E
1"
1$&
#66
0#e
0#O
b00000000000000000000000000001000 K
b00000000000000000000000000001000 "S
0=
0r
0@
0#E
0X
0#m
0"
0$&
0">
0"k
0"x
0"o
b00000000000000000000000000001000 #L
0"8
0"$
b00000000000000000000000000001000 #8
0"b
0"d
b000000001000 "2
b00000000000000000000000000001000 3
#71
1#m
b000000001000 R
1"b
1"k
b000000001000 "M
1@
1r
1"$
1X
1#e
1"8
1">
b000000001000 "t
1"o
1=
1#O
1"d
1"x
1#E
1"
1$&
#76
0#e
b00000000000000000000000000001100 #8
0#O
b00000000000000000000000000001100 K
b00000000000000000000000000001100 "S
b00000000000000000000000000001100 #L
0=
0r
0@
0#E
0X
0#m
0"
0$&
0">
0"k
0"x
b000000001100 "2
b00000000000000000000000000001100 3
0"o
0"8
0"$
0"b
0"d
#81
1#m
1"b
1"k
1@
1r
1"$
1X
1#e
b000000001100 "M
1"8
b000000001100 "t
1">
1"o
1=
1#O
1"d
b000000001100 R
1"x
1#E
1"
1$&
#86
0#e
0#O
0=
0r
0@
0#E
0X
0#m
0"
0$&
0">
b00000000000000000000000000010000 3
0"k
b00000000000000000000000000010000 #8
b00000000000000000000000000010000 K
b00000000000000000000000000010000 "S
0"x
0"o
b000000010000 "2
b00000000000000000000000000010000 #L
0"8
0"$
0"b
0"d
#91
1#m
b000000010000 "M
1"b
1"k
1@
1r
1"$
b000000010000 "t
1X
1#e
1"8
1">
1"o
1=
1#O
1"d
b000000010000 R
1"x
1#E
1"
1$&
#96
0#O
b00000000000100011111000110110011 9
0=
b00000000000000000000000000010100 #L
0">
0"
0"k
0"o
0"8
0#e
b00000000000000000000000000010100 #8
b00000000000000000000000000010100 3
b00000000000100011111000110110011 #3
0r
0@
0#E
0X
0#m
0$&
b00000000000100011111000110110011 "n
0"x
b00000000000100011111000110110011 J
b00000000000000000000000000010100 K
b00000000000000000000000000010100 "S
0"$
b000000010100 "2
b00000000000100011111000110110011 _
0"b
0"d
#101
1#m
b000000010100 R
1"b
1"k
1@
1r
1"$
b00000000000100011111000110110011 #_
1X
1#e
b00000000000100011111000110110011 "i
1"8
1">
1"o
1=
1#O
1"d
b00000000000100011111000110110011 #6
1"x
1#E
b000000010100 "M
b000000010100 "t
1"
1$&
#106
0#O
b00000000000000000000000000011000 #8
b00000000000000000000000000011000 #L
0=
0">
0"
0"k
b00000000000000000000000000010011 _
0"o
b00000000000000000000000000011000 3
b00000000000000000000000000011000 "S
0"8
b00000000000000000000000000010011 #3
0#e
b00000000000000000000000000010011 "n
0r
0@
0#E
0X
0#m
0$&
b000000011000 "2
b00000000000000000000000000011000 K
b00000000000000000000000000010011 J
0"x
0"$
b00000000000000000000000000010011 9
0"b
0"d
#111
1#m
1"b
1"k
1@
b00000000000000000000000000010011 "i
1r
1"$
b00000000000000000000000000010011 #6
1X
b000000011000 "t
b00000000000000000000000000010011 #_
1#e
b000000011000 R
1"8
1">
1"o
1=
1#O
1"d
1"x
1#E
b000000011000 "M
1"
1$&
#116
0#e
0#O
b00000000000000000000000000011100 #L
0=
b00000000000000000000000000011100 "S
0r
0@
0#E
0X
0#m
0"
0$&
0">
b00000000000000000000000000011100 #8
0"k
b000000011100 "2
0"x
0"o
0"8
0"$
b00000000000000000000000000011100 K
0"b
0"d
b00000000000000000000000000011100 3
#121
1#m
1"b
1"k
1@
b000000011100 R
1r
1"$
1X
1#e
b000000011100 "t
1"8
1">
1"o
1=
1#O
1"d
b000000011100 "M
1"x
1#E
1"
1$&
#126
0#e
b00000000000000000000000000100000 #8
0#O
b000000100000 "2
0=
0r
0@
0#E
0X
0#m
0"
0$&
0">
b00000000000000000000000000100000 3
0"k
b00000000000000000000000000100000 K
b00000000000000000000000000100000 "S
0"x
0"o
b00000000000000000000000000100000 #L
0"8
0"$
0"b
0"d
#131
b000000100000 "M
1#m
1"b
1"k
1@
1r
1"$
1X
1#e
1"8
1">
1"o
1=
1#O
1"d
1"x
1#E
b000000100000 R
1"
b000000100000 "t
1$&
#136
b00000000000000000000000000100100 K
0#e
b000000100100 "2
b00000000000000000000000000100100 3
b00000000000000000000000000100100 "S
0#O
0=
0r
0@
0#E
0X
0#m
0"
0$&
0">
0"k
b00000000000000000000000000100100 #8
b00000000000000000000000000100100 #L
0"x
0"o
0"8
0"$
0"b
0"d
#141
1#m
b000000100100 "M
1"b
1"k
1@
1r
b000000100100 R
1"$
1X
1#e
b000000100100 "t
1"8
1">
1"o
1=
1#O
1"d
1"x
1#E
1"
1$&
#146
0#O
b000000101000 "2
b00000000001000001101000100010011 _
b00000000001000001101000100010011 "n
0=
0">
0"
0"k
b00000000000000000000000000101000 K
0"o
0"8
b00000000001000001101000100010011 9
b00000000000000000000000000101000 "S
0#e
b00000000000000000000000000101000 #8
0r
0@
0#E
0X
0#m
0$&
b00000000000000000000000000101000 #L
0"x
b00000000001000001101000100010011 #3
b00000000000000000000000000101000 3
0"$
b00000000001000001101000100010011 J
0"b
0"d
#151
1#m
1"b
1"k
1@
1r
1"$
b00000000001000001101000100010011 #_
1X
1#e
1"8
1">
b00000000001000001101000100010011 #6
1=
1"o
b000000101000 "t
b000000101000 R
1#O
1"d
1"x
1#E
1"
1$&
b000000101000 "M
b00000000001000001101000100010011 "i
#156
0#O
b00000000000000000000000000101100 K
b00000000000000000000000000101100 #L
0=
0">
0"
0"k
b00000000000000000000000000010011 _
b00000000000000000000000000101100 #8
0"o
b00000000000000000000000000101100 "S
b000000101100 "2
0"8
b00000000000000000000000000010011 #3
0#e
b00000000000000000000000000010011 "n
0r
0@
0#E
0X
0#m
0$&
b00000000000000000000000000010011 J
0"x
b00000000000000000000000000101100 3
0"$
b00000000000000000000000000010011 9
0"b
0"d
#161
1#m
1"b
1"k
1@
b00000000000000000000000000010011 "i
b000000101100 "t
1"$
b00000000000000000000000000010011 #6
1r
b00000000000000000000000000010011 #_
1#e
1X
1"8
1">
b000000101100 R
1"o
1=
1#O
1"d
1"x
1#E
1"
b000000101100 "M
1$&
#166
b00000000000000000000000000110000 #L
0#e
b00000000000000000000000000110000 #8
0#O
b00000000000000000000000000110000 3
0=
0r
0@
0#E
0X
0#m
0"
0$&
0">
b000000110000 "2
0"k
0"x
0"o
b00000000000000000000000000110000 K
0"8
0"$
0"b
0"d
b00000000000000000000000000110000 "S
#171
1#m
1"b
1"k
1@
1r
1"$
1X
1#e
1"8
1">
1"o
1=
b000000110000 "t
1#O
1"d
1"x
1#E
1"
b000000110000 R
1$&
b000000110000 "M
#176
0#e
b00000000000000000000000000110100 "S
0#O
b00000000000000000000000000110100 K
0=
0r
0@
0#E
0X
0#m
0"
0$&
0">
b000000110100 "2
0"k
0"x
0"o
0"8
0"$
b00000000000000000000000000110100 #8
0"b
0"d
b00000000000000000000000000110100 3
b00000000000000000000000000110100 #L
#181
1#m
b000000110100 R
1"b
1"k
1@
1r
1"$
1X
1#e
1"8
1">
b000000110100 "M
1"o
1=
1#O
1"d
1"x
1#E
b000000110100 "t
1"
1$&
#186
b00000000000000000000000000111000 3
0#e
b00000000000000000000000000111000 #L
0#O
b00000000000000000000000000111000 #8
b000000111000 "2
b00000000000000000000000000111000 K
0=
0r
0@
0#E
0X
0#m
0"
0$&
0">
0"k
0"x
0"o
b00000000000000000000000000111000 "S
0"8
0"$
0"b
0"d
#191
1#m
1"b
1"k
1@
1r
1"$
1X
1#e
b000000111000 R
1"8
1">
1"o
1=
b000000111000 "M
1#O
1"d
1"x
1#E
1"
b000000111000 "t
1$&
