waveforms/forward1.s.vcd
$date
2022-10-08T19:57+0000
$end
$version
0.2
$end
$comment

$end
$timescale 1ns  $end
$scope module Tile $end
 $var wire 1 6 io_regsWriteEnable $end
 $var wire 32 9 io_regsReadData $end
 $var wire 32 M io_IMEMAddress $end
 $var wire 1 \ io_regsDeviceWriteEnable $end
 $var wire 32 "$ io_DMEMAddress $end
 $var wire 32 "H io_DMEMWriteData $end
 $var wire 1 "M CPU $end
 $var wire 32 "S io_regsDeviceWriteData $end
 $var wire 5 "X io_regsDeviceWriteAddress $end
 $var wire 1 "i clock $end
 $var wire 32 "o io_currentPC $end
 $var wire 5 "q io_regsAddress $end
 $var wire 1 #( io_DMEMWriteEnable $end
 $var wire 32 #+ io_memDeviceWriteAddress $end
 $var wire 32 #> io_IMEMWriteData $end
 $var wire 32 #B io_memDeviceWriteData $end
 $var wire 32 #] io_DMEMReadData $end
 $var wire 1 #c reset $end
 $var wire 1 #m io_setup $end
 $var wire 1 #x io_memDeviceWriteEnable $end
 $var wire 32 $6 io_regsWriteData $end
  $scope module CPU.MEMBarrier $end
  $upscope $end
  $scope module CPU.EX $end
  $upscope $end
  $scope module CPU.EXBarrier $end
  $upscope $end
  $scope module CPU.MEM $end
  $upscope $end
  $scope module CPU.WB $end
  $upscope $end
  $scope module CPU.IDBarrier $end
  $upscope $end
  $scope module CPU.ID $end
  $upscope $end
  $scope module CPU.ID.registers $end
  $upscope $end
  $scope module CPU.IFBarrier $end
  $upscope $end
  $scope module CPU.IF $end
  $upscope $end
  $scope module CPU.IF.IMEM $end
  $upscope $end
  $scope module CPU.MEM.DMEM $end
  $upscope $end
  $scope module CPU.ID.Decoder $end
  $upscope $end
  $scope module CPU $end
   $var wire 1 % IDBarrier $end
   $var wire 32 4 testHarness_setupSignals_IMEMsignals_address $end
   $var wire 32 : testHarness_setupSignals_IMEMsignals_instruction $end
   $var wire 1 J testHarness_regUpdates_writeEnable $end
   $var wire 1 _ ID $end
   $var wire 1 w testHarness_memUpdates_writeEnable $end
   $var wire 32 ") testHarness_regUpdates_writeData $end
   $var wire 5 "+ testHarness_regUpdates_writeAddress $end
   $var wire 5 ", testHarness_setupSignals_registerSignals_readAddress $end
   $var wire 32 "0 testHarness_testReadouts_registerRead $end
   $var wire 32 "; testHarness_currentPC $end
   $var wire 1 "? IF $end
   $var wire 32 "I testHarness_memUpdates_writeAddress $end
   $var wire 1 "O IFBarrier $end
   $var wire 1 "P testHarness_setupSignals_DMEMsignals_setup $end
   $var wire 32 "] testHarness_testReadouts_DMEMread $end
   $var wire 32 "a testHarness_setupSignals_DMEMsignals_dataIn $end
   $var wire 1 "e testHarness_setupSignals_IMEMsignals_setup $end
   $var wire 1 ## clock $end
   $var wire 32 #& testHarness_setupSignals_DMEMsignals_dataAddress $end
   $var wire 1 #/ testHarness_setupSignals_registerSignals_setup $end
   $var wire 1 #2 MEM $end
   $var wire 1 #F testHarness_setupSignals_registerSignals_writeEnable $end
   $var wire 1 #G WB $end
   $var wire 1 #H EXBarrier $end
   $var wire 1 #[ EX $end
   $var wire 32 #v testHarness_memUpdates_writeData $end
   $var wire 32 $' testHarness_setupSignals_registerSignals_writeData $end
   $var wire 1 $1 MEMBarrier $end
   $var wire 1 $2 reset $end
   $var wire 1 $8 testHarness_setupSignals_DMEMsignals_writeEnable $end
    $scope module ID $end
     $var wire 1 ! testHarness_registerSetup_writeEnable $end
     $var wire 32 1 io_out_op2 $end
     $var wire 1 > io_jump $end
     $var wire 12 S io_out_writeAddress $end
     $var wire 4 V io_out_aluOP $end
     $var wire 32 X b $end
     $var wire 32 ^ testHarness_registerPeek $end
     $var wire 1 c io_wbIn_writeEnable $end
     $var wire 32 j io_out_memData $end
     $var wire 32 n io_wbIn_writeData $end
     $var wire 1 t testHarness_testUpdates_writeEnable $end
     $var wire 32 z immediate $end
     $var wire 32 "" testHarness_registerSetup_writeData $end
     $var wire 5 "* testHarness_testUpdates_writeAddress $end
     $var wire 5 "/ rdaddress $end
     $var wire 32 "D io_out_op1 $end
     $var wire 2 "T _GEN_6 $end
     $var wire 32 "\ a $end
     $var wire 5 "n testHarness_registerSetup_readAddress $end
     $var wire 5 "x rs2address $end
     $var wire 32 "z io_in_instruction_instruction $end
     $var wire 1 "{ registers $end
     $var wire 1 "| io_out_memRead $end
     $var wire 1 "~ io_out_regWrite $end
     $var wire 5 #1 io_wbIn_writeAddress $end
     $var wire 1 #K Decoder $end
     $var wire 5 #Q rs1address $end
     $var wire 32 #e io_next_pc $end
     $var wire 1 #n io_out_memWrite $end
     $var wire 1 #q testHarness_registerSetup_setup $end
     $var wire 32 #t testHarness_testUpdates_writeData $end
     $var wire 1 #} clock $end
     $var wire 32 $! io_in_pc $end
      $scope module registers $end
       $var wire 1 ) testHarness_testUpdates_writeEnable $end
       $var wire 1 , testHarness_setup_setup $end
       $var wire 32 8 testHarness_testUpdates_writeData $end
       $var wire 5 < readAddress1 $end
       $var wire 1 B clock $end
       $var wire 32 E io_readData1 $end
       $var wire 32 I registerFile $end
       $var wire 1 R testHarness_setup_writeEnable $end
       $var wire 1 d writeEnable $end
       $var wire 5 o io_readAddress1 $end
       $var wire 5 ". testHarness_testUpdates_writeAddress $end
       $var wire 1 "A io_writeEnable $end
       $var wire 32 "W testHarness_setup_writeData $end
       $var wire 32 "j io_writeData $end
       $var wire 5 #. testHarness_setup_readAddress $end
       $var wire 32 #4 io_readData2 $end
       $var wire 5 #8 writeAddress $end
       $var wire 5 #R io_writeAddress $end
       $var wire 5 #T io_readAddress2 $end
        $scope module registerFile $end
          $scope module _T_33 $end
           $var wire 1 $ en $end
           $var wire 1 - pipeline_valid_0 $end
           $var wire 1 ? clk $end
           $var wire 5 "5 pipeline_addr_0 $end
           $var wire 1 "@ mask $end
           $var wire 1 "` valid $end
           $var wire 5 #* addr $end
           $var wire 32 #J pipeline_data_0 $end
           $var wire 32 #w data $end
          $upscope $end
          $scope module _T_41 $end
           $var wire 32 f data $end
           $var wire 1 "2 en $end
           $var wire 1 "y clk $end
           $var wire 5 #k addr $end
          $upscope $end
          $scope module _T_38 $end
           $var wire 1 v clk $end
           $var wire 1 "Z en $end
           $var wire 5 "m addr $end
           $var wire 32 #d data $end
          $upscope $end
        $upscope $end
      $upscope $end
      $scope module Decoder $end
       $var wire 1 5 io_controlSignals_memWrite $end
       $var wire 1 C io_controlSignals_memRead $end
       $var wire 1 "1 io_op2Select $end
       $var wire 2 "= decodedControlSignals_6 $end
       $var wire 1 "v io_controlSignals_regWrite $end
       $var wire 4 #7 io_ALUop $end
       $var wire 1 #9 io_op1Select $end
       $var wire 32 #= io_instruction_instruction $end
       $var wire 1 #f io_controlSignals_jump $end
       $var wire 3 $$ io_branchType $end
       $var wire 1 $- io_controlSignals_branch $end
       $var wire 3 $. io_immType $end
      $upscope $end
    $upscope $end
    $scope module MEM $end
     $var wire 1 @ io_out_memRead $end
     $var wire 1 U DMEM $end
     $var wire 32 ] testHarness_testUpdates_writeAddress $end
     $var wire 1 h io_in_regWrite $end
     $var wire 32 "3 io_in_memData $end
     $var wire 5 "9 io_out_writeAddress $end
     $var wire 32 "> testHarness_DMEMsetup_dataAddress $end
     $var wire 32 "B io_in_writeData $end
     $var wire 1 "F io_out_regWrite $end
     $var wire 1 "J io_in_memWrite $end
     $var wire 1 #$ testHarness_testUpdates_writeEnable $end
     $var wire 32 #) io_out_writeData $end
     $var wire 1 #0 testHarness_DMEMsetup_writeEnable $end
     $var wire 32 #< testHarness_DMEMpeek $end
     $var wire 32 #N io_dmemReadResult $end
     $var wire 1 #^ testHarness_DMEMsetup_setup $end
     $var wire 32 #j testHarness_testUpdates_writeData $end
     $var wire 1 #s clock $end
     $var wire 1 $) io_in_memRead $end
     $var wire 32 $+ testHarness_DMEMsetup_dataIn $end
     $var wire 12 $4 io_in_writeAddress $end
      $scope module DMEM $end
       $var wire 32 + testHarness_testUpdates_writeData $end
       $var wire 1 3 _GEN_6 $end
       $var wire 12 = data__T_24_addr_pipe_0 $end
       $var wire 1 O testHarness_testUpdates_writeEnable $end
       $var wire 32 Y testHarness_setup_dataAddress $end
       $var wire 12 Z io_dataAddress $end
       $var wire 32 ` testHarness_testUpdates_writeAddress $end
       $var wire 32 { addressSource $end
       $var wire 32 "' data $end
       $var wire 1 "Q io_writeEnable $end
       $var wire 1 #% testHarness_setup_writeEnable $end
       $var wire 1 #' testHarness_setup_setup $end
       $var wire 1 #P clock $end
       $var wire 32 #b testHarness_setup_dataIn $end
       $var wire 32 #p io_dataIn $end
       $var wire 32 #z io_dataOut $end
        $scope module data $end
          $scope module _T_26 $end
           $var wire 1 " clk $end
           $var wire 12 l addr $end
           $var wire 32 | pipeline_data_0 $end
           $var wire 1 "K pipeline_valid_0 $end
           $var wire 32 "[ data $end
           $var wire 1 #I en $end
           $var wire 12 #V pipeline_addr_0 $end
           $var wire 1 #g valid $end
           $var wire 1 #~ mask $end
          $upscope $end
          $scope module _T_24 $end
           $var wire 32 N data $end
           $var wire 1 "k clk $end
           $var wire 1 #O en $end
           $var wire 12 #X addr $end
          $upscope $end
        $upscope $end
      $upscope $end
    $upscope $end
    $scope module IFBarrier $end
     $var wire 32 # io_in_instruction_instruction $end
     $var wire 32 K io_out_instruction_instruction $end
     $var wire 1 "r clock $end
     $var wire 32 "s pc $end
     $var wire 32 #; io_in_pc $end
     $var wire 32 #r io_out_pc $end
     $var wire 1 #u reset $end
    $upscope $end
    $scope module IF $end
     $var wire 1 & testHarness_IMEMsetup_setup $end
     $var wire 32 / io_next_pc $end
     $var wire 1 W IMEM $end
     $var wire 32 a testHarness_IMEMsetup_instruction $end
     $var wire 1 r io_jump $end
     $var wire 1 "C clock $end
     $var wire 32 "G testHarness_PC $end
     $var wire 1 #5 reset $end
     $var wire 32 #C testHarness_IMEMsetup_address $end
     $var wire 32 #y io_out_pc $end
     $var wire 32 #{ io_out_instruction_instruction $end
     $var wire 32 $# pc $end
     $var wire 32 $/ _GEN_0 $end
      $scope module IMEM $end
       $var wire 32 L testHarness_setupSignals_instruction $end
       $var wire 12 T instructions__T_20_addr_pipe_0 $end
       $var wire 1 "( clock $end
       $var wire 32 "Y testHarness_setupSignals_address $end
       $var wire 1 "g _GEN_4 $end
       $var wire 32 "p io_instruction $end
       $var wire 1 #- testHarness_setupSignals_setup $end
       $var wire 32 #W addressSource $end
       $var wire 32 #h testHarness_requestedAddress $end
       $var wire 32 #| io_instructionAddress $end
       $var wire 32 $& instructions $end
        $scope module instructions $end
          $scope module _T_18 $end
           $var wire 1 2 valid $end
           $var wire 1 F mask $end
           $var wire 1 g pipeline_valid_0 $end
           $var wire 12 "6 addr $end
           $var wire 1 "< clk $end
           $var wire 32 "w data $end
           $var wire 12 "} pipeline_addr_0 $end
           $var wire 32 #l pipeline_data_0 $end
           $var wire 1 $" en $end
          $upscope $end
          $scope module _T_20 $end
           $var wire 1 "& en $end
           $var wire 12 "R addr $end
           $var wire 1 "t clk $end
           $var wire 32 #A data $end
          $upscope $end
        $upscope $end
      $upscope $end
    $upscope $end
    $scope module EX $end
     $var wire 1 ' io_in_regWrite $end
     $var wire 12 Q io_in_writeAddress $end
     $var wire 1 m io_out_memWrite $end
     $var wire 1 y io_in_memWrite $end
     $var wire 63 } _GEN_0 $end
     $var wire 32 ": io_in_op2 $end
     $var wire 32 "L io_in_memData $end
     $var wire 32 "N io_out_memData $end
     $var wire 32 #: io_in_op1 $end
     $var wire 4 #D io_in_aluOP $end
     $var wire 12 #M io_out_writeAddress $end
     $var wire 1 #` io_in_memRead $end
     $var wire 1 #a io_out_memRead $end
     $var wire 32 #i io_out_writeData $end
     $var wire 1 $3 io_out_regWrite $end
    $upscope $end
    $scope module MEMBarrier $end
     $var wire 32 ( regs_writeData $end
     $var wire 5 A io_out_writeAddress $end
     $var wire 1 e io_out_regWrite $end
     $var wire 32 i io_in_writeData $end
     $var wire 1 k io_in_memRead $end
     $var wire 1 q regs_memRead $end
     $var wire 1 #! io_out_memRead $end
     $var wire 1 #? io_in_regWrite $end
     $var wire 32 #@ io_out_writeData $end
     $var wire 5 #S io_in_writeAddress $end
     $var wire 1 #U regs_regWrite $end
     $var wire 1 #Z clock $end
     $var wire 5 #\ regs_writeAddress $end
    $upscope $end
    $scope module EXBarrier $end
     $var wire 1 * regs_regWrite $end
     $var wire 1 7 io_in_regWrite $end
     $var wire 1 [ clock $end
     $var wire 12 p io_in_writeAddress $end
     $var wire 1 s io_out_regWrite $end
     $var wire 32 u io_in_writeData $end
     $var wire 1 ~ regs_memWrite $end
     $var wire 32 "! regs_memData $end
     $var wire 1 "4 io_in_memWrite $end
     $var wire 32 "7 regs_writeData $end
     $var wire 1 "E io_in_memRead $end
     $var wire 1 "b io_out_memWrite $end
     $var wire 32 "d io_out_memData $end
     $var wire 1 #3 regs_memRead $end
     $var wire 12 #_ regs_writeAddress $end
     $var wire 12 #o io_out_writeAddress $end
     $var wire 1 $% io_out_memRead $end
     $var wire 32 $5 io_in_memData $end
     $var wire 32 $7 io_out_writeData $end
    $upscope $end
    $scope module IDBarrier $end
     $var wire 12 . io_in_writeAddress $end
     $var wire 1 0 regs_regWrite $end
     $var wire 32 ; io_out_memData $end
     $var wire 1 D regs_memRead $end
     $var wire 4 G io_out_aluOP $end
     $var wire 1 H io_in_memWrite $end
     $var wire 32 P regs_op2 $end
     $var wire 32 b io_in_op2 $end
     $var wire 1 "# regs_memWrite $end
     $var wire 32 "- io_out_op1 $end
     $var wire 1 "U io_out_memRead $end
     $var wire 32 "V regs_op1 $end
     $var wire 4 "^ regs_aluOP $end
     $var wire 4 "_ io_in_aluOP $end
     $var wire 1 "f io_out_regWrite $end
     $var wire 1 "h io_in_memRead $end
     $var wire 32 "l io_in_op1 $end
     $var wire 32 #" regs_memData $end
     $var wire 1 #, io_in_regWrite $end
     $var wire 12 #6 regs_writeAddress $end
     $var wire 12 #E io_out_writeAddress $end
     $var wire 1 #Y io_out_memWrite $end
     $var wire 32 $* io_in_memData $end
     $var wire 32 $, io_out_op2 $end
     $var wire 1 $9 clock $end
    $upscope $end
    $scope module WB $end
     $var wire 5 x io_in_writeAddress $end
     $var wire 32 "% io_out_writeData $end
     $var wire 1 "8 io_out_writeEnable $end
     $var wire 1 "c io_in_regWrite $end
     $var wire 32 "u io_in_writeData $end
     $var wire 32 #L io_dmemData $end
     $var wire 1 $( io_in_memRead $end
     $var wire 5 $0 io_out_writeAddress $end
    $upscope $end
  $upscope $end
$upscope $end
$enddefinitions $end
$dumpvars
0"c
b0000 #D
0$%
13
0R
0"1
b00000000000000000000000000000000 #h
0#c
b00000000000000000000000000000000 $,
b00000000000000000000000000000000 "j
0"P
0"v
0m
b00000000000000000000000000000000 "I
b00000 "9
0$8
b00 "=
0~
0"r
b000000000000 #o
b00000000000000000000000000000000 b
b00000000000000000000000000000000 #w
0#!
0D
b00000000000000000000000000000000 E
0"#
b00000000000000000000000000000000 #=
b00000000000000000000000000000000 "G
b00000000000000000000000000000000 "\
0r
0H
0"<
0#2
0@
0"Q
b00000000000000000000000000000000 "u
b00000000000000000000000000000000 $7
1"g
b00000 $0
b00000 "n
0"O
0#0
0>
b00000000000000000000000000000000 #i
0"2
b0000 "^
0#s
0#^
0"`
0"K
0$"
0#,
0#$
b00000000000000000000000000000000 #e
0O
0"C
b00000000000000000000000000000000 P
b00000 #.
b00000000000000000000000000000000 #z
0"?
b00000000000000000000000000000000 #v
b00000000000000000000000000000000 /
1"@
0?
0#m
b00000000000000000000000000000000 #j
0$1
0#P
b00000000000000000000000000000000 "W
b00000 "*
b00000000000000000000000000000000 "%
b00000000000000000000000000000000 #W
b00000 #k
0#a
b00000 "X
0$-
b00000000000000000000000000000000 #4
b00000 "m
0#/
b00000000000000000000000000000000 "S
b00000000000000000000000000000000 "!
0"k
0k
b0000 "_
b00000 x
b00000000000000000000000000000000 #y
0"~
0J
0-
b00000000000000000000000000000000 "w
0#[
b00000000000000000000000000000000 #C
b00000 "5
b00000000000000000000000000000000 #&
b00000000000000000000000000000000 M
b00000000000000000000000000000000 "0
b00000000000000000000000000000000 {
b00000000000000000000000000000000 #"
b00000000000000000000000000000000 ^
b00000000000000000000000000000000 "$
0#`
0"M
b000000000000 #_
0'
b00000000000000000000000000000000 #J
b00000000000000000000000000000000 $+
b00000000000000000000000000000000 "7
b00000000000000000000000000000000 ""
1#~
0"{
0U
b00000000000000000000000000000000 N
b00000000000000000000000000000000 $/
b00000000000000000000000000000000 #N
b00000000000000000000000000000000 $'
b00000000000000000000000000000000 "3
b00000 #\
0"y
0#Z
0h
0$3
0#(
b00000000000000000000000000000000 a
b00000000000000000000000000000000 L
b00000 #*
b000000000000 S
b00000000000000000000000000000000 z
0y
0#9
b00000000000000000000000000000000 ]
0\
b00000000000000000000000000000000 #r
b000000000000 #M
0*
b00000000000000000000000000000000 $6
b00000000000000000000000000000000 #@
b00000000000000000000000000000000 $!
b00000000000000000000000000000000 +
b00000000000000000000000000000000 "B
b00000000000000000000000000000000 n
b00000000000000000000000000000000 Y
0#-
b000000000000 "}
0C
0&
b00000000000000000000000000000000 "p
b000000000000 "6
b00000000000000000000000000000000 ">
0"|
b00000000000000000000000000000000 $&
0#H
0$)
b00000000000000000000000000000000 "d
0"J
b00000000000000000000000000000000 :
b00000000000000000000000000000000 #d
b000 $.
0#n
0#Y
b00000000000000000000000000000000 #A
b00000 #1
0g
0#'
b00000000000000000000000000000000 `
b000000000000 #X
0"F
05
b00000000000000000000000000000000 K
b000000000000 T
0[
b000 $$
0)
b00000000000000000000000000000000 $5
b00000 "x
b00000000000000000000000000000000 "s
0W
b00000000000000000000000000000000 ;
1"&
b00000000000000000000000000000000 "o
0%
0v
0#K
b00000 #8
0#}
0"U
0"8
b00000000000000000000000000000000 (
06
0!
b00000000000000000000000000000000 #L
b00000 #Q
0#G
b00000000000000000000000000000000 "N
0$(
0"f
b0000 V
0"4
b00000000000000000000000000000000 9
0$9
b00000000000000000000000000000000 |
0"Z
0"E
b00000000000000000000000000000000 #t
0"(
b00000 A
b00000000000000000000000000000000 $#
b00000000000000000000000000000000 "a
b00000000000000000000000000000000 i
b00000000000000000000000000000000 #B
b00000000000000000000000000000000 "D
b00000000000000000000000000000000 "L
b000000000000 p
0w
b0000 #7
b00000 o
b00000000000000000000000000000000 #p
00
b000000000000 #6
b00000000000000000000000000000000 "z
b00000000000000000000000000000000 #>
b00000000000000000000000000000000 "H
b00000000000000000000000000000000 #)
b00000000000000000000000000000000 "]
0#g
b00000 #T
0"i
0#5
1#O
b00000000000000000000000000000000 "'
b00000 ",
b000000000000 .
0#x
0q
0"e
0#F
b00000000000000000000000000000000 j
b000000000000 #E
07
b00000000000000000000000000000000 #b
b00000 "q
b00000 #R
b00000000000000000000000000000000 8
0"
b00000000000000000000000000000000 #
b00000000000000000000000000000000 ":
b00000000000000000000000000000000 "l
1F
0e
0#%
b000000000000 #V
b00000000000000000000000000000000 I
b00000000000000000000000000000000 4
b00000000000000000000000000000000 #{
b00000000000000000000000000000000 $*
b00000000000000000000000000000000 f
b000000000000 Z
b000000000000 =
b00 "T
b00000 <
0#U
0"t
0c
b0000 G
0##
b00000 "/
0#f
0$2
b00000 #S
b00000000000000000000000000000000 u
0#I
0t
b00000 "+
0"h
0B
0_
b00000000000000000000000000000000 ";
b000000000000 "R
b00000000000000000000000000000000 X
b00000000000000000000000000000000 #;
b000000000000000000000000000000000000000000000000000000000000000 }
b00000000000000000000000000000000 "V
0d
0#u
b00000000000000000000000000000000 #]
02
0"b
b00000000000000000000000000000000 #+
b00000000000000000000000000000000 #|
b00000000000000000000000000000000 "-
b000000000000 Q
0#q
0#?
b00000000000000000000000000000000 #<
b00000000000000000000000000000000 "[
0"A
b000000000000 $4
b00000000000000000000000000000000 ")
b00000000000000000000000000000000 1
b00000 ".
b000000000000 l
0s
0#3
b00000000000000000000000000000000 #l
0,
0$
b00000000000000000000000000000000 #:
b00000000000000000000000000000000 "Y
$end
#0
1#5
1#u
1#c
1$2
b00000000000000000000000000000100 $/
b1111 "_
b1111 V
b1111 #7
#1
b1111 G
1?
1$9
1v
1"i
1"t
1"y
1#P
1"(
1"k
1B
b1111 #D
1"C
1"<
1#Z
1"r
b1111 "^
1#}
1##
1#s
1[
1"
#6
0"
0"r
0?
0v
0#Z
0[
0"<
0"i
0##
0"C
0"(
0B
0#}
0"y
0"t
0$9
0#s
0"k
0#P
#11
1?
1$9
1v
1"i
1"t
1"y
1#P
1"(
1"k
1B
1"C
1"<
1#Z
1"r
1#}
1##
1#s
1[
1"
#16
0"
0"r
0?
0v
0#Z
0[
0"<
0"i
0##
0"C
0"(
0B
0#}
0"y
0"t
0$9
0#s
0"k
0#P
#21
1?
1$9
1v
1"i
1"t
1"y
1#P
1"(
1"k
1B
1"C
1"<
1#Z
1"r
1#}
1##
1#s
1[
1"
#26
0"
0"r
0?
0v
0#Z
0[
0"<
0"i
0##
0"C
0"(
0B
0#}
0"y
0"t
0$9
0#s
0"k
0#P
#31
1?
1$9
1v
1"i
1"t
1"y
1#P
1"(
1"k
1B
1"C
1"<
1#Z
1"r
1#}
1##
1#s
1[
1"
#36
0"
0"r
0?
0v
0#Z
0[
0"<
0"i
0##
0"C
0"(
0B
0#}
0"y
0"t
0$9
0#s
0"k
0#P
#41
1?
1$9
1v
1"i
1"t
1"y
1#P
1"(
1"k
1B
1"C
1"<
1#Z
1"r
1#}
1##
1#s
1[
1"
#46
1&
1$"
0v
1#q
1,
0[
b00011010111000001011000110010011 a
b00011010111000001011000110010011 #>
b0000 "_
0"i
0##
b00011010111000001011000110010011 :
0B
1"e
0#5
1#/
0#}
1"~
b00000000000000000000000000010011 #
1#m
1"1
b0000 V
0$9
0#u
0"k
b00000000000000000000000000010011 K
1#,
b00011010111000001011000110010011 L
1"P
0"
0"r
b00000000000000000000000000000000 $/
1#^
0?
b00000000000000000000000000010011 #{
b00000000000000000000000000010011 "z
0$2
0#Z
b00000000000000000000000000010011 #=
1"v
0"<
12
b0000 #7
0"C
b00011010111000001011000110010011 "w
0"(
0#c
1#'
1#-
0"y
0"t
0#s
0#P
#51
1"t
1"y
1#P
1"(
1B
1"C
1#Z
10
1"r
1#}
1##
b00011010111000001011000110010011 #l
1#s
1[
b0000 "^
1'
b00011010111000001011000110010011 #A
1?
1$9
1v
1"i
1g
1"k
1"f
b0000 G
1"<
b00011010111000001011000110010011 "p
b0000 #D
1"
#56
0v
0[
0"i
0##
0B
b00000000000000000000000000000100 "Y
0#}
b00000000000000000000000000010011 :
b000000000100 "6
b00000000000000000000000000010011 L
0$9
0"k
0"
0"r
b00000000000000000000000000000100 #W
0?
0#Z
0"<
b00000000000000000000000000010011 #>
b00000000000000000000000000000100 4
0"C
0"(
b00000000000000000000000000010011 "w
b00000000000000000000000000000100 M
b00000000000000000000000000000100 #C
0"y
0"t
0#s
0#P
b00000000000000000000000000010011 a
#61
b000000000100 "R
b00000000000000000000000000010011 "p
b000000000100 T
1?
1$9
1v
1"i
b000000000100 "}
1"t
1"y
1#P
b00000000000000000000000000010011 #A
1"(
1"k
1B
1"C
b00000000000000000000000000010011 #l
1"<
1#Z
1"r
1#}
1##
1#s
1[
1"
#66
0"
0"r
b00000000000000000000000000001000 "Y
b00000000000000000000000000001000 #W
0?
0v
0#Z
0[
0"<
0"i
0##
b00000000000000000000000000001000 #C
0"C
0"(
0B
0#}
b00000000000000000000000000001000 4
b000000001000 "6
0"y
0"t
0$9
0#s
b00000000000000000000000000001000 M
0"k
0#P
#71
b000000001000 "R
1?
1$9
1v
1"i
b000000001000 T
1"t
1"y
1#P
1"k
1"(
b000000001000 "}
1B
1"C
1"<
1#Z
1"r
1#}
1##
1#s
1[
1"
#76
0"
0"r
b00000000000000000000000000001100 #C
0?
0v
b00000000000000000000000000001100 #W
0#Z
0[
0"<
b00000000000000000000000000001100 "Y
0"i
0##
0"C
0"(
0B
b00000000000000000000000000001100 M
0#}
0"y
0"t
0$9
0#s
0"k
b000000001100 "6
0#P
b00000000000000000000000000001100 4
#81
b000000001100 "}
b000000001100 "R
1?
1$9
1v
1"i
1"t
1"y
1#P
1"(
1"k
1B
1"C
1"<
1#Z
1"r
1#}
b000000001100 T
1##
1#s
1[
1"
#86
0"
0"r
b00000000000000000000000000010000 M
0?
0v
0#Z
b00000000000000000000000000010000 "Y
0[
0"<
0"i
0##
0"C
b000000010000 "6
0"(
0B
b00000000000000000000000000010000 #W
0#}
0"y
0"t
0$9
0#s
0"k
0#P
b00000000000000000000000000010000 4
b00000000000000000000000000010000 #C
#91
1?
b000000010000 "R
1$9
1v
1"i
1"t
b000000010000 T
1#P
1"y
1"(
1"k
1B
1"C
1"<
1#Z
1"r
1#}
1##
b000000010000 "}
1#s
1[
1"
#96
0v
b00000000000000000000000000010100 M
0[
b00000000010100010101000100010011 L
0"i
0##
b00000000000000000000000000010100 #C
0B
b00000000010100010101000100010011 "w
0#}
b00000000000000000000000000010100 4
0$9
0"k
b00000000010100010101000100010011 :
0"
0"r
0?
0#Z
0"<
b00000000000000000000000000010100 "Y
b00000000010100010101000100010011 #>
0"C
0"(
b000000010100 "6
0"y
b00000000000000000000000000010100 #W
0"t
0#s
0#P
b00000000010100010101000100010011 a
#101
b00000000010100010101000100010011 #l
1?
1$9
b000000010100 "R
1v
1"i
b000000010100 "}
1"t
1#P
b00000000010100010101000100010011 "p
1"y
1"(
1"k
1B
1"C
1"<
1#Z
1"r
1#}
b00000000010100010101000100010011 #A
1##
1#s
b000000010100 T
1[
1"
#106
b00000000000000000000000000011000 M
0v
b00000000000000000000000000011000 #C
b000000011000 "6
0[
0"i
0##
0B
0#}
b00000000000000000000000000010011 :
b00000000000000000000000000011000 4
b00000000000000000000000000011000 #W
b00000000000000000000000000010011 L
0$9
0"k
0"
0"r
0?
0#Z
0"<
b00000000000000000000000000010011 #>
0"C
b00000000000000000000000000011000 "Y
0"(
b00000000000000000000000000010011 "w
0"y
0"t
0#s
0#P
b00000000000000000000000000010011 a
#111
b00000000000000000000000000010011 "p
b000000011000 "}
1?
1$9
1v
1"i
b000000011000 T
1"t
1#P
1"y
b000000011000 "R
b00000000000000000000000000010011 #A
1"(
1"k
1B
1"C
b00000000000000000000000000010011 #l
1"<
1#Z
1"r
1#}
1##
1#s
1[
1"
#116
b00000000000000000000000000011100 #W
0"
0"r
0?
0v
0#Z
0[
0"<
b00000000000000000000000000011100 "Y
0"i
0##
0"C
0"(
0B
0#}
0"y
0"t
0$9
0#s
0"k
0#P
b00000000000000000000000000011100 4
b00000000000000000000000000011100 M
b00000000000000000000000000011100 #C
b000000011100 "6
#121
b000000011100 "R
b000000011100 T
1?
1$9
1v
1"i
1"t
1"y
1#P
1"(
1"k
1B
1"C
1"<
1#Z
1"r
1#}
1##
b000000011100 "}
1#s
1[
1"
#126
b00000000000000000000000000100000 "Y
0"
0"r
0?
0v
0#Z
0[
0"<
b00000000000000000000000000100000 4
0"i
0##
0"C
0"(
0B
0#}
0"y
0"t
0$9
0#s
b00000000000000000000000000100000 M
b00000000000000000000000000100000 #W
0"k
b000000100000 "6
0#P
b00000000000000000000000000100000 #C
#131
b000000100000 "}
b000000100000 T
1?
1$9
1v
1"i
1"t
1"y
1#P
b000000100000 "R
1"(
1"k
1B
1"C
1"<
1#Z
1"r
1#}
1##
1#s
1[
1"
#136
0"
0"r
0?
0v
b00000000000000000000000000100100 M
0#Z
0[
0"<
0"i
0##
0"C
0"(
0B
b00000000000000000000000000100100 4
0#}
b00000000000000000000000000100100 "Y
0"y
b00000000000000000000000000100100 #W
0"t
0$9
0#s
b00000000000000000000000000100100 #C
b000000100100 "6
0"k
0#P
#141
b000000100100 "R
b000000100100 "}
1?
1$9
1v
1"i
b000000100100 T
1"t
1"y
1#P
1"(
1"k
1B
1"C
1"<
1#Z
1"r
1#}
1##
1#s
1[
1"
#146
b00000000000000000000000000101000 4
0v
b00010111011100010000000010010011 a
0[
0"i
0##
0B
0#}
b00010111011100010000000010010011 L
b00010111011100010000000010010011 :
0$9
0"k
0"
0"r
0?
0#Z
b00000000000000000000000000101000 #W
0"<
b00010111011100010000000010010011 "w
0"C
0"(
b00010111011100010000000010010011 #>
b00000000000000000000000000101000 #C
b000000101000 "6
0"y
0"t
0#s
b00000000000000000000000000101000 M
0#P
b00000000000000000000000000101000 "Y
#151
b000000101000 "R
1?
1$9
1v
1"i
b00010111011100010000000010010011 #A
1"t
1"y
1#P
1"(
1"k
1B
b00010111011100010000000010010011 "p
1"C
1"<
1#Z
1"r
b000000101000 T
1#}
1##
b00010111011100010000000010010011 #l
1#s
b000000101000 "}
1[
1"
#156
0v
0[
b00000000000000000000000000101100 4
0"i
0##
0B
0#}
b00000000000000000000000000010011 :
b00000000000000000000000000101100 #W
b00000000000000000000000000010011 L
0$9
0"k
b00000000000000000000000000101100 #C
b000000101100 "6
0"
0"r
0?
0#Z
b00000000000000000000000000101100 "Y
0"<
b00000000000000000000000000010011 #>
0"C
0"(
b00000000000000000000000000010011 "w
0"y
0"t
0#s
b00000000000000000000000000101100 M
0#P
b00000000000000000000000000010011 a
#161
b00000000000000000000000000010011 "p
b000000101100 "}
b000000101100 "R
1?
1$9
1v
1"i
1"t
1"y
1#P
b00000000000000000000000000010011 #A
1"(
1"k
1B
b000000101100 T
1"C
b00000000000000000000000000010011 #l
1"<
1#Z
1"r
1#}
1##
1#s
1[
1"
#166
0"
0"r
0?
0v
b00000000000000000000000000110000 4
b000000110000 "6
0#Z
b00000000000000000000000000110000 "Y
0[
0"<
0"i
0##
0"C
0"(
0B
b00000000000000000000000000110000 #C
b00000000000000000000000000110000 #W
0#}
0"y
0"t
0$9
0#s
0"k
b00000000000000000000000000110000 M
0#P
