waveforms/load.s.vcd
$date
2022-10-07T21:25+0000
$end
$version
0.2
$end
$comment

$end
$timescale 1ns  $end
$scope module Tile $end
 $var wire 1 5 io_regsWriteEnable $end
 $var wire 32 8 io_regsReadData $end
 $var wire 32 L io_IMEMAddress $end
 $var wire 1 Z io_regsDeviceWriteEnable $end
 $var wire 32 "" io_DMEMAddress $end
 $var wire 32 "F io_DMEMWriteData $end
 $var wire 1 "K CPU $end
 $var wire 32 "Q io_regsDeviceWriteData $end
 $var wire 5 "U io_regsDeviceWriteAddress $end
 $var wire 1 "e clock $end
 $var wire 32 "k io_currentPC $end
 $var wire 5 "n io_regsAddress $end
 $var wire 1 #% io_DMEMWriteEnable $end
 $var wire 32 #( io_memDeviceWriteAddress $end
 $var wire 32 #; io_IMEMWriteData $end
 $var wire 32 #? io_memDeviceWriteData $end
 $var wire 32 #[ io_DMEMReadData $end
 $var wire 1 #a reset $end
 $var wire 1 #j io_setup $end
 $var wire 1 #u io_memDeviceWriteEnable $end
 $var wire 32 $2 io_regsWriteData $end
  $scope module CPU.MEMBarrier $end
  $upscope $end
  $scope module CPU.EX $end
  $upscope $end
  $scope module CPU.EXBarrier $end
  $upscope $end
  $scope module CPU.MEM $end
  $upscope $end
  $scope module CPU.WB $end
  $upscope $end
  $scope module CPU.IDBarrier $end
  $upscope $end
  $scope module CPU.ID $end
  $upscope $end
  $scope module CPU.ID.registers $end
  $upscope $end
  $scope module CPU.IFBarrier $end
  $upscope $end
  $scope module CPU.IF $end
  $upscope $end
  $scope module CPU.IF.IMEM $end
  $upscope $end
  $scope module CPU.MEM.DMEM $end
  $upscope $end
  $scope module CPU.ID.Decoder $end
  $upscope $end
  $scope module CPU $end
   $var wire 1 % IDBarrier $end
   $var wire 32 3 testHarness_setupSignals_IMEMsignals_address $end
   $var wire 32 9 testHarness_setupSignals_IMEMsignals_instruction $end
   $var wire 1 I testHarness_regUpdates_writeEnable $end
   $var wire 1 ] ID $end
   $var wire 1 u testHarness_memUpdates_writeEnable $end
   $var wire 32 "' testHarness_regUpdates_writeData $end
   $var wire 5 ") testHarness_regUpdates_writeAddress $end
   $var wire 5 "* testHarness_setupSignals_registerSignals_readAddress $end
   $var wire 32 ". testHarness_testReadouts_registerRead $end
   $var wire 32 "9 testHarness_currentPC $end
   $var wire 1 "= IF $end
   $var wire 32 "G testHarness_memUpdates_writeAddress $end
   $var wire 1 "M IFBarrier $end
   $var wire 1 "N testHarness_setupSignals_DMEMsignals_setup $end
   $var wire 32 "Y testHarness_testReadouts_DMEMread $end
   $var wire 32 "] testHarness_setupSignals_DMEMsignals_dataIn $end
   $var wire 1 "a testHarness_setupSignals_IMEMsignals_setup $end
   $var wire 1 "~ clock $end
   $var wire 32 ## testHarness_setupSignals_DMEMsignals_dataAddress $end
   $var wire 1 #, testHarness_setupSignals_registerSignals_setup $end
   $var wire 1 #/ MEM $end
   $var wire 1 #D testHarness_setupSignals_registerSignals_writeEnable $end
   $var wire 1 #E WB $end
   $var wire 1 #F EXBarrier $end
   $var wire 1 #Y EX $end
   $var wire 32 #s testHarness_memUpdates_writeData $end
   $var wire 32 $# testHarness_setupSignals_registerSignals_writeData $end
   $var wire 1 $- MEMBarrier $end
   $var wire 1 $. reset $end
   $var wire 1 $4 testHarness_setupSignals_DMEMsignals_writeEnable $end
    $scope module ID $end
     $var wire 1 ! testHarness_registerSetup_writeEnable $end
     $var wire 32 0 io_out_op2 $end
     $var wire 1 = io_jump $end
     $var wire 12 R io_out_writeAddress $end
     $var wire 4 U io_out_aluOP $end
     $var wire 32 \ testHarness_registerPeek $end
     $var wire 1 a io_wbIn_writeEnable $end
     $var wire 32 h io_out_memData $end
     $var wire 32 l io_wbIn_writeData $end
     $var wire 1 r testHarness_testUpdates_writeEnable $end
     $var wire 32 x immediate $end
     $var wire 32 ~ testHarness_registerSetup_writeData $end
     $var wire 5 "( testHarness_testUpdates_writeAddress $end
     $var wire 5 "- rdaddress $end
     $var wire 32 "B io_out_op1 $end
     $var wire 5 "j testHarness_registerSetup_readAddress $end
     $var wire 2 "m _GEN_3 $end
     $var wire 5 "u rs2address $end
     $var wire 32 "w io_in_instruction_instruction $end
     $var wire 1 "x registers $end
     $var wire 1 "y io_out_memRead $end
     $var wire 1 "{ io_out_regWrite $end
     $var wire 5 #. io_wbIn_writeAddress $end
     $var wire 1 #I Decoder $end
     $var wire 5 #O rs1address $end
     $var wire 1 #k io_out_memWrite $end
     $var wire 1 #n testHarness_registerSetup_setup $end
     $var wire 32 #q testHarness_testUpdates_writeData $end
     $var wire 1 #z clock $end
     $var wire 32 #| io_in_pc $end
      $scope module registers $end
       $var wire 1 ) testHarness_testUpdates_writeEnable $end
       $var wire 1 , testHarness_setup_setup $end
       $var wire 32 7 testHarness_testUpdates_writeData $end
       $var wire 5 ; readAddress1 $end
       $var wire 1 A clock $end
       $var wire 32 D io_readData1 $end
       $var wire 32 H registerFile $end
       $var wire 1 Q testHarness_setup_writeEnable $end
       $var wire 1 b writeEnable $end
       $var wire 5 m io_readAddress1 $end
       $var wire 5 ", testHarness_testUpdates_writeAddress $end
       $var wire 1 "? io_writeEnable $end
       $var wire 32 "T testHarness_setup_writeData $end
       $var wire 32 "f io_writeData $end
       $var wire 5 #+ testHarness_setup_readAddress $end
       $var wire 32 #1 io_readData2 $end
       $var wire 5 #5 writeAddress $end
       $var wire 5 #P io_writeAddress $end
       $var wire 5 #R io_readAddress2 $end
        $scope module registerFile $end
          $scope module _T_33 $end
           $var wire 1 $ en $end
           $var wire 1 - pipeline_valid_0 $end
           $var wire 1 > clk $end
           $var wire 5 "3 pipeline_addr_0 $end
           $var wire 1 "> mask $end
           $var wire 1 "\ valid $end
           $var wire 5 #' addr $end
           $var wire 32 #H pipeline_data_0 $end
           $var wire 32 #t data $end
          $upscope $end
          $scope module _T_41 $end
           $var wire 32 d data $end
           $var wire 1 "0 en $end
           $var wire 1 "v clk $end
           $var wire 5 #h addr $end
          $upscope $end
          $scope module _T_38 $end
           $var wire 1 t clk $end
           $var wire 1 "W en $end
           $var wire 5 "i addr $end
           $var wire 32 #b data $end
          $upscope $end
        $upscope $end
      $upscope $end
      $scope module Decoder $end
       $var wire 1 4 io_controlSignals_memWrite $end
       $var wire 1 B io_controlSignals_memRead $end
       $var wire 1 "/ io_op2Select $end
       $var wire 2 "; decodedControlSignals_6 $end
       $var wire 1 "s io_controlSignals_regWrite $end
       $var wire 4 #4 io_ALUop $end
       $var wire 1 #6 io_op1Select $end
       $var wire 32 #: io_instruction_instruction $end
       $var wire 1 #c io_controlSignals_jump $end
       $var wire 1 $) io_controlSignals_branch $end
       $var wire 3 $* io_immType $end
      $upscope $end
    $upscope $end
    $scope module MEM $end
     $var wire 1 ? io_out_memRead $end
     $var wire 1 T DMEM $end
     $var wire 32 [ testHarness_testUpdates_writeAddress $end
     $var wire 1 f io_in_regWrite $end
     $var wire 32 "1 io_in_memData $end
     $var wire 5 "7 io_out_writeAddress $end
     $var wire 32 "< testHarness_DMEMsetup_dataAddress $end
     $var wire 32 "@ io_in_writeData $end
     $var wire 1 "D io_out_regWrite $end
     $var wire 1 "H io_in_memWrite $end
     $var wire 1 #! testHarness_testUpdates_writeEnable $end
     $var wire 32 #& io_out_writeData $end
     $var wire 1 #- testHarness_DMEMsetup_writeEnable $end
     $var wire 32 #9 testHarness_DMEMpeek $end
     $var wire 32 #L io_dmemReadResult $end
     $var wire 1 #\ testHarness_DMEMsetup_setup $end
     $var wire 32 #g testHarness_testUpdates_writeData $end
     $var wire 1 #p clock $end
     $var wire 1 $% io_in_memRead $end
     $var wire 32 $' testHarness_DMEMsetup_dataIn $end
     $var wire 12 $0 io_in_writeAddress $end
      $scope module DMEM $end
       $var wire 32 + testHarness_testUpdates_writeData $end
       $var wire 1 2 _GEN_6 $end
       $var wire 12 < data__T_24_addr_pipe_0 $end
       $var wire 1 N testHarness_testUpdates_writeEnable $end
       $var wire 32 W testHarness_setup_dataAddress $end
       $var wire 12 X io_dataAddress $end
       $var wire 32 ^ testHarness_testUpdates_writeAddress $end
       $var wire 32 y addressSource $end
       $var wire 32 "% data $end
       $var wire 1 "O io_writeEnable $end
       $var wire 1 #" testHarness_setup_writeEnable $end
       $var wire 1 #$ testHarness_setup_setup $end
       $var wire 1 #N clock $end
       $var wire 32 #` testHarness_setup_dataIn $end
       $var wire 32 #m io_dataIn $end
       $var wire 32 #w io_dataOut $end
        $scope module data $end
          $scope module _T_26 $end
           $var wire 1 " clk $end
           $var wire 12 j addr $end
           $var wire 32 z pipeline_data_0 $end
           $var wire 1 "I pipeline_valid_0 $end
           $var wire 32 "X data $end
           $var wire 1 #G en $end
           $var wire 12 #T pipeline_addr_0 $end
           $var wire 1 #d valid $end
           $var wire 1 #{ mask $end
          $upscope $end
          $scope module _T_24 $end
           $var wire 32 M data $end
           $var wire 1 "g clk $end
           $var wire 1 #M en $end
           $var wire 12 #V addr $end
          $upscope $end
        $upscope $end
      $upscope $end
    $upscope $end
    $scope module IFBarrier $end
     $var wire 32 # io_in_instruction_instruction $end
     $var wire 32 J io_out_instruction_instruction $end
     $var wire 1 "o clock $end
     $var wire 32 "p pc $end
     $var wire 32 #8 io_in_pc $end
     $var wire 32 #o io_out_pc $end
     $var wire 1 #r reset $end
    $upscope $end
    $scope module IF $end
     $var wire 1 & testHarness_IMEMsetup_setup $end
     $var wire 1 V IMEM $end
     $var wire 32 _ testHarness_IMEMsetup_instruction $end
     $var wire 1 p io_jump $end
     $var wire 1 "A clock $end
     $var wire 32 "E testHarness_PC $end
     $var wire 1 #2 reset $end
     $var wire 32 #@ _GEN_1 $end
     $var wire 32 #A testHarness_IMEMsetup_address $end
     $var wire 32 #v io_out_pc $end
     $var wire 32 #x io_out_instruction_instruction $end
     $var wire 32 #~ pc $end
     $var wire 32 $+ _GEN_0 $end
      $scope module IMEM $end
       $var wire 32 K testHarness_setupSignals_instruction $end
       $var wire 12 S instructions__T_20_addr_pipe_0 $end
       $var wire 1 "& clock $end
       $var wire 32 "V testHarness_setupSignals_address $end
       $var wire 1 "c _GEN_4 $end
       $var wire 32 "l io_instruction $end
       $var wire 1 #* testHarness_setupSignals_setup $end
       $var wire 32 #U addressSource $end
       $var wire 32 #e testHarness_requestedAddress $end
       $var wire 32 #y io_instructionAddress $end
       $var wire 32 $" instructions $end
        $scope module instructions $end
          $scope module _T_18 $end
           $var wire 1 1 valid $end
           $var wire 1 E mask $end
           $var wire 1 e pipeline_valid_0 $end
           $var wire 12 "4 addr $end
           $var wire 1 ": clk $end
           $var wire 32 "t data $end
           $var wire 12 "z pipeline_addr_0 $end
           $var wire 32 #i pipeline_data_0 $end
           $var wire 1 #} en $end
          $upscope $end
          $scope module _T_20 $end
           $var wire 1 "$ en $end
           $var wire 12 "P addr $end
           $var wire 1 "q clk $end
           $var wire 32 #> data $end
          $upscope $end
        $upscope $end
      $upscope $end
    $upscope $end
    $scope module EX $end
     $var wire 1 ' io_in_regWrite $end
     $var wire 12 P io_in_writeAddress $end
     $var wire 1 k io_out_memWrite $end
     $var wire 1 w io_in_memWrite $end
     $var wire 63 { _GEN_0 $end
     $var wire 32 "8 io_in_op2 $end
     $var wire 32 "J io_in_memData $end
     $var wire 32 "L io_out_memData $end
     $var wire 32 #7 io_in_op1 $end
     $var wire 4 #B io_in_aluOP $end
     $var wire 12 #K io_out_writeAddress $end
     $var wire 1 #^ io_in_memRead $end
     $var wire 1 #_ io_out_memRead $end
     $var wire 32 #f io_out_writeData $end
     $var wire 1 $/ io_out_regWrite $end
    $upscope $end
    $scope module MEMBarrier $end
     $var wire 32 ( regs_writeData $end
     $var wire 5 @ io_out_writeAddress $end
     $var wire 1 c io_out_regWrite $end
     $var wire 32 g io_in_writeData $end
     $var wire 1 i io_in_memRead $end
     $var wire 1 o regs_memRead $end
     $var wire 1 "| io_out_memRead $end
     $var wire 1 #< io_in_regWrite $end
     $var wire 32 #= io_out_writeData $end
     $var wire 5 #Q io_in_writeAddress $end
     $var wire 1 #S regs_regWrite $end
     $var wire 1 #X clock $end
     $var wire 5 #Z regs_writeAddress $end
    $upscope $end
    $scope module EXBarrier $end
     $var wire 1 * regs_regWrite $end
     $var wire 1 6 io_in_regWrite $end
     $var wire 1 Y clock $end
     $var wire 12 n io_in_writeAddress $end
     $var wire 1 q io_out_regWrite $end
     $var wire 32 s io_in_writeData $end
     $var wire 1 | regs_memWrite $end
     $var wire 32 } regs_memData $end
     $var wire 1 "2 io_in_memWrite $end
     $var wire 32 "5 regs_writeData $end
     $var wire 1 "C io_in_memRead $end
     $var wire 1 "^ io_out_memWrite $end
     $var wire 32 "` io_out_memData $end
     $var wire 1 #0 regs_memRead $end
     $var wire 12 #] regs_writeAddress $end
     $var wire 12 #l io_out_writeAddress $end
     $var wire 1 $! io_out_memRead $end
     $var wire 32 $1 io_in_memData $end
     $var wire 32 $3 io_out_writeData $end
    $upscope $end
    $scope module IDBarrier $end
     $var wire 12 . io_in_writeAddress $end
     $var wire 1 / regs_regWrite $end
     $var wire 32 : io_out_memData $end
     $var wire 1 C regs_memRead $end
     $var wire 4 F io_out_aluOP $end
     $var wire 1 G io_in_memWrite $end
     $var wire 32 O regs_op2 $end
     $var wire 32 ` io_in_op2 $end
     $var wire 1 "! regs_memWrite $end
     $var wire 32 "+ io_out_op1 $end
     $var wire 1 "R io_out_memRead $end
     $var wire 32 "S regs_op1 $end
     $var wire 4 "Z regs_aluOP $end
     $var wire 4 "[ io_in_aluOP $end
     $var wire 1 "b io_out_regWrite $end
     $var wire 1 "d io_in_memRead $end
     $var wire 32 "h io_in_op1 $end
     $var wire 32 "} regs_memData $end
     $var wire 1 #) io_in_regWrite $end
     $var wire 12 #3 regs_writeAddress $end
     $var wire 12 #C io_out_writeAddress $end
     $var wire 1 #W io_out_memWrite $end
     $var wire 32 $& io_in_memData $end
     $var wire 32 $( io_out_op2 $end
     $var wire 1 $5 clock $end
    $upscope $end
    $scope module WB $end
     $var wire 5 v io_in_writeAddress $end
     $var wire 32 "# io_out_writeData $end
     $var wire 1 "6 io_out_writeEnable $end
     $var wire 1 "_ io_in_regWrite $end
     $var wire 32 "r io_in_writeData $end
     $var wire 32 #J io_dmemData $end
     $var wire 1 $$ io_in_memRead $end
     $var wire 5 $, io_out_writeAddress $end
    $upscope $end
  $upscope $end
$upscope $end
$enddefinitions $end
$dumpvars
1#{
0o
0$%
0#D
0=
b000000000000 #C
b00000 #P
0#c
b0000 U
b00000000000000000000000000000000 "8
b00000000000000000000000000000000 "#
0#W
0"v
0$4
0#S
0a
b00000 "-
b00000000000000000000000000000000 #w
0#!
0/
b00000000000000000000000000000000 #o
b00000000000000000000000000000000 0
b00000000000000000000000000000000 #=
b00000000000000000000000000000000 "G
b00000000000000000000000000000000 #(
0r
0]
0#2
b00000000000000000000000000000000 #s
b00000000000000000000000000000000 s
b00000 ")
b000000000000 "P
1"$
b00000000000000000000000000000000 #9
b00000000000000000000000000000000 "X
b00000 "n
b00000 #O
0$.
0p
0#E
0"O
0"d
0#0
0>
b00000000000000000000000000000000 #i
0"2
b00000 "j
0#^
b00000 $,
b00000 #.
0"K
b000000000000 #]
0#,
0#$
b00000000000000000000000000000000 #e
0"C
b00000000000000000000000000000000 3
b00000000000000000000000000000000 #H
b00000000000000000000000000000000 "5
b000000000000 n
b000000000000 <
b00000000000000000000000000000000 #v
0"?
b00000000000000000000000000000000 "1
b000000000000 j
0?
b00000 #Z
0"o
b00000000000000000000000000000000 #8
b00000000000000000000000000000000 _
0"=
b00000 "*
b00000000000000000000000000000000 "%
b000000000000 $0
b00000 "u
b00000000000000000000000000000000 #f
0#a
0$-
b00000000000000000000000000000000 "S
0Z
0#/
0"N
b00000000000000000000000000000000 [
0k
0$!
0"_
0N
b00000000000000000000000000000000 #y
0#_
0"~
b00000000000000000000000000000000 "Q
b00000000000000000000000000000000 "f
b00000000000000000000000000000000 $(
b00 ";
b000000000000 X
0|
b0000 "[
0-
0#p
b00000000000000000000000000000000 "w
b00000 #+
b00000000000000000000000000000000 #&
b00000000000000000000000000000000 "E
b00000000000000000000000000000000 M
b00000000000000000000000000000000 #?
b00000 #'
b00000000000000000000000000000000 ^
0Y
0"M
0'
b00000000000000000000000000000000 $3
b00000000000000000000000000000000 #g
b00000000000000000000000000000000 #J
b00000000000000000000000000000000 "T
b00000000000000000000000000000000 $+
b00000000000000000000000000000000 ""
0"{
0#\
0"I
b000000000000 "z
0#*
b00000000000000000000000000000000 #x
b00000 #h
1"c
b00000000000000000000000000000000 $'
b00000000000000000000000000000000 #1
b00000 "U
b0000 "Z
0"y
b00000000000000000000000000000000 ~
0"q
0"\
b00000000000000000000000000000000 L
b000000000000 S
1">
0#k
b00000000000000000000000000000000 z
0#N
0$/
b00000000000000000000000000000000 H
b00000 "(
0"&
0G
0*
b00000000000000000000000000000000 "t
b00000000000000000000000000000000 #U
b00000000000000000000000000000000 #@
b00000000000000000000000000000000 +
b00000000000000000000000000000000 ##
b00000000000000000000000000000000 "B
0C
0#-
0&
b00000000000000000000000000000000 $2
b00000000000000000000000000000000 "p
b00000 v
0#z
b00000 "i
b00000 #5
0$)
b00000000000000000000000000000000 l
0V
b00000000000000000000000000000000 $&
0"g
b00000000000000000000000000000000 O
b00000000000000000000000000000000 :
0"|
b00000 "7
0#n
0#Y
b00000000000000000000000000000000 #A
b00000000000000000000000000000000 }
b00000000000000000000000000000000 $"
0#<
b00000 "3
0"x
b00000000000000000000000000000000 K
b00000 @
b00000000000000000000000000000000 #`
b00000000000000000000000000000000 `
b00000000000000000000000000000000 h
05
b00000000000000000000000000000000 ".
b00000000000000000000000000000000 "`
0":
b00000000000000000000000000000000 #q
0)
b000000000000 P
b0000 #4
0#}
0%
b00000000000000000000000000000000 $1
0#6
b00000000000000000000000000000000 (
06
b00000 #Q
b00000000000000000000000000000000 #L
0!
0#d
0#G
b00000000000000000000000000000000 "k
b00000000000000000000000000000000 "9
b00000000000000000000000000000000 9
b000000000000000000000000000000000000000000000000000000000000000 {
0#X
0f
12
b000000000000 #l
0Q
0I
b00000000000000000000000000000000 #t
b00000000000000000000000000000000 J
04
b00000000000000000000000000000000 $#
b00000000000000000000000000000000 "L
0w
0b
b000000000000 #K
b00000000000000000000000000000000 #[
b00000000000000000000000000000000 "r
b00000000000000000000000000000000 #>
b00000000000000000000000000000000 "]
b00000000000000000000000000000000 "@
b00000000000000000000000000000000 "+
0u
b00000000000000000000000000000000 "<
b00000 ",
b00000000000000000000000000000000 "'
b00000000000000000000000000000000 D
b000000000000 .
0q
0"e
0#F
0i
0T
0"H
0#)
b00000000000000000000000000000000 8
b00000000000000000000000000000000 #
b00000 #R
0"
b00000000000000000000000000000000 "l
b00000000000000000000000000000000 #b
0"a
b0000 #B
0e
0#%
0"D
b000000000000 #V
0"/
b00000000000000000000000000000000 "}
b00000000000000000000000000000000 "h
b000000000000 R
b000 $*
0#r
0#j
b00000000000000000000000000000000 y
0c
0"W
b00000000000000000000000000000000 d
b000000000000 #T
b00000000000000000000000000000000 \
01
b00 "m
0t
0#I
0B
0"6
0"!
b00000000000000000000000000000000 #m
b000000000000 #3
b00000000000000000000000000000000 #;
b00000000000000000000000000000000 #~
b00000000000000000000000000000000 7
b00000000000000000000000000000000 #7
b00000000000000000000000000000000 "V
1E
0#u
0"b
b00000000000000000000000000000000 "J
0$$
b00000000000000000000000000000000 g
b00000000000000000000000000000000 #|
0"0
b00000 m
b00000 ;
0$5
0"s
b00000000000000000000000000000000 "F
b00000000000000000000000000000000 x
b0000 F
0"A
0"^
0#"
1#M
0"R
b00000000000000000000000000000000 W
0A
0,
0$
b00000000000000000000000000000000 "Y
b00000000000000000000000000000000 #:
b000000000000 "4
$end
#0
1#r
b1111 #4
b00000000000000000000000000000100 #@
b1111 U
1$.
1#a
1#2
b1111 "[
b00000000000000000000000000000100 $+
#1
1"&
1"e
1#p
1"q
1":
1t
1"v
1Y
b1111 #B
b1111 F
1#X
1"o
1$5
1"g
b1111 "Z
1#z
1"~
1"
1"A
1A
1#N
1>
#6
0"&
0":
0#X
0t
0"g
0"v
0A
0#N
0"
0#z
0$5
0"e
0"A
0"o
0Y
0#p
0"q
0"~
0>
#11
1"&
1"e
1#p
1"q
1":
1t
1"v
1Y
1#X
1"o
1$5
1"g
1#z
1"~
1"
1"A
1A
1#N
1>
#16
0"&
0":
0#X
0t
0"g
0"v
0A
0#N
0"
0#z
0$5
0"e
0"A
0"o
0Y
0#p
0"q
0"~
0>
#21
1"&
1"e
1#p
1"q
1":
1t
1"v
1Y
1#X
1"o
1$5
1"g
1#z
1"~
1"
1"A
1A
1#N
1>
#26
0"&
0":
0#X
0t
0"g
0"v
0A
0#N
0"
0#z
0$5
0"e
0"A
0"o
0Y
0#p
0"q
0"~
0>
#31
1"&
1"e
1#p
1"q
1":
1t
1"v
1Y
1#X
1"o
1$5
1"g
1#z
1"~
1"
1"A
1A
1#N
1>
#36
0"&
0":
0#X
0t
0"g
0"v
0A
0#N
0"
0#z
0$5
0"e
0"A
0"o
0Y
0#p
0"q
0"~
0>
#41
1"&
1"e
1#p
1"q
1":
1t
1"v
1Y
1#X
1"o
1$5
1"g
1#z
1"~
1"
1"A
1A
1#N
1>
#46
0":
1"{
b0000 "[
0#a
0t
0#r
b00000000010000000000000010010011 #;
1#*
0A
0#N
1#$
b00000000000000000000000000000000 #@
1"a
0#z
0$5
0"e
b00000000010000000000000010010011 _
0"A
0"o
b00000000000000000000000000010011 #x
1&
1#)
0Y
0#p
b00000000010000000000000010010011 "t
0"q
0"~
0>
1#}
b00000000010000000000000010010011 9
1"s
0"&
1"N
b0000 #4
0#X
11
0"g
0"v
0#2
b00000000000000000000000000010011 #:
1"/
b00000000000000000000000000010011 J
1,
0$.
0"
1#,
b0000 U
b00000000000000000000000000010011 "w
1#n
1#\
b00000000000000000000000000010011 #
b00000000010000000000000010010011 K
1#j
#51
1t
1"v
1/
1Y
b0000 #B
1#X
1$5
1"b
b0000 "Z
1"~
1e
1"A
1>
1"&
b00000000010000000000000010010011 #i
1"e
1#p
1"q
1":
b00000000010000000000000010010011 #>
b0000 F
b00000000010000000000000010010011 "l
1"o
1"g
1#z
1"
1A
1'
1#N
#56
0":
b00000000000000000000000000000100 3
0t
b00000000000000000000000000010011 "t
b00000000000000000000000000010011 #;
0A
0#N
0#z
0$5
0"e
0"A
0"o
0Y
0#p
0"q
0"~
b00000000000000000000000000000100 L
0>
0"&
0#X
0"g
0"v
b00000000000000000000000000010011 _
b00000000000000000000000000010011 K
b00000000000000000000000000000100 "V
b000000000100 "4
0"
b00000000000000000000000000000100 #U
b00000000000000000000000000000100 #A
b00000000000000000000000000010011 9
#61
1"&
1"e
1#p
1"q
1":
1t
b000000000100 S
1"v
b00000000000000000000000000010011 "l
1Y
1#X
1"o
b000000000100 "z
1$5
1"g
b00000000000000000000000000010011 #>
1"~
1#z
1"
1"A
1A
1#N
1>
b000000000100 "P
b00000000000000000000000000010011 #i
#66
0"&
b00000000000000000000000000001000 "V
0":
0#X
0t
0"g
0"v
0A
0#N
0"
b000000001000 "4
0#z
0$5
b00000000000000000000000000001000 L
0"e
0"A
0"o
0Y
0#p
0"q
0"~
0>
b00000000000000000000000000001000 3
b00000000000000000000000000001000 #U
b00000000000000000000000000001000 #A
#71
1"&
b000000001000 "P
1"e
1#p
1"q
1":
1t
1"v
1Y
b000000001000 "z
1#X
1"o
1$5
b000000001000 S
1"g
1#z
1"~
1"
1"A
1A
1#N
1>
#76
0"&
0":
0#X
b00000000000000000000000000001100 #A
0t
b00000000000000000000000000001100 #U
0"g
b000000001100 "4
0"v
0A
0#N
0"
0#z
0$5
b00000000000000000000000000001100 L
0"e
0"A
0"o
b00000000000000000000000000001100 "V
0Y
0#p
b00000000000000000000000000001100 3
0"q
0"~
0>
#81
1"&
1"e
1#p
1"q
1":
1t
1"v
b000000001100 S
1Y
b000000001100 "P
b000000001100 "z
1#X
1"o
1$5
1"g
1#z
1"~
1"
1"A
1A
1#N
1>
#86
b00000000000000000000000000010000 L
0"&
0":
0#X
b00000000000000000000000000010000 "V
b00000000000000000000000000010000 #U
0t
0"g
0"v
0A
0#N
b00000000000000000000000000010000 3
b00000000000000000000000000010000 #A
0"
0#z
0$5
0"e
0"A
0"o
0Y
0#p
0"q
0"~
0>
b000000010000 "4
#91
1"&
1"e
1#p
1"q
1":
1t
1"v
b000000010000 "z
1Y
b000000010000 "P
1#X
1"o
1$5
1"g
1#z
1"~
b000000010000 S
1"
1"A
1#N
1A
1>
#96
0":
b00000000010000000000000100010011 _
b00000000000000000000000000010100 #U
0t
0A
0#N
b00000000000000000000000000010100 #A
b000000010100 "4
b00000000010000000000000100010011 K
0#z
0$5
b00000000000000000000000000010100 "V
0"e
0"A
0"o
0Y
0#p
0"q
0"~
b00000000010000000000000100010011 #;
0>
0"&
b00000000000000000000000000010100 3
0#X
b00000000010000000000000100010011 9
0"g
0"v
0"
b00000000010000000000000100010011 "t
b00000000000000000000000000010100 L
#101
1"&
1"e
1#p
1"q
b000000010100 "z
1":
1t
b00000000010000000000000100010011 "l
1"v
1Y
b000000010100 S
b00000000010000000000000100010011 #i
1#X
b00000000010000000000000100010011 #>
1"o
1$5
b000000010100 "P
1"g
1#z
1"~
1"
1"A
1A
1#N
1>
#106
0":
b00000000000000000000000000011000 #A
0t
b00000000000000000000000000011000 "V
b00000000000000000000000000010011 "t
b00000000000000000000000000010011 #;
b000000011000 "4
0A
0#N
0#z
0$5
0"e
0"A
0"o
b00000000000000000000000000011000 #U
0Y
0#p
0"q
0"~
b00000000000000000000000000011000 L
0>
0"&
0#X
0"g
0"v
b00000000000000000000000000010011 _
b00000000000000000000000000010011 K
0"
b00000000000000000000000000011000 3
b00000000000000000000000000010011 9
#111
1"&
1"e
b000000011000 "z
1#p
1":
1"q
1t
b000000011000 S
b000000011000 "P
1"v
b00000000000000000000000000010011 "l
1Y
1#X
1"o
1$5
1"g
b00000000000000000000000000010011 #>
1"~
1#z
1"
1"A
1A
1#N
1>
b00000000000000000000000000010011 #i
#116
0"&
b000000011100 "4
0":
0#X
b00000000000000000000000000011100 3
0t
b00000000000000000000000000011100 #A
0"g
0"v
b00000000000000000000000000011100 "V
0A
0#N
0"
0#z
0$5
0"e
0"A
0"o
0Y
0#p
0"q
0"~
0>
b00000000000000000000000000011100 #U
b00000000000000000000000000011100 L
#121
b000000011100 "z
1"&
1"e
1#p
1"q
1":
1t
1"v
b000000011100 "P
1Y
1#X
1"o
1$5
b000000011100 S
1"g
1#z
1"~
1"
1"A
1A
1#N
1>
#126
0"&
0":
0#X
0t
0"g
b00000000000000000000000000100000 "V
0"v
b00000000000000000000000000100000 3
0A
b00000000000000000000000000100000 #U
0#N
0"
0#z
0$5
0"e
0"A
0"o
b00000000000000000000000000100000 #A
0Y
0#p
0"q
0"~
0>
b000000100000 "4
b00000000000000000000000000100000 L
#131
1"&
1"e
1#p
1"q
1":
1t
1"v
b000000100000 S
1Y
b000000100000 "P
1#X
b000000100000 "z
1"o
1$5
1"g
1#z
1"~
1"
1"A
1A
1#N
1>
#136
0"&
0":
b00000000000000000000000000100100 #A
0#X
b00000000000000000000000000100100 "V
0t
0"g
0"v
0A
0#N
b00000000000000000000000000100100 #U
0"
0#z
0$5
b000000100100 "4
0"e
0"A
b00000000000000000000000000100100 3
0"o
0Y
0#p
0"q
0"~
0>
b00000000000000000000000000100100 L
#141
1"&
b000000100100 S
1"e
b000000100100 "z
1#p
1":
1"q
1t
1"v
1Y
1#X
1"o
b000000100100 "P
1$5
1"g
1#z
1"~
1"
1"A
1A
1#N
1>
#146
0":
b00000000010000000000000110010011 "t
0t
0A
0#N
0#z
0$5
b00000000000000000000000000101000 "V
0"e
0"A
0"o
0Y
0#p
0"q
0"~
b00000000010000000000000110010011 9
b00000000000000000000000000101000 #U
0>
b00000000010000000000000110010011 _
0"&
b00000000000000000000000000101000 3
0#X
0"g
0"v
b00000000000000000000000000101000 L
b00000000010000000000000110010011 #;
0"
b00000000010000000000000110010011 K
b00000000000000000000000000101000 #A
b000000101000 "4
#151
1"&
b000000101000 S
b000000101000 "z
b00000000010000000000000110010011 #i
1"e
1#p
b000000101000 "P
1":
1"q
1t
1"v
1Y
1#X
b00000000010000000000000110010011 "l
1$5
1"o
1"g
b00000000010000000000000110010011 #>
1#z
1"~
1"
1"A
1A
1#N
1>
#156
0":
0t
b00000000000000000000000000010011 "t
b00000000000000000000000000010011 #;
b00000000000000000000000000101100 "V
0A
b00000000000000000000000000101100 L
0#N
b00000000000000000000000000101100 #A
0#z
0$5
0"e
0"A
0"o
0Y
0#p
0"q
0"~
0>
0"&
0#X
b000000101100 "4
0"g
0"v
b00000000000000000000000000010011 _
b00000000000000000000000000010011 K
0"
b00000000000000000000000000101100 #U
b00000000000000000000000000101100 3
b00000000000000000000000000010011 9
#161
1"&
1"e
1#p
1"q
1":
1t
1"v
b000000101100 "z
b00000000000000000000000000010011 "l
1Y
b000000101100 S
1#X
1"o
1$5
1"g
b000000101100 "P
b00000000000000000000000000010011 #>
1"~
1#z
1"
1"A
1A
1#N
1>
b00000000000000000000000000010011 #i
#166
0"&
0":
0#X
0t
b00000000000000000000000000110000 L
0"g
0"v
0A
b00000000000000000000000000110000 "V
0#N
b00000000000000000000000000110000 #U
0"
b00000000000000000000000000110000 #A
0#z
0$5
b000000110000 "4
b00000000000000000000000000110000 3
0"e
0"A
0"o
0Y
0#p
0"q
0"~
0>
#171
1"&
1"e
1#p
1"q
1":
1t
1"v
1Y
1#X
1"o
1$5
1"g
1#z
1"~
b000000110000 S
1"
b000000110000 "z
1"A
1#N
1A
1>
b000000110000 "P
