waveforms/load.s.vcd
$date
2022-10-04T13:07+0000
$end
$version
0.2
$end
$comment

$end
$timescale 1ns  $end
$scope module Tile $end
 $var wire 1 4 io_regsWriteEnable $end
 $var wire 32 7 io_regsReadData $end
 $var wire 32 E io_IMEMAddress $end
 $var wire 1 R io_regsDeviceWriteEnable $end
 $var wire 32 o io_DMEMAddress $end
 $var wire 32 "1 io_DMEMWriteData $end
 $var wire 1 "4 CPU $end
 $var wire 32 "8 io_regsDeviceWriteData $end
 $var wire 5 "; io_regsDeviceWriteAddress $end
 $var wire 1 "I clock $end
 $var wire 32 "O io_currentPC $end
 $var wire 5 "Q io_regsAddress $end
 $var wire 1 "b io_DMEMWriteEnable $end
 $var wire 32 "e io_memDeviceWriteAddress $end
 $var wire 32 "w io_IMEMWriteData $end
 $var wire 32 "{ io_memDeviceWriteData $end
 $var wire 32 #4 io_DMEMReadData $end
 $var wire 1 #8 reset $end
 $var wire 1 #@ io_setup $end
 $var wire 1 #I io_memDeviceWriteEnable $end
 $var wire 32 #^ io_regsWriteData $end
  $scope module CPU.MEMBarrier $end
  $upscope $end
  $scope module CPU.EX $end
  $upscope $end
  $scope module CPU.EXBarrier $end
  $upscope $end
  $scope module CPU.MEM $end
  $upscope $end
  $scope module CPU.WB $end
  $upscope $end
  $scope module CPU.IDBarrier $end
  $upscope $end
  $scope module CPU.ID $end
  $upscope $end
  $scope module CPU.ID.registers $end
  $upscope $end
  $scope module CPU.IFBarrier $end
  $upscope $end
  $scope module CPU.IF $end
  $upscope $end
  $scope module CPU.IF.IMEM $end
  $upscope $end
  $scope module CPU.MEM.DMEM $end
  $upscope $end
  $scope module CPU.ID.Decoder $end
  $upscope $end
  $scope module CPU $end
   $var wire 1 % IDBarrier $end
   $var wire 32 3 testHarness_setupSignals_IMEMsignals_address $end
   $var wire 32 8 testHarness_setupSignals_IMEMsignals_instruction $end
   $var wire 1 B testHarness_regUpdates_writeEnable $end
   $var wire 1 U ID $end
   $var wire 1 h testHarness_memUpdates_writeEnable $end
   $var wire 32 t testHarness_regUpdates_writeData $end
   $var wire 5 v testHarness_regUpdates_writeAddress $end
   $var wire 5 w testHarness_setupSignals_registerSignals_readAddress $end
   $var wire 32 z testHarness_testReadouts_registerRead $end
   $var wire 32 "% testHarness_currentPC $end
   $var wire 1 "* IF $end
   $var wire 32 "2 testHarness_memUpdates_writeAddress $end
   $var wire 1 "5 IFBarrier $end
   $var wire 1 "6 testHarness_setupSignals_DMEMsignals_setup $end
   $var wire 32 "@ testHarness_testReadouts_DMEMread $end
   $var wire 32 "D testHarness_setupSignals_DMEMsignals_dataIn $end
   $var wire 1 "F testHarness_setupSignals_IMEMsignals_setup $end
   $var wire 1 "] clock $end
   $var wire 32 "` testHarness_setupSignals_DMEMsignals_dataAddress $end
   $var wire 1 "i testHarness_setupSignals_registerSignals_setup $end
   $var wire 1 "l MEM $end
   $var wire 1 #! testHarness_setupSignals_registerSignals_writeEnable $end
   $var wire 1 #" WB $end
   $var wire 1 ## EXBarrier $end
   $var wire 1 #2 EX $end
   $var wire 32 #G testHarness_memUpdates_writeData $end
   $var wire 32 #S testHarness_setupSignals_registerSignals_writeData $end
   $var wire 1 #Z reset $end
   $var wire 1 #[ MEMBarrier $end
   $var wire 1 #` testHarness_setupSignals_DMEMsignals_writeEnable $end
    $scope module ID $end
     $var wire 1 ! testHarness_registerSetup_writeEnable $end
     $var wire 32 0 io_out_op2 $end
     $var wire 12 K io_out_writeAddress $end
     $var wire 4 N io_out_aluOP $end
     $var wire 32 T testHarness_registerPeek $end
     $var wire 1 Y io_wbIn_writeEnable $end
     $var wire 32 a io_wbIn_writeData $end
     $var wire 1 e testHarness_testUpdates_writeEnable $end
     $var wire 32 j immediate $end
     $var wire 32 n testHarness_registerSetup_writeData $end
     $var wire 5 u testHarness_testUpdates_writeAddress $end
     $var wire 32 ". io_out_op1 $end
     $var wire 2 "< _GEN_0 $end
     $var wire 5 "N testHarness_registerSetup_readAddress $end
     $var wire 32 "Y io_in_instruction_instruction $end
     $var wire 1 "Z registers $end
     $var wire 1 "\ io_out_regWrite $end
     $var wire 5 "k io_wbIn_writeAddress $end
     $var wire 1 #& Decoder $end
     $var wire 1 #B testHarness_registerSetup_setup $end
     $var wire 32 #E testHarness_testUpdates_writeData $end
     $var wire 1 #N clock $end
     $var wire 32 #P io_in_pc $end
      $scope module registers $end
       $var wire 1 ) testHarness_testUpdates_writeEnable $end
       $var wire 1 , testHarness_setup_setup $end
       $var wire 32 6 testHarness_testUpdates_writeData $end
       $var wire 5 9 readAddress1 $end
       $var wire 1 = clock $end
       $var wire 32 > io_readData1 $end
       $var wire 32 A registerFile $end
       $var wire 1 J testHarness_setup_writeEnable $end
       $var wire 1 Z writeEnable $end
       $var wire 5 b io_readAddress1 $end
       $var wire 5 y testHarness_testUpdates_writeAddress $end
       $var wire 1 "+ io_writeEnable $end
       $var wire 32 ": testHarness_setup_writeData $end
       $var wire 32 "J io_writeData $end
       $var wire 5 "h testHarness_setup_readAddress $end
       $var wire 32 "m io_readData2 $end
       $var wire 5 "q writeAddress $end
       $var wire 5 #* io_writeAddress $end
       $var wire 5 #, io_readAddress2 $end
        $scope module registerFile $end
          $scope module _T_33 $end
           $var wire 1 $ en $end
           $var wire 1 - pipeline_valid_0 $end
           $var wire 1 ; clk $end
           $var wire 5 } pipeline_addr_0 $end
           $var wire 1 ") mask $end
           $var wire 1 "C valid $end
           $var wire 5 "d addr $end
           $var wire 32 #% pipeline_data_0 $end
           $var wire 32 #H data $end
          $upscope $end
          $scope module _T_41 $end
           $var wire 32 \ data $end
           $var wire 1 | en $end
           $var wire 1 "X clk $end
           $var wire 5 #> addr $end
          $upscope $end
          $scope module _T_38 $end
           $var wire 1 g clk $end
           $var wire 1 "> en $end
           $var wire 5 "M addr $end
           $var wire 32 #9 data $end
          $upscope $end
        $upscope $end
      $upscope $end
      $scope module Decoder $end
       $var wire 1 { io_op2Select $end
       $var wire 2 "' decodedControlSignals_6 $end
       $var wire 1 "V io_controlSignals_regWrite $end
       $var wire 4 "o io_ALUop $end
       $var wire 1 "r io_op1Select $end
       $var wire 32 "v io_instruction_instruction $end
       $var wire 3 #W io_immType $end
      $upscope $end
    $upscope $end
    $scope module MEM $end
     $var wire 1 M DMEM $end
     $var wire 32 S testHarness_testUpdates_writeAddress $end
     $var wire 1 ^ io_in_regWrite $end
     $var wire 5 "# io_out_writeAddress $end
     $var wire 32 "( testHarness_DMEMsetup_dataAddress $end
     $var wire 32 ", io_in_writeData $end
     $var wire 1 "/ io_out_regWrite $end
     $var wire 1 "^ testHarness_testUpdates_writeEnable $end
     $var wire 32 "c io_out_writeData $end
     $var wire 1 "j testHarness_DMEMsetup_writeEnable $end
     $var wire 32 "u testHarness_DMEMpeek $end
     $var wire 1 #5 testHarness_DMEMsetup_setup $end
     $var wire 32 #= testHarness_testUpdates_writeData $end
     $var wire 1 #D clock $end
     $var wire 32 #U testHarness_DMEMsetup_dataIn $end
     $var wire 12 #] io_in_writeAddress $end
      $scope module DMEM $end
       $var wire 32 + testHarness_testUpdates_writeData $end
       $var wire 1 2 _GEN_6 $end
       $var wire 12 : data__T_24_addr_pipe_0 $end
       $var wire 1 G testHarness_testUpdates_writeEnable $end
       $var wire 32 P testHarness_setup_dataAddress $end
       $var wire 32 V testHarness_testUpdates_writeAddress $end
       $var wire 32 k addressSource $end
       $var wire 32 r data $end
       $var wire 1 "_ testHarness_setup_writeEnable $end
       $var wire 1 "a testHarness_setup_setup $end
       $var wire 1 #) clock $end
       $var wire 32 #7 testHarness_setup_dataIn $end
       $var wire 32 #K io_dataOut $end
        $scope module data $end
          $scope module _T_26 $end
           $var wire 1 " clk $end
           $var wire 12 ` addr $end
           $var wire 32 l pipeline_data_0 $end
           $var wire 1 "3 pipeline_valid_0 $end
           $var wire 32 "? data $end
           $var wire 1 #$ en $end
           $var wire 12 #. pipeline_addr_0 $end
           $var wire 1 #: valid $end
           $var wire 1 #O mask $end
          $upscope $end
          $scope module _T_24 $end
           $var wire 32 F data $end
           $var wire 1 "K clk $end
           $var wire 1 #( en $end
           $var wire 12 #0 addr $end
          $upscope $end
        $upscope $end
      $upscope $end
    $upscope $end
    $scope module IFBarrier $end
     $var wire 32 # io_in_instruction_instruction $end
     $var wire 32 C io_out_instruction_instruction $end
     $var wire 1 "R clock $end
     $var wire 32 "S pc $end
     $var wire 32 "t io_in_pc $end
     $var wire 32 #C io_out_pc $end
     $var wire 1 #F reset $end
    $upscope $end
    $scope module IF $end
     $var wire 1 & testHarness_IMEMsetup_setup $end
     $var wire 1 O IMEM $end
     $var wire 32 X testHarness_IMEMsetup_instruction $end
     $var wire 1 "- clock $end
     $var wire 32 "0 testHarness_PC $end
     $var wire 1 "n reset $end
     $var wire 32 "| testHarness_IMEMsetup_address $end
     $var wire 32 #J io_out_pc $end
     $var wire 32 #L io_out_instruction_instruction $end
     $var wire 32 #R pc $end
     $var wire 32 #X _GEN_0 $end
      $scope module IMEM $end
       $var wire 32 D testHarness_setupSignals_instruction $end
       $var wire 12 L instructions__T_20_addr_pipe_0 $end
       $var wire 1 s clock $end
       $var wire 32 "= testHarness_setupSignals_address $end
       $var wire 1 "H _GEN_4 $end
       $var wire 32 "P io_instruction $end
       $var wire 1 "g testHarness_setupSignals_setup $end
       $var wire 32 #/ addressSource $end
       $var wire 32 #; testHarness_requestedAddress $end
       $var wire 32 #M io_instructionAddress $end
       $var wire 32 #T instructions $end
        $scope module instructions $end
          $scope module _T_18 $end
           $var wire 1 1 valid $end
           $var wire 1 ? mask $end
           $var wire 1 ] pipeline_valid_0 $end
           $var wire 12 "! addr $end
           $var wire 1 "& clk $end
           $var wire 32 "W data $end
           $var wire 12 "[ pipeline_addr_0 $end
           $var wire 32 #? pipeline_data_0 $end
           $var wire 1 #Q en $end
          $upscope $end
          $scope module _T_20 $end
           $var wire 1 q en $end
           $var wire 12 "7 addr $end
           $var wire 1 "T clk $end
           $var wire 32 "z data $end
          $upscope $end
        $upscope $end
      $upscope $end
    $upscope $end
    $scope module EX $end
     $var wire 1 ' io_in_regWrite $end
     $var wire 12 I io_in_writeAddress $end
     $var wire 63 m _GEN_0 $end
     $var wire 32 "$ io_in_op2 $end
     $var wire 32 "s io_in_op1 $end
     $var wire 4 "} io_in_aluOP $end
     $var wire 12 #' io_out_writeAddress $end
     $var wire 32 #< io_out_writeData $end
     $var wire 1 #\ io_out_regWrite $end
    $upscope $end
    $scope module MEMBarrier $end
     $var wire 32 ( regs_writeData $end
     $var wire 5 < io_out_writeAddress $end
     $var wire 1 [ io_out_regWrite $end
     $var wire 32 _ io_in_writeData $end
     $var wire 1 "x io_in_regWrite $end
     $var wire 32 "y io_out_writeData $end
     $var wire 5 #+ io_in_writeAddress $end
     $var wire 1 #- regs_regWrite $end
     $var wire 1 #1 clock $end
     $var wire 5 #3 regs_writeAddress $end
    $upscope $end
    $scope module EXBarrier $end
     $var wire 1 * regs_regWrite $end
     $var wire 1 5 io_in_regWrite $end
     $var wire 1 Q clock $end
     $var wire 12 c io_in_writeAddress $end
     $var wire 1 d io_out_regWrite $end
     $var wire 32 f io_in_writeData $end
     $var wire 32 ~ regs_writeData $end
     $var wire 12 #6 regs_writeAddress $end
     $var wire 12 #A io_out_writeAddress $end
     $var wire 32 #_ io_out_writeData $end
    $upscope $end
    $scope module IDBarrier $end
     $var wire 12 . io_in_writeAddress $end
     $var wire 1 / regs_regWrite $end
     $var wire 4 @ io_out_aluOP $end
     $var wire 32 H regs_op2 $end
     $var wire 32 W io_in_op2 $end
     $var wire 32 x io_out_op1 $end
     $var wire 32 "9 regs_op1 $end
     $var wire 4 "A regs_aluOP $end
     $var wire 4 "B io_in_aluOP $end
     $var wire 1 "G io_out_regWrite $end
     $var wire 32 "L io_in_op1 $end
     $var wire 1 "f io_in_regWrite $end
     $var wire 12 "p regs_writeAddress $end
     $var wire 12 "~ io_out_writeAddress $end
     $var wire 32 #V io_out_op2 $end
     $var wire 1 #a clock $end
    $upscope $end
    $scope module WB $end
     $var wire 5 i io_in_writeAddress $end
     $var wire 32 p io_out_writeData $end
     $var wire 1 "" io_out_writeEnable $end
     $var wire 1 "E io_in_regWrite $end
     $var wire 32 "U io_in_writeData $end
     $var wire 5 #Y io_out_writeAddress $end
    $upscope $end
  $upscope $end
$upscope $end
$enddefinitions $end
$dumpvars
b000000000000 K
0#D
0R
0=
b00000000000000000000000000000000 #K
b00000000000000000000000000000000 "U
b00000000000000000000000000000000 r
0#1
b00000000000000000000000000000000 "8
b0000 @
b0000 "B
0"r
0#!
b00000000000000000000000000000000 E
b00000000000000000000000000000000 0
b00000000000000000000000000000000 "y
0/
b00000000000000000000000000000000 #=
0"n
0]
0#2
b00000000000000000000000000000000 A
b00000000000000000000000000000000 "u
b00000000000000000000000000000000 #V
b00000000000000000000000000000000 #9
0"l
b00000000000000000000000000000000 T
b0000 "}
b00000 "M
0"K
b00000 y
b00000000000000000000000000000000 P
0"C
0#$
b000000000000 #]
b00000000000000000000000000000000 3
0O
b00000000000000000000000000000000 #H
b000000000000 "p
0"*
b000000000000 "[
b00000000000000000000000000000000 "c
b00000000000000000000000000000000 "1
b00000 i
b000000000000 #0
b00000000000000000000000000000000 "W
b00000000000000000000000000000000 t
b00000000000000000000000000000000 _
b00000000000000000000000000000000 "%
b00000000000000000000000000000000 "v
0;
0#a
b00000000000000000000000000000000 "S
b00000000000000000000000000000000 p
0Z
b00000 ";
b00000000000000000000000000000000 #4
b00000000000000000000000000000000 S
b00000000000000000000000000000000 >
b000000000000 #.
0"_
0#@
0"-
1#(
b00000 "k
b00000000000000000000000000000000 #G
0|
0J
0-
b00000000000000000000000000000000 "w
b00000000000000000000000000000000 #C
b00000000000000000000000000000000 #X
0#[
b00000 #+
0"]
b00000000000000000000000000000000 "0
0"+
b00000000000000000000000000000000 "(
b00000000000000000000000000000000 #?
0#:
b00000000000000000000000000000000 ",
b00000000000000000000000000000000 "$
0#`
b00000000000000000000000000000000 o
0Y
b000000000000 "~
0'
b00000000000000000000000000000000 #R
b000000000000 "7
b00000000000000000000000000000000 #J
b00000000000000000000000000000000 "?
0#\
0U
b0000 N
b00000 w
0M
b00000 b
0"I
b00000000000000000000000000000000 "m
b00000000000000000000000000000000 "e
b00000000000000000000000000000000 "P
b00000 "#
b000000000000 :
b00 "<
b00 "'
0#Z
b00000000000000000000000000000000 ~
0h
b00000 #*
0"G
b00000 u
0"\
b00000000000000000000000000000000 a
b000 #W
b00000000000000000000000000000000 z
0#N
0"X
0G
b00000000000000000000000000000000 H
0"&
0*
b00000000000000000000000000000000 #U
b00000000000000000000000000000000 "t
b00000000000000000000000000000000 +
b000000000000000000000000000000000000000000000000000000000000000 m
b000000000000 I
b00000000000000000000000000000000 n
0#-
0""
0&
b00000 v
b00000000000000000000000000000000 #E
0"g
b00000000000000000000000000000000 l
b00000000000000000000000000000000 "2
0"x
b00000000000000000000000000000000 "`
0g
0"F
b00000000000000000000000000000000 ".
b00000000000000000000000000000000 6
05
0[
b00000 #Y
b00000000000000000000000000000000 #T
0)
b00000000000000000000000000000000 "s
0%
b00000000000000000000000000000000 #P
0"j
b00000000000000000000000000000000 "=
b00000000000000000000000000000000 (
b000000000000 c
0!
b00000000000000000000000000000000 #L
b000000000000 #'
0"f
b00000000000000000000000000000000 #/
b00000000000000000000000000000000 "9
b00000000000000000000000000000000 V
b00000000000000000000000000000000 k
0"4
0{
12
0Q
0"Z
0#&
04
b00000000000000000000000000000000 #_
0"E
b00000 "Q
b00000000000000000000000000000000 "L
b00000000000000000000000000000000 #%
b00000000000000000000000000000000 "D
0"V
b0000 "A
b00000000000000000000000000000000 "z
b000000000000 #6
1")
b00000000000000000000000000000000 #S
b00000000000000000000000000000000 "@
0"i
1#O
0#5
0"T
b00000000000000000000000000000000 D
b000000000000 `
b000000000000 .
b00000 #3
0#F
b00000000000000000000000000000000 j
0#)
0"3
b00000000000000000000000000000000 8
b00000 "q
b00000000000000000000000000000000 #
0"
b00000000000000000000000000000000 #M
b00000000000000000000000000000000 "O
b00000000000000000000000000000000 ":
b00000 "N
0"a
b00000000000000000000000000000000 f
0#B
0e
0"/
b000000000000 #A
b00000000000000000000000000000000 #^
b00000 <
0#8
0##
b00000000000000000000000000000000 \
01
b00000000000000000000000000000000 "{
b00000 #>
0#Q
0#I
0">
b00000000000000000000000000000000 X
b00000000000000000000000000000000 C
0"6
0B
b00000000000000000000000000000000 #;
b000000000000 L
b00000 }
b00000000000000000000000000000000 7
b00000000000000000000000000000000 #7
0d
1"H
b00000000000000000000000000000000 "|
b00000 "d
0"b
b00000000000000000000000000000000 "J
b00000 "h
b00000000000000000000000000000000 #<
b00000000000000000000000000000000 x
b000000000000 "!
b00000 #,
0#"
0"^
b00000000000000000000000000000000 F
1q
b0000 "o
0s
0^
0"R
1?
b00000000000000000000000000000000 W
0,
0"5
0$
b00000 9
b00000000000000000000000000000000 "Y
$end
#0
b1111 "o
1"n
b1111 "B
1#Z
1#F
b1111 N
1#8
b00000000000000000000000000000100 #X
#1
1Q
b1111 @
1"I
1"]
1#N
1"&
1"K
b1111 "}
1"T
1"-
1#D
1s
1=
1#1
1g
1"
1"R
1"X
1#a
1;
b1111 "A
1#)
#6
0;
0"T
0s
0Q
0"K
0=
0#a
0#)
0"-
0#D
0"]
0g
0"X
0#N
0"I
0"R
0"&
0"
0#1
#11
1Q
1"I
1"]
1#N
1"&
1"K
1"T
1"-
1#D
1s
1=
1#1
1g
1"
1"R
1"X
1#a
1;
1#)
#16
0;
0"T
0s
0Q
0"K
0=
0#a
0#)
0"-
0#D
0"]
0g
0"X
0#N
0"I
0"R
0"&
0"
0#1
#21
1Q
1"I
1"]
1#N
1"&
1"K
1"T
1"-
1#D
1s
1=
1#1
1g
1"
1"R
1"X
1#a
1;
1#)
#26
0;
0"T
0s
0Q
0"K
0=
0#a
0#)
0"-
0#D
0"]
0g
0"X
0#N
0"I
0"R
0"&
0"
0#1
#31
1Q
1"I
1"]
1#N
1"&
1"K
1"T
1"-
1#D
1s
1=
1#1
1g
1"
1"R
1"X
1#a
1;
1#)
#36
0;
0"T
0s
0Q
0"K
0=
0#a
0#)
0"-
0#D
0"]
0g
0"X
0#N
0"I
0"R
0"&
0"
0#1
#41
1Q
1"I
1"]
1#N
1"&
1"K
1"T
1"-
1#D
1s
1=
1#1
1g
1"
1"R
1"X
1#a
1;
1#)
#46
0;
0Q
b00000000010000000000000010010011 8
1#B
0#a
11
b00000000010000000000000010010011 D
0#8
0"]
1#5
b00000000000000000000000000010011 #
b0000 "o
0g
0"X
1"\
b00000000000000000000000000000000 #X
0#N
0"I
0"R
1#@
0#F
b00000000000000000000000000010011 C
0"
b00000000000000000000000000010011 "Y
1"g
0"T
1"6
0s
1"i
0"K
b00000000010000000000000010010011 "W
0=
1,
1&
1{
0#)
1"F
0"-
b0000 "B
b0000 N
0#D
b00000000000000000000000000010011 #L
0#Z
b00000000000000000000000000010011 "v
0"n
1#Q
1"a
0"&
b00000000010000000000000010010011 X
1"f
0#1
1"V
b00000000010000000000000010010011 "w
#51
1"I
1"]
b0000 "A
1"-
1#D
1]
1=
b00000000010000000000000010010011 "P
b0000 @
1g
1/
1"
1"G
1"R
1;
1Q
1#N
1"&
1'
1"K
1"T
1s
b0000 "}
1#1
b00000000010000000000000010010011 "z
b00000000010000000000000010010011 #?
1"X
1#a
1#)
#56
0;
0Q
b00000000000000000000000000000100 E
b00000000000000000000000000010011 X
b00000000000000000000000000010011 8
0#a
b00000000000000000000000000000100 "=
0"]
b00000000000000000000000000000100 "|
0g
0"X
b00000000000000000000000000010011 D
0#N
0"I
0"R
0"
0"T
0s
0"K
0=
0#)
b000000000100 "!
0"-
b00000000000000000000000000000100 #/
0#D
b00000000000000000000000000010011 "w
b00000000000000000000000000000100 3
b00000000000000000000000000010011 "W
0"&
0#1
#61
b00000000000000000000000000010011 "z
1Q
1"I
1"]
1#N
1"&
1"K
b000000000100 L
b00000000000000000000000000010011 #?
1"-
1"T
1#D
1s
b00000000000000000000000000010011 "P
1=
1#1
b000000000100 "7
1g
1"
1"R
1"X
1#a
1;
1#)
b000000000100 "[
#66
0;
0"T
0s
0Q
0"K
0=
0#a
0#)
b00000000000000000000000000001000 3
0"-
0#D
0"]
b000000001000 "!
b00000000000000000000000000001000 "=
0g
0"X
b00000000000000000000000000001000 "|
0#N
0"I
0"R
b00000000000000000000000000001000 #/
b00000000000000000000000000001000 E
0"&
0"
0#1
#71
1Q
1"I
1"]
1#N
1"&
1"K
b000000001000 L
1"T
b000000001000 "[
1"-
1#D
1s
1=
1#1
1g
1"
1"R
1"X
1#a
1;
1#)
b000000001000 "7
#76
0;
0"T
0s
0Q
b00000000000000000000000000001100 "=
0"K
0=
0#a
0#)
b00000000000000000000000000001100 E
b00000000000000000000000000001100 "|
0"-
0#D
0"]
b000000001100 "!
0g
b00000000000000000000000000001100 #/
0"X
b00000000000000000000000000001100 3
0#N
0"I
0"R
0"&
0"
0#1
#81
1Q
1"I
1"]
1#N
1"&
b000000001100 L
1"K
1"T
1"-
b000000001100 "7
b000000001100 "[
1#D
1s
1=
1#1
1g
1"
1"R
1"X
1#a
1;
1#)
#86
0;
0"T
0s
0Q
0"K
b00000000000000000000000000010000 "=
0=
0#a
0#)
0"-
b00000000000000000000000000010000 "|
0#D
0"]
b00000000000000000000000000010000 #/
0g
0"X
0#N
0"I
0"R
b00000000000000000000000000010000 E
b000000010000 "!
b00000000000000000000000000010000 3
0"&
0"
0#1
#91
1Q
1"I
b000000010000 "[
1"]
1#N
1"&
1"K
1"T
1"-
b000000010000 "7
1#D
1s
1=
1#1
1g
1"
b000000010000 L
1"R
1"X
1#a
1;
1#)
#96
0;
0Q
b00000000000000000000000000010100 E
b00000000000000000000000000010100 3
0#a
b00000000000000000000000000010100 #/
0"]
b00000000010000000000000100010011 8
b00000000010000000000000100010011 X
0g
0"X
0#N
0"I
0"R
0"
0"T
0s
0"K
0=
b00000000000000000000000000010100 "=
0#)
0"-
0#D
b00000000010000000000000100010011 "W
b000000010100 "!
b00000000000000000000000000010100 "|
b00000000010000000000000100010011 "w
0"&
b00000000010000000000000100010011 D
0#1
#101
b00000000010000000000000100010011 "P
1Q
b00000000010000000000000100010011 #?
1"I
1"]
1#N
1"&
b000000010100 "[
1"K
b00000000010000000000000100010011 "z
b000000010100 "7
1"T
1"-
1#D
1s
1=
1#1
1g
1"
1"R
1"X
1#a
b000000010100 L
1;
1#)
#106
0;
0Q
b00000000000000000000000000010011 X
b00000000000000000000000000010011 8
0#a
0"]
0g
0"X
b00000000000000000000000000010011 D
b00000000000000000000000000011000 #/
0#N
0"I
0"R
b00000000000000000000000000011000 "=
0"
0"T
0s
0"K
0=
0#)
b000000011000 "!
0"-
b00000000000000000000000000011000 3
0#D
b00000000000000000000000000011000 E
b00000000000000000000000000010011 "w
b00000000000000000000000000010011 "W
b00000000000000000000000000011000 "|
0"&
0#1
#111
b00000000000000000000000000010011 "z
1Q
1"I
b000000011000 L
1"]
1#N
1"&
1"K
1"T
b00000000000000000000000000010011 #?
1"-
1#D
1s
b000000011000 "7
b00000000000000000000000000010011 "P
1=
1#1
1g
b000000011000 "[
1"
1"R
1"X
1#a
1;
1#)
#116
0;
0"T
0s
0Q
0"K
b000000011100 "!
0=
b00000000000000000000000000011100 E
0#a
0#)
0"-
0#D
0"]
0g
0"X
b00000000000000000000000000011100 3
0#N
0"I
0"R
b00000000000000000000000000011100 "|
0"&
0"
0#1
b00000000000000000000000000011100 "=
b00000000000000000000000000011100 #/
#121
b000000011100 L
1Q
1"I
1"]
b000000011100 "7
1#N
1"&
1"K
1"T
1"-
b000000011100 "[
1#D
1s
1=
1#1
1g
1"
1"R
1"X
1#a
1;
1#)
#126
0;
0"T
0s
0Q
0"K
b00000000000000000000000000100000 3
0=
0#a
0#)
0"-
b00000000000000000000000000100000 "|
0#D
0"]
b000000100000 "!
b00000000000000000000000000100000 #/
0g
0"X
0#N
0"I
0"R
b00000000000000000000000000100000 "=
b00000000000000000000000000100000 E
0"&
0"
0#1
#131
b000000100000 "[
b000000100000 "7
1Q
1"I
b000000100000 L
1"]
1#N
1"&
1"K
1"T
1"-
1#D
1s
1=
1#1
1g
1"
1"R
1"X
1#a
1;
1#)
#136
0;
0"T
0s
0Q
b00000000000000000000000000100100 E
0"K
0=
0#a
0#)
b00000000000000000000000000100100 3
0"-
b00000000000000000000000000100100 "|
0#D
0"]
0g
0"X
b00000000000000000000000000100100 #/
0#N
0"I
b00000000000000000000000000100100 "=
0"R
0"&
0"
b000000100100 "!
0#1
#141
b000000100100 L
b000000100100 "7
1Q
1"I
1"]
1#N
1"&
1"K
1"T
1"-
1#D
1s
1=
1#1
1g
1"
b000000100100 "[
1"X
1#a
1"R
1;
1#)
#146
0;
0Q
0#a
b00000000010000000000000110010011 8
b00000000010000000000000110010011 X
0"]
b00000000000000000000000000101000 "=
0g
0"X
0#N
0"I
b00000000000000000000000000101000 E
0"R
0"
0"T
b00000000000000000000000000101000 3
0s
0"K
0=
b00000000010000000000000110010011 D
b00000000010000000000000110010011 "w
0#)
b00000000000000000000000000101000 #/
0"-
b00000000000000000000000000101000 "|
0#D
b00000000010000000000000110010011 "W
b000000101000 "!
0"&
0#1
#151
b00000000010000000000000110010011 #?
1Q
1"I
b00000000010000000000000110010011 "P
1"]
1#N
1"&
1"K
1"T
1"-
1#D
1s
1=
1#1
1g
1"
b000000101000 "[
b000000101000 L
b00000000010000000000000110010011 "z
1"R
1"X
1#a
1;
1#)
b000000101000 "7
#156
0;
0Q
b00000000000000000000000000010011 X
b00000000000000000000000000101100 "|
b00000000000000000000000000010011 8
0#a
b00000000000000000000000000101100 E
b00000000000000000000000000101100 3
0"]
b00000000000000000000000000101100 "=
0g
0"X
b00000000000000000000000000010011 D
0#N
0"I
0"R
0"
0"T
0s
0"K
b00000000000000000000000000101100 #/
0=
0#)
0"-
0#D
b00000000000000000000000000010011 "w
b00000000000000000000000000010011 "W
0"&
0#1
b000000101100 "!
#161
b00000000000000000000000000010011 "z
1Q
1"I
1"]
1#N
1"&
1"K
1"T
b00000000000000000000000000010011 #?
1"-
1#D
1s
b00000000000000000000000000010011 "P
1=
b000000101100 "[
1#1
1g
1"
b000000101100 "7
1"R
1"X
1#a
1;
b000000101100 L
1#)
#166
0;
0"T
0s
0Q
0"K
0=
b00000000000000000000000000110000 E
0#a
0#)
b00000000000000000000000000110000 "|
0"-
b00000000000000000000000000110000 "=
0#D
0"]
b00000000000000000000000000110000 #/
0g
0"X
b00000000000000000000000000110000 3
0#N
0"I
0"R
0"&
0"
b000000110000 "!
0#1
#171
1Q
1"I
1"]
1#N
1"&
1"K
b000000110000 "[
1"T
1"-
1#D
1s
1=
1#1
b000000110000 L
1g
1"
1"R
1"X
1#a
1;
1#)
b000000110000 "7
#176
0;
0"T
0s
0Q
0"K
b00000000000000000000000000110100 #/
0=
b00000000000000000000000000110100 3
0#a
0#)
0"-
0#D
0"]
b00000000000000000000000000110100 "|
0g
b000000110100 "!
0"X
0#N
0"I
0"R
0"&
0"
b00000000000000000000000000110100 E
0#1
b00000000000000000000000000110100 "=
#181
b000000110100 L
1Q
1"I
b000000110100 "7
1"]
1#N
1"&
1"K
1"T
1"-
1#D
1s
1=
1#1
1g
1"
1"R
1"X
b000000110100 "[
1#a
1;
1#)
#186
0;
0"T
0s
0Q
0"K
0=
0#a
0#)
0"-
0#D
0"]
b000000111000 "!
b00000000000000000000000000111000 #/
0g
0"X
b00000000000000000000000000111000 E
b00000000000000000000000000111000 "|
0#N
0"I
0"R
0"&
0"
b00000000000000000000000000111000 3
b00000000000000000000000000111000 "=
0#1
#191
1Q
1"I
1"]
1#N
1"&
b000000111000 "7
1"K
1"T
1"-
1#D
1s
1=
b000000111000 "[
1#1
1g
1"
1"R
1"X
1#a
1;
1#)
b000000111000 L
#196
0;
0Q
b00000000010000000000001000010011 8
0#a
b00000000010000000000001000010011 X
0"]
b00000000000000000000000000111100 E
b00000000010000000000001000010011 "w
0g
0"X
0#N
0"I
0"R
0"
b000000111100 "!
0"T
0s
b00000000000000000000000000111100 "|
0"K
0=
0#)
0"-
0#D
b00000000000000000000000000111100 #/
b00000000010000000000001000010011 D
b00000000000000000000000000111100 "=
b00000000010000000000001000010011 "W
0"&
b00000000000000000000000000111100 3
0#1
#201
b000000111100 "7
b000000111100 "[
b000000111100 L
1Q
1"I
b00000000010000000000001000010011 #?
1"]
1#N
1"&
1"K
1"T
1"-
1#D
1s
1=
b00000000010000000000001000010011 "z
1#1
b00000000010000000000001000010011 "P
1g
1"
1"R
1"X
1#a
1;
1#)
#206
0;
0Q
b00000000000000000000000000010011 X
b00000000000000000000000000010011 8
0#a
0"]
b000001000000 "!
0g
b00000000000000000000000001000000 "|
0"X
b00000000000000000000000000010011 D
0#N
0"I
0"R
0"
0"T
0s
0"K
0=
b00000000000000000000000001000000 E
b00000000000000000000000001000000 "=
0#)
0"-
0#D
b00000000000000000000000000010011 "w
b00000000000000000000000001000000 3
b00000000000000000000000000010011 "W
0"&
b00000000000000000000000001000000 #/
0#1
#211
b00000000000000000000000000010011 "z
1Q
1"I
1"]
1#N
1"&
1"K
b000001000000 L
b000001000000 "[
1"T
b00000000000000000000000000010011 #?
1"-
b000001000000 "7
1#D
1s
b00000000000000000000000000010011 "P
1=
1#1
1g
1"
1"R
1"X
1#a
1;
1#)
