waveforms/load2.s.vcd
$date
2022-10-09T16:23+0000
$end
$version
0.2
$end
$comment

$end
$timescale 1ns  $end
$scope module Tile $end
 $var wire 1 6 io_regsWriteEnable $end
 $var wire 32 9 io_regsReadData $end
 $var wire 32 N io_IMEMAddress $end
 $var wire 1 ] io_regsDeviceWriteEnable $end
 $var wire 32 "+ io_DMEMAddress $end
 $var wire 32 "Q io_DMEMWriteData $end
 $var wire 1 "V CPU $end
 $var wire 32 "] io_regsDeviceWriteData $end
 $var wire 5 "a io_regsDeviceWriteAddress $end
 $var wire 1 "r clock $end
 $var wire 32 "x io_currentPC $end
 $var wire 5 "z io_regsAddress $end
 $var wire 1 #1 io_DMEMWriteEnable $end
 $var wire 32 #4 io_memDeviceWriteAddress $end
 $var wire 32 #G io_IMEMWriteData $end
 $var wire 32 #K io_memDeviceWriteData $end
 $var wire 32 #g io_DMEMReadData $end
 $var wire 1 #m reset $end
 $var wire 1 #v io_setup $end
 $var wire 1 $" io_memDeviceWriteEnable $end
 $var wire 32 $? io_regsWriteData $end
  $scope module CPU.MEMBarrier $end
  $upscope $end
  $scope module CPU.EX $end
  $upscope $end
  $scope module CPU.EXBarrier $end
  $upscope $end
  $scope module CPU.MEM $end
  $upscope $end
  $scope module CPU.WB $end
  $upscope $end
  $scope module CPU.JBarrier $end
  $upscope $end
  $scope module CPU.IDBarrier $end
  $upscope $end
  $scope module CPU.ID $end
  $upscope $end
  $scope module CPU.ID.registers $end
  $upscope $end
  $scope module CPU.IFBarrier $end
  $upscope $end
  $scope module CPU.IF $end
  $upscope $end
  $scope module CPU.IF.IMEM $end
  $upscope $end
  $scope module CPU.MEM.DMEM $end
  $upscope $end
  $scope module CPU.ID.Decoder $end
  $upscope $end
  $scope module CPU $end
   $var wire 1 % IDBarrier $end
   $var wire 32 4 testHarness_setupSignals_IMEMsignals_address $end
   $var wire 32 : testHarness_setupSignals_IMEMsignals_instruction $end
   $var wire 1 J testHarness_regUpdates_writeEnable $end
   $var wire 1 a ID $end
   $var wire 1 z testHarness_memUpdates_writeEnable $end
   $var wire 32 "0 testHarness_regUpdates_writeData $end
   $var wire 5 "2 testHarness_regUpdates_writeAddress $end
   $var wire 5 "3 testHarness_setupSignals_registerSignals_readAddress $end
   $var wire 32 "8 testHarness_testReadouts_registerRead $end
   $var wire 32 "C testHarness_currentPC $end
   $var wire 1 "G IF $end
   $var wire 32 "R testHarness_memUpdates_writeAddress $end
   $var wire 1 "X IFBarrier $end
   $var wire 1 "Y testHarness_setupSignals_DMEMsignals_setup $end
   $var wire 1 "[ JBarrier $end
   $var wire 32 "f testHarness_testReadouts_DMEMread $end
   $var wire 32 "j testHarness_setupSignals_DMEMsignals_dataIn $end
   $var wire 1 "n testHarness_setupSignals_IMEMsignals_setup $end
   $var wire 1 #, clock $end
   $var wire 32 #/ testHarness_setupSignals_DMEMsignals_dataAddress $end
   $var wire 1 #8 testHarness_setupSignals_registerSignals_setup $end
   $var wire 1 #; MEM $end
   $var wire 1 #O testHarness_setupSignals_registerSignals_writeEnable $end
   $var wire 1 #P WB $end
   $var wire 1 #Q EXBarrier $end
   $var wire 1 #e EX $end
   $var wire 32 $! testHarness_memUpdates_writeData $end
   $var wire 32 $0 testHarness_setupSignals_registerSignals_writeData $end
   $var wire 1 $: MEMBarrier $end
   $var wire 1 $; reset $end
   $var wire 1 $A testHarness_setupSignals_DMEMsignals_writeEnable $end
    $scope module ID $end
     $var wire 1 ! testHarness_registerSetup_writeEnable $end
     $var wire 32 0 io_out_op2 $end
     $var wire 12 T io_out_writeAddress $end
     $var wire 4 W io_out_aluOP $end
     $var wire 32 Y b $end
     $var wire 32 _ testHarness_registerPeek $end
     $var wire 32 c _GEN_1 $end
     $var wire 1 f io_wbIn_writeEnable $end
     $var wire 1 h io_outJ_jump $end
     $var wire 32 n io_out_memData $end
     $var wire 32 r io_wbIn_writeData $end
     $var wire 1 w testHarness_testUpdates_writeEnable $end
     $var wire 32 } immediate $end
     $var wire 2 "$ _GEN_7 $end
     $var wire 32 "' io_outJ_nextPC $end
     $var wire 32 ") testHarness_registerSetup_writeData $end
     $var wire 5 "1 testHarness_testUpdates_writeAddress $end
     $var wire 5 "7 rdaddress $end
     $var wire 32 "M io_out_op1 $end
     $var wire 32 "e a $end
     $var wire 5 "w testHarness_registerSetup_readAddress $end
     $var wire 5 ## rs2address $end
     $var wire 32 #% io_in_instruction_instruction $end
     $var wire 1 #& registers $end
     $var wire 1 #' io_out_memRead $end
     $var wire 1 #) io_out_regWrite $end
     $var wire 5 #: io_wbIn_writeAddress $end
     $var wire 1 #T Decoder $end
     $var wire 5 #Z rs1address $end
     $var wire 1 #w io_out_memWrite $end
     $var wire 1 #z testHarness_registerSetup_setup $end
     $var wire 32 #} testHarness_testUpdates_writeData $end
     $var wire 1 $( clock $end
     $var wire 32 $* io_in_pc $end
      $scope module registers $end
       $var wire 1 ) testHarness_testUpdates_writeEnable $end
       $var wire 1 , testHarness_setup_setup $end
       $var wire 32 8 testHarness_testUpdates_writeData $end
       $var wire 5 < readAddress1 $end
       $var wire 1 B clock $end
       $var wire 32 E io_readData1 $end
       $var wire 32 I registerFile $end
       $var wire 1 S testHarness_setup_writeEnable $end
       $var wire 1 g writeEnable $end
       $var wire 5 s io_readAddress1 $end
       $var wire 5 "6 testHarness_testUpdates_writeAddress $end
       $var wire 1 "I io_writeEnable $end
       $var wire 32 "` testHarness_setup_writeData $end
       $var wire 32 "s io_writeData $end
       $var wire 5 #7 testHarness_setup_readAddress $end
       $var wire 32 #= io_readData2 $end
       $var wire 5 #A writeAddress $end
       $var wire 5 #[ io_writeAddress $end
       $var wire 5 #] io_readAddress2 $end
        $scope module registerFile $end
          $scope module _T_33 $end
           $var wire 1 $ en $end
           $var wire 1 - pipeline_valid_0 $end
           $var wire 1 > clk $end
           $var wire 5 "= pipeline_addr_0 $end
           $var wire 1 "H mask $end
           $var wire 1 "i valid $end
           $var wire 5 #3 addr $end
           $var wire 32 #S pipeline_data_0 $end
           $var wire 32 $# data $end
          $upscope $end
          $scope module _T_41 $end
           $var wire 32 j data $end
           $var wire 1 ": en $end
           $var wire 1 #$ clk $end
           $var wire 5 #t addr $end
          $upscope $end
          $scope module _T_38 $end
           $var wire 1 y clk $end
           $var wire 1 "c en $end
           $var wire 5 "v addr $end
           $var wire 32 #n data $end
          $upscope $end
        $upscope $end
      $upscope $end
      $scope module Decoder $end
       $var wire 1 5 io_controlSignals_memWrite $end
       $var wire 1 C io_controlSignals_memRead $end
       $var wire 1 "9 io_op2Select $end
       $var wire 2 "E decodedControlSignals_6 $end
       $var wire 1 #! io_controlSignals_regWrite $end
       $var wire 4 #@ io_ALUop $end
       $var wire 1 #B io_op1Select $end
       $var wire 32 #F io_instruction_instruction $end
       $var wire 1 #o io_controlSignals_jump $end
       $var wire 3 $- io_branchType $end
       $var wire 1 $6 io_controlSignals_branch $end
       $var wire 3 $7 io_immType $end
      $upscope $end
    $upscope $end
    $scope module MEM $end
     $var wire 1 @ io_out_memRead $end
     $var wire 1 V DMEM $end
     $var wire 32 ^ testHarness_testUpdates_writeAddress $end
     $var wire 1 l io_in_regWrite $end
     $var wire 32 "; io_in_memData $end
     $var wire 5 "A io_out_writeAddress $end
     $var wire 32 "F testHarness_DMEMsetup_dataAddress $end
     $var wire 32 "J io_in_writeData $end
     $var wire 1 "O io_out_regWrite $end
     $var wire 1 "S io_in_memWrite $end
     $var wire 1 #- testHarness_testUpdates_writeEnable $end
     $var wire 32 #2 io_out_writeData $end
     $var wire 1 #9 testHarness_DMEMsetup_writeEnable $end
     $var wire 32 #E testHarness_DMEMpeek $end
     $var wire 32 #W io_dmemReadResult $end
     $var wire 1 #h testHarness_DMEMsetup_setup $end
     $var wire 32 #s testHarness_testUpdates_writeData $end
     $var wire 1 #| clock $end
     $var wire 1 $2 io_in_memRead $end
     $var wire 32 $4 testHarness_DMEMsetup_dataIn $end
     $var wire 12 $= io_in_writeAddress $end
      $scope module DMEM $end
       $var wire 32 + testHarness_testUpdates_writeData $end
       $var wire 1 3 _GEN_6 $end
       $var wire 12 = data__T_24_addr_pipe_0 $end
       $var wire 1 P testHarness_testUpdates_writeEnable $end
       $var wire 32 Z testHarness_setup_dataAddress $end
       $var wire 12 [ io_dataAddress $end
       $var wire 32 b testHarness_testUpdates_writeAddress $end
       $var wire 32 ~ addressSource $end
       $var wire 32 ". data $end
       $var wire 1 "Z io_writeEnable $end
       $var wire 1 #. testHarness_setup_writeEnable $end
       $var wire 1 #0 testHarness_setup_setup $end
       $var wire 1 #Y clock $end
       $var wire 32 #l testHarness_setup_dataIn $end
       $var wire 32 #y io_dataIn $end
       $var wire 32 $% io_dataOut $end
        $scope module data $end
          $scope module _T_26 $end
           $var wire 1 " clk $end
           $var wire 12 p addr $end
           $var wire 32 "! pipeline_data_0 $end
           $var wire 1 "T pipeline_valid_0 $end
           $var wire 32 "d data $end
           $var wire 1 #R en $end
           $var wire 12 #` pipeline_addr_0 $end
           $var wire 1 #p valid $end
           $var wire 1 $) mask $end
          $upscope $end
          $scope module _T_24 $end
           $var wire 32 O data $end
           $var wire 1 "t clk $end
           $var wire 1 #X en $end
           $var wire 12 #b addr $end
          $upscope $end
        $upscope $end
      $upscope $end
    $upscope $end
    $scope module IFBarrier $end
     $var wire 32 # io_in_instruction_instruction $end
     $var wire 32 K io_out_instruction_instruction $end
     $var wire 1 "{ clock $end
     $var wire 32 "| pc $end
     $var wire 32 #D io_in_pc $end
     $var wire 32 #{ io_out_pc $end
     $var wire 1 #~ reset $end
    $upscope $end
    $scope module IF $end
     $var wire 1 & testHarness_IMEMsetup_setup $end
     $var wire 1 X IMEM $end
     $var wire 32 d testHarness_IMEMsetup_instruction $end
     $var wire 32 "& io_inJ_nextPC $end
     $var wire 1 "4 io_inJ_jump $end
     $var wire 1 "K clock $end
     $var wire 32 "P testHarness_PC $end
     $var wire 1 #> reset $end
     $var wire 32 #L testHarness_IMEMsetup_address $end
     $var wire 32 $$ io_out_pc $end
     $var wire 32 $& io_out_instruction_instruction $end
     $var wire 32 $, pc $end
     $var wire 32 $8 _GEN_0 $end
      $scope module IMEM $end
       $var wire 32 L testHarness_setupSignals_instruction $end
       $var wire 12 U instructions__T_20_addr_pipe_0 $end
       $var wire 1 "/ clock $end
       $var wire 32 "b testHarness_setupSignals_address $end
       $var wire 1 "p _GEN_4 $end
       $var wire 32 "y io_instruction $end
       $var wire 1 #6 testHarness_setupSignals_setup $end
       $var wire 32 #a addressSource $end
       $var wire 32 #q testHarness_requestedAddress $end
       $var wire 32 $' io_instructionAddress $end
       $var wire 32 $/ instructions $end
        $scope module instructions $end
          $scope module _T_18 $end
           $var wire 1 1 valid $end
           $var wire 1 F mask $end
           $var wire 1 k pipeline_valid_0 $end
           $var wire 12 "> addr $end
           $var wire 1 "D clk $end
           $var wire 32 #" data $end
           $var wire 12 #( pipeline_addr_0 $end
           $var wire 32 #u pipeline_data_0 $end
           $var wire 1 $+ en $end
          $upscope $end
          $scope module _T_20 $end
           $var wire 1 "- en $end
           $var wire 12 "\ addr $end
           $var wire 1 "} clk $end
           $var wire 32 #J data $end
          $upscope $end
        $upscope $end
      $upscope $end
    $upscope $end
    $scope module EX $end
     $var wire 1 ' io_in_regWrite $end
     $var wire 12 R io_in_writeAddress $end
     $var wire 1 q io_out_memWrite $end
     $var wire 1 | io_in_memWrite $end
     $var wire 63 "" _GEN_0 $end
     $var wire 32 "B io_in_op2 $end
     $var wire 32 "U io_in_memData $end
     $var wire 32 "W io_out_memData $end
     $var wire 32 #C io_in_op1 $end
     $var wire 4 #M io_in_aluOP $end
     $var wire 12 #V io_out_writeAddress $end
     $var wire 1 #j io_in_memRead $end
     $var wire 1 #k io_out_memRead $end
     $var wire 32 #r io_out_writeData $end
     $var wire 1 $< io_out_regWrite $end
    $upscope $end
    $scope module MEMBarrier $end
     $var wire 32 ( regs_writeData $end
     $var wire 5 A io_out_writeAddress $end
     $var wire 1 i io_out_regWrite $end
     $var wire 32 m io_in_writeData $end
     $var wire 1 o io_in_memRead $end
     $var wire 1 u regs_memRead $end
     $var wire 1 #* io_out_memRead $end
     $var wire 1 #H io_in_regWrite $end
     $var wire 32 #I io_out_writeData $end
     $var wire 5 #\ io_in_writeAddress $end
     $var wire 1 #^ regs_regWrite $end
     $var wire 1 #d clock $end
     $var wire 5 #f regs_writeAddress $end
    $upscope $end
    $scope module EXBarrier $end
     $var wire 1 * regs_regWrite $end
     $var wire 1 7 io_in_regWrite $end
     $var wire 1 \ clock $end
     $var wire 12 t io_in_writeAddress $end
     $var wire 1 v io_out_regWrite $end
     $var wire 32 x io_in_writeData $end
     $var wire 1 "% regs_memWrite $end
     $var wire 32 "( regs_memData $end
     $var wire 1 "< io_in_memWrite $end
     $var wire 32 "? regs_writeData $end
     $var wire 1 "N io_in_memRead $end
     $var wire 1 "k io_out_memWrite $end
     $var wire 32 "m io_out_memData $end
     $var wire 1 #< regs_memRead $end
     $var wire 12 #i regs_writeAddress $end
     $var wire 12 #x io_out_writeAddress $end
     $var wire 1 $. io_out_memRead $end
     $var wire 32 $> io_in_memData $end
     $var wire 32 $@ io_out_writeData $end
    $upscope $end
    $scope module IDBarrier $end
     $var wire 12 . io_in_writeAddress $end
     $var wire 1 / regs_regWrite $end
     $var wire 32 ; io_out_memData $end
     $var wire 1 D regs_memRead $end
     $var wire 4 G io_out_aluOP $end
     $var wire 1 H io_in_memWrite $end
     $var wire 32 Q regs_op2 $end
     $var wire 32 e io_in_op2 $end
     $var wire 1 "* regs_memWrite $end
     $var wire 32 "5 io_out_op1 $end
     $var wire 1 "^ io_out_memRead $end
     $var wire 32 "_ regs_op1 $end
     $var wire 4 "g regs_aluOP $end
     $var wire 4 "h io_in_aluOP $end
     $var wire 1 "o io_out_regWrite $end
     $var wire 1 "q io_in_memRead $end
     $var wire 32 "u io_in_op1 $end
     $var wire 32 #+ regs_memData $end
     $var wire 1 #5 io_in_regWrite $end
     $var wire 12 #? regs_writeAddress $end
     $var wire 12 #N io_out_writeAddress $end
     $var wire 1 #c io_out_memWrite $end
     $var wire 32 $3 io_in_memData $end
     $var wire 32 $5 io_out_op2 $end
     $var wire 1 $B clock $end
    $upscope $end
    $scope module JBarrier $end
     $var wire 1 2 io_in_jump $end
     $var wire 32 ? regs_nextPC $end
     $var wire 32 M io_out_nextPC $end
     $var wire 1 ` regs_jump $end
     $var wire 32 "# io_in_nextPC $end
     $var wire 1 "L clock $end
     $var wire 1 #_ io_out_jump $end
    $upscope $end
    $scope module WB $end
     $var wire 5 { io_in_writeAddress $end
     $var wire 32 ", io_out_writeData $end
     $var wire 1 "@ io_out_writeEnable $end
     $var wire 1 "l io_in_regWrite $end
     $var wire 32 "~ io_in_writeData $end
     $var wire 32 #U io_dmemData $end
     $var wire 1 $1 io_in_memRead $end
     $var wire 5 $9 io_out_writeAddress $end
    $upscope $end
  $upscope $end
$upscope $end
$enddefinitions $end
$dumpvars
0o
0"c
13
b00000000000000000000000000000000 #}
0#c
b00000000000000000000000000000000 "j
b00000000000000000000000000000000 $,
b00000000000000000000000000000000 r
b00000000000000000000000000000000 #K
b00000 "=
b00000000000000000000000000000000 "8
b00000000000000000000000000000000 "#
b00000000000000000000000000000000 "M
0#1
b00000000000000000000000000000000 "U
b00000000000000000000000000000000 Q
0"r
1#X
0a
b00000000000000000000000000000000 b
0#!
0"@
b000000000000 "\
b00000000000000000000000000000000 E
b00000000000000000000000000000000 0
0D
b00000000000000000000000000000000 "y
0/
b00000000000000000000000000000000 #=
0z
0#O
0"n
0]
0H
0"<
b000000000000 #N
0@
b00000 #[
b00000000000000000000000000000000 #s
b00000 "z
b00000000000000000000000000000000 "u
b00000000000000000000000000000000 "C
b00000000000000000000000000000000 "&
1$)
b00000 {
b000 $7
0#w
b00000 #:
0"l
0$.
0#0
0"O
0>
b00000000000000000000000000000000 ?
b000000000000 [
0"}
0#^
b00000000000000000000000000000000 m
0$"
0"K
0#,
b00000000000000000000000000000000 e
0#$
0l
b00000000000000000000000000000000 "5
0`
0"*
b00000000000000000000000000000000 #D
b000000000000 ">
b00000000000000000000000000000000 $%
b000000000000 U
0#m
b00000 #Z
0"o
0#P
b00000000000000000000000000000000 "W
b00000000000000000000000000000000 _
0$1
b00000000000000000000000000000000 $8
b00000000000000000000000000000000 #W
0#~
0$B
0"k
b00000000000000000000000000000000 #4
0"N
0"9
b00000000000000000000000000000000 "!
b000000000000 #`
0k
b0000 #@
b00000000000000000000000000000000 #y
b000000000000 #?
0#_
b00000000000000000000000000000000 "f
b00000000000000000000000000000000 #2
b00000000000000000000000000000000 "Q
b00000000000000000000000000000000 #G
0|
0J
b00000000000000000000000000000000 #u
0-
b00000 #]
b00000000000000000000000000000000 #C
b00000000000000000000000000000000 "b
0#p
0#>
b00000000000000000000000000000000 $$
b00000000000000000000000000000000 "0
b00000000000000000000000000000000 M
0$<
b00000000000000000000000000000000 "(
0"Y
b00000000000000000000000000000000 #"
b00000000000000000000000000000000 ^
b00000000000000000000000000000000 ",
0$A
0#.
0'
b00000000000000000000000000000000 $3
b00000 "v
b00000000000000000000000000000000 #g
b00000000000000000000000000000000 #J
b00000000000000000000000000000000 "?
0"{
0"I
0#*
b00000000000000000000000000000000 N
b00000 "6
b00000000000000000000000000000000 $/
b00000000000000000000000000000000 "m
b00000000000000000000000000000000 #F
b00000000000000000000000000000000 $'
b00000000000000000000000000000000 "P
b00000000000000000000000000000000 "e
b000000000000 t
b00000 #\
0#o
0$;
b00000000000000000000000000000000 ~
0"q
0h
0"G
0#R
b00000000000000000000000000000000 L
1"p
b00000 "w
0#k
b00000 $9
0y
0#9
0"X
0\
b00000000000000000000000000000000 #r
b000000000000 #b
0*
b00000000000000000000000000000000 +
b00000000000000000000000000000000 "_
b00000000000000000000000000000000 $!
b00000000000000000000000000000000 #U
b00000000000000000000000000000000 "B
b000000000000000000000000000000000000000000000000000000000000000 ""
b00000000000000000000000000000000 n
b00000000000000000000000000000000 Y
0#-
0C
0X
0"L
0&
b00000000000000000000000000000000 #n
0#z
b00000000000000000000000000000000 $&
0#H
b00000000000000000000000000000000 "d
0V
b00000 "7
b000000000000 $=
b00000000000000000000000000000000 O
b0000 W
b00000000000000000000000000000000 :
b00000000000000000000000000000000 #E
0#v
0$:
0#Y
b00000000000000000000000000000000 "`
0g
0"[
b00000 "3
0#'
0#<
05
b00000000000000000000000000000000 ".
b00000000000000000000000000000000 K
b00000000000000000000000000000000 }
b000000000000 T
b0000 #M
b00000000000000000000000000000000 #q
0":
0)
b00000000000000000000000000000000 $5
b00000000000000000000000000000000 "s
b0000 "h
b00000000000000000000000000000000 ;
0%
0#h
0v
b00000000000000000000000000000000 "R
b00000 ##
b00000000000000000000000000000000 Z
0#6
b00000000000000000000000000000000 (
b00000 #f
0#d
b00000000000000000000000000000000 #a
0!
06
b00000000000000000000000000000000 #L
b000000000000 #x
b00000000000000000000000000000000 #/
0$(
0"4
b00000000000000000000000000000000 9
0f
0#;
0"Z
0#&
b00000 s
b00000000000000000000000000000000 "~
b00000000000000000000000000000000 $@
b00000 A
1"-
b00000000000000000000000000000000 $#
b00000000000000000000000000000000 #%
b000000000000 p
0w
0"V
b00000000000000000000000000000000 #S
b00000000000000000000000000000000 "]
b00000000000000000000000000000000 $4
b00000000000000000000000000000000 "+
b0000 "g
0#|
0u
b00000 #7
b00000 "A
0"T
b00000000000000000000000000000000 "'
0#5
0$+
0"i
b000000000000 .
b00 "E
0q
b00000 #3
b00000000000000000000000000000000 j
0i
0#)
07
0"
b00000000000000000000000000000000 #
b000000000000 #(
b00000000000000000000000000000000 8
b00 "$
0#B
1F
0P
0"D
b000000000000 #V
b00000000000000000000000000000000 I
b00000000000000000000000000000000 #{
b00000000000000000000000000000000 $?
b00000000000000000000000000000000 $*
b00000000000000000000000000000000 #I
0"/
b00000000000000000000000000000000 4
b00000 "1
b000000000000 R
b000000000000 =
b00000 #t
b00000 <
0$6
0#j
b00000 "a
b00000000000000000000000000000000 d
0#8
b000000000000 #i
0"t
b0000 G
01
0"%
0#Q
0$2
0"S
b00000000000000000000000000000000 ";
0B
0S
1"H
b000 $-
02
b00000000000000000000000000000000 "|
b00000000000000000000000000000000 $>
b00000000000000000000000000000000 "J
b00000000000000000000000000000000 #+
b00000 "2
b00000000000000000000000000000000 "x
0#T
0"^
b00000000000000000000000000000000 x
b00000 #A
b00000000000000000000000000000000 "F
b00000000000000000000000000000000 c
b00000000000000000000000000000000 ")
0#e
b00000000000000000000000000000000 #l
0,
0$
b00000000000000000000000000000000 $0
$end
#0
b1111 W
1$;
1#~
b00000000000000000000000000000100 $8
1#>
1#m
b1111 "h
b1111 #@
#1
1$(
1B
1#$
1"
1"L
1"D
1#|
1"t
1"}
1#d
1>
1#Y
1$B
1#,
1"/
1y
1\
1"{
b1111 #M
b1111 "g
1"K
1"r
b1111 G
#6
0#$
0$(
0"L
0$B
0#d
0"r
0#,
0"{
0>
0"K
0"D
0"/
0y
0\
0#|
0"t
0"}
0"
0#Y
0B
#11
1$(
1B
1#$
1"
1"L
1"D
1#|
1"t
1"}
1#d
1>
1#Y
1$B
1#,
1"/
1y
1\
1"{
1"K
1"r
#16
0#$
0$(
0"L
0$B
0#d
0"r
0#,
0"{
0>
0"K
0"D
0"/
0y
0\
0#|
0"t
0"}
0"
0#Y
0B
#21
1$(
1B
1#$
1"
1"L
1"D
1#|
1"t
1"}
1#d
1>
1#Y
1$B
1#,
1"/
1y
1\
1"{
1"K
1"r
#26
0#$
0$(
0"L
0$B
0#d
0"r
0#,
0"{
0>
0"K
0"D
0"/
0y
0\
0#|
0"t
0"}
0"
0#Y
0B
#31
1$(
1B
1#$
1"
1"L
1"D
1#|
1"t
1"}
1#d
1>
1#Y
1$B
1#,
1"/
1y
1\
1"{
1"K
1"r
#36
0#$
0$(
0"L
0$B
0#d
0"r
0#,
0"{
0>
0"K
0"D
0"/
0y
0\
0#|
0"t
0"}
0"
0#Y
0B
#41
1$(
1B
1#$
1"
1"L
1"D
1#|
1"t
1"}
1#d
1>
1#Y
1$B
1#,
1"/
1y
1\
1"{
1"K
1"r
#46
0#$
0$(
b00000000000000000000000000010011 #%
1#!
0$B
0#d
0"r
b00000000010000000000000010010011 :
1#)
1"n
b00000000000000000000000000000000 $8
0"{
0"D
0#~
b00000000000000000000000000010011 #
0\
0#m
1"Y
0#|
b0000 #@
1#6
0#>
b0000 "h
b00000000010000000000000010010011 #G
0#Y
b00000000010000000000000010010011 d
1#z
0"L
0#,
1#v
b00000000000000000000000000010011 K
0$;
1$+
0>
0"K
b00000000000000000000000000010011 #F
0"/
0y
b0000 W
1#5
1#h
1#8
1#0
1&
0"t
b00000000010000000000000010010011 #"
1,
0"}
0"
1"9
b00000000010000000000000010010011 L
11
b00000000000000000000000000010011 $&
0B
#51
1$(
1B
1"L
1k
b0000 G
1"D
1#|
1"t
1>
1'
b00000000010000000000000010010011 #J
b00000000010000000000000010010011 #u
1"/
1y
1"r
b0000 #M
1/
1#$
1"
1"}
b0000 "g
1#d
1"o
1#Y
1$B
1#,
1\
1"{
1"K
b00000000010000000000000010010011 "y
#56
0#$
0$(
b00000000000000000000000000000100 "b
0$B
0#d
0"r
b00000000000000000000000000000100 #a
0"{
b00000000000000000000000000000100 #L
b00000000000000000000000000010011 :
b00000000000000000000000000010011 #G
0"D
0\
0#|
b000000000100 ">
0#Y
0"L
b00000000000000000000000000010011 d
0#,
0>
0"K
0"/
0y
b00000000000000000000000000000100 N
b00000000000000000000000000000100 4
0"t
0"}
0"
b00000000000000000000000000010011 #"
b00000000000000000000000000010011 L
0B
#61
1$(
1B
1#$
b00000000000000000000000000010011 #u
1"
1"L
1"D
1#|
1"t
1"}
1#d
1>
b00000000000000000000000000010011 #J
b000000000100 U
b000000000100 #(
1#Y
b000000000100 "\
b00000000000000000000000000010011 "y
1#,
1"/
1y
1\
1$B
1"{
1"K
1"r
#66
0#$
0$(
0"L
0$B
0#d
0"r
0#,
0"{
0>
0"K
0"D
b00000000000000000000000000001000 4
0"/
0y
0\
b00000000000000000000000000001000 #L
b000000001000 ">
b00000000000000000000000000001000 #a
0#|
0"t
b00000000000000000000000000001000 N
0"}
0"
b00000000000000000000000000001000 "b
0#Y
0B
#71
1$(
1B
b000000001000 "\
1#$
1"
1"L
1"D
1#|
1"t
1"}
b000000001000 #(
1>
1#d
1#Y
1$B
1#,
1"/
1y
1\
1"{
b000000001000 U
1"K
1"r
#76
0#$
0$(
0"L
b00000000000000000000000000001100 #L
0$B
0#d
0"r
0#,
b00000000000000000000000000001100 4
b00000000000000000000000000001100 #a
0"{
b00000000000000000000000000001100 "b
b00000000000000000000000000001100 N
0>
0"K
0"D
0"/
0y
0\
b000000001100 ">
0#|
0"t
0"}
0"
0#Y
0B
#81
1$(
1B
1#$
1"
b000000001100 U
1"L
1"D
b000000001100 #(
1#|
b000000001100 "\
1"t
1"}
1#d
1>
1#Y
1$B
1#,
1"/
1y
1\
1"{
1"K
1"r
#86
0#$
0$(
b00000000000000000000000000010000 #a
0"L
0$B
0#d
0"r
0#,
0"{
0>
b00000000000000000000000000010000 N
0"K
0"D
0"/
0y
0\
b00000000000000000000000000010000 #L
b00000000000000000000000000010000 "b
0#|
0"t
0"}
0"
b00000000000000000000000000010000 4
0#Y
0B
b000000010000 ">
#91
b000000010000 #(
1$(
1B
1#$
1"
1"L
b000000010000 "\
1"D
1#|
1"t
1"}
1#d
1>
b000000010000 U
1#Y
1$B
1#,
1"/
1y
1\
1"{
1"K
1"r
#96
0#$
0$(
0$B
0#d
0"r
0"{
b00000000010000000000000100010011 #G
0"D
b00000000000000000000000000010100 "b
0\
0#|
b00000000000000000000000000010100 4
b00000000010000000000000100010011 d
b00000000000000000000000000010100 N
0#Y
b00000000010000000000000100010011 #"
0"L
b00000000010000000000000100010011 :
b00000000000000000000000000010100 #L
0#,
b00000000010000000000000100010011 L
0>
0"K
b000000010100 ">
0"/
0y
0"t
0"}
0"
0B
b00000000000000000000000000010100 #a
#101
1$(
1B
b000000010100 #(
b000000010100 U
1#$
1"
1"L
b00000000010000000000000100010011 #u
1"D
b00000000010000000000000100010011 "y
b00000000010000000000000100010011 #J
1#|
1"t
1"}
1#d
1>
1#Y
1$B
1#,
1"/
1y
1\
1"{
1"K
1"r
b000000010100 "\
#106
0#$
0$(
0$B
0#d
0"r
0"{
b00000000000000000000000000010011 :
b00000000000000000000000000010011 #G
0"D
b00000000000000000000000000011000 N
b00000000000000000000000000011000 "b
0\
0#|
0#Y
0"L
b00000000000000000000000000010011 d
0#,
b000000011000 ">
0>
0"K
0"/
0y
b00000000000000000000000000011000 #L
b00000000000000000000000000011000 #a
b00000000000000000000000000011000 4
0"t
0"}
0"
b00000000000000000000000000010011 #"
b00000000000000000000000000010011 L
0B
#111
b000000011000 U
1$(
1B
1#$
b00000000000000000000000000010011 #u
1"
1"L
1"D
1#|
1"t
1"}
1#d
1>
b00000000000000000000000000010011 #J
b000000011000 #(
b000000011000 "\
1#Y
b00000000000000000000000000010011 "y
1$B
1#,
1"/
1y
1\
1"{
1"K
1"r
#116
0#$
0$(
0"L
0$B
0#d
0"r
0#,
0"{
0>
0"K
0"D
0"/
0y
0\
b00000000000000000000000000011100 4
b00000000000000000000000000011100 "b
b00000000000000000000000000011100 N
b00000000000000000000000000011100 #a
0#|
b00000000000000000000000000011100 #L
0"t
0"}
0"
0#Y
0B
b000000011100 ">
#121
b000000011100 "\
b000000011100 #(
1$(
b000000011100 U
1B
1#$
1"
1"L
1"D
1#|
1"t
1"}
1#d
1>
1#Y
1$B
1#,
1"/
1y
1\
1"{
1"K
1"r
#126
0#$
0$(
0"L
b00000000000000000000000000100000 N
0$B
0#d
0"r
0#,
0"{
b00000000000000000000000000100000 "b
0>
0"K
b00000000000000000000000000100000 #L
b000000100000 ">
0"D
0"/
0y
0\
b00000000000000000000000000100000 #a
0#|
0"t
0"}
0"
b00000000000000000000000000100000 4
0#Y
0B
#131
1$(
b000000100000 "\
1B
1#$
1"
1"L
1"D
b000000100000 #(
1#|
1"t
1"}
b000000100000 U
1#d
1>
1#Y
1$B
1#,
1"/
1y
1\
1"{
1"K
1"r
#136
0#$
0$(
0"L
0$B
0#d
0"r
0#,
0"{
0>
b00000000000000000000000000100100 "b
0"K
b00000000000000000000000000100100 #a
0"D
0"/
0y
0\
b000000100100 ">
b00000000000000000000000000100100 4
0#|
0"t
b00000000000000000000000000100100 N
0"}
0"
b00000000000000000000000000100100 #L
0#Y
0B
#141
1$(
1B
1#$
1"
1"L
1"D
b000000100100 "\
1#|
1"t
1"}
1#d
1>
b000000100100 U
1#Y
1$B
1#,
1"/
1y
1\
1"{
1"K
1"r
b000000100100 #(
#146
0#$
0$(
0$B
0#d
0"r
0"{
b00000000000000000000000000101000 #a
b00000000010000000000000110010011 #G
0"D
b00000000010000000000000110010011 #"
0\
b00000000000000000000000000101000 #L
b00000000000000000000000000101000 "b
0#|
0#Y
0"L
b00000000010000000000000110010011 L
0#,
b00000000010000000000000110010011 :
0>
0"K
b00000000010000000000000110010011 d
0"/
0y
b00000000000000000000000000101000 N
b000000101000 ">
0"t
b00000000000000000000000000101000 4
0"}
0"
0B
#151
1$(
1B
b000000101000 #(
b000000101000 U
1#$
1"
1"L
1"D
1#|
1"t
1"}
1#d
b00000000010000000000000110010011 #J
1>
b00000000010000000000000110010011 #u
1#Y
b00000000010000000000000110010011 "y
1$B
1#,
1"/
1y
1\
1"{
1"K
1"r
b000000101000 "\
