waveforms/load.s.vcd
$date
2022-10-04T13:38+0000
$end
$version
0.2
$end
$comment

$end
$timescale 1ns  $end
$scope module Tile $end
 $var wire 1 4 io_regsWriteEnable $end
 $var wire 32 7 io_regsReadData $end
 $var wire 32 E io_IMEMAddress $end
 $var wire 1 R io_regsDeviceWriteEnable $end
 $var wire 32 o io_DMEMAddress $end
 $var wire 32 "2 io_DMEMWriteData $end
 $var wire 1 "5 CPU $end
 $var wire 32 "9 io_regsDeviceWriteData $end
 $var wire 5 "< io_regsDeviceWriteAddress $end
 $var wire 1 "J clock $end
 $var wire 32 "P io_currentPC $end
 $var wire 5 "R io_regsAddress $end
 $var wire 1 "d io_DMEMWriteEnable $end
 $var wire 32 "g io_memDeviceWriteAddress $end
 $var wire 32 "y io_IMEMWriteData $end
 $var wire 32 "} io_memDeviceWriteData $end
 $var wire 32 #7 io_DMEMReadData $end
 $var wire 1 #; reset $end
 $var wire 1 #C io_setup $end
 $var wire 1 #L io_memDeviceWriteEnable $end
 $var wire 32 #a io_regsWriteData $end
  $scope module CPU.MEMBarrier $end
  $upscope $end
  $scope module CPU.EX $end
  $upscope $end
  $scope module CPU.EXBarrier $end
  $upscope $end
  $scope module CPU.MEM $end
  $upscope $end
  $scope module CPU.WB $end
  $upscope $end
  $scope module CPU.IDBarrier $end
  $upscope $end
  $scope module CPU.ID $end
  $upscope $end
  $scope module CPU.ID.registers $end
  $upscope $end
  $scope module CPU.IFBarrier $end
  $upscope $end
  $scope module CPU.IF $end
  $upscope $end
  $scope module CPU.IF.IMEM $end
  $upscope $end
  $scope module CPU.MEM.DMEM $end
  $upscope $end
  $scope module CPU.ID.Decoder $end
  $upscope $end
  $scope module CPU $end
   $var wire 1 % IDBarrier $end
   $var wire 32 3 testHarness_setupSignals_IMEMsignals_address $end
   $var wire 32 8 testHarness_setupSignals_IMEMsignals_instruction $end
   $var wire 1 B testHarness_regUpdates_writeEnable $end
   $var wire 1 U ID $end
   $var wire 1 h testHarness_memUpdates_writeEnable $end
   $var wire 32 t testHarness_regUpdates_writeData $end
   $var wire 5 v testHarness_regUpdates_writeAddress $end
   $var wire 5 w testHarness_setupSignals_registerSignals_readAddress $end
   $var wire 32 { testHarness_testReadouts_registerRead $end
   $var wire 32 "& testHarness_currentPC $end
   $var wire 1 "+ IF $end
   $var wire 32 "3 testHarness_memUpdates_writeAddress $end
   $var wire 1 "6 IFBarrier $end
   $var wire 1 "7 testHarness_setupSignals_DMEMsignals_setup $end
   $var wire 32 "A testHarness_testReadouts_DMEMread $end
   $var wire 32 "E testHarness_setupSignals_DMEMsignals_dataIn $end
   $var wire 1 "G testHarness_setupSignals_IMEMsignals_setup $end
   $var wire 1 "_ clock $end
   $var wire 32 "b testHarness_setupSignals_DMEMsignals_dataAddress $end
   $var wire 1 "k testHarness_setupSignals_registerSignals_setup $end
   $var wire 1 "n MEM $end
   $var wire 1 ## testHarness_setupSignals_registerSignals_writeEnable $end
   $var wire 1 #$ WB $end
   $var wire 1 #% EXBarrier $end
   $var wire 1 #5 EX $end
   $var wire 32 #J testHarness_memUpdates_writeData $end
   $var wire 32 #V testHarness_setupSignals_registerSignals_writeData $end
   $var wire 1 #] reset $end
   $var wire 1 #^ MEMBarrier $end
   $var wire 1 #c testHarness_setupSignals_DMEMsignals_writeEnable $end
    $scope module ID $end
     $var wire 1 ! testHarness_registerSetup_writeEnable $end
     $var wire 32 0 io_out_op2 $end
     $var wire 12 K io_out_writeAddress $end
     $var wire 4 N io_out_aluOP $end
     $var wire 32 T testHarness_registerPeek $end
     $var wire 1 Y io_wbIn_writeEnable $end
     $var wire 32 a io_wbIn_writeData $end
     $var wire 1 e testHarness_testUpdates_writeEnable $end
     $var wire 32 j immediate $end
     $var wire 32 n testHarness_registerSetup_writeData $end
     $var wire 5 u testHarness_testUpdates_writeAddress $end
     $var wire 5 z rdaddress $end
     $var wire 32 "/ io_out_op1 $end
     $var wire 2 "= _GEN_0 $end
     $var wire 5 "O testHarness_registerSetup_readAddress $end
     $var wire 32 "Z io_in_instruction_instruction $end
     $var wire 5 "[ rs2address $end
     $var wire 1 "\ registers $end
     $var wire 1 "^ io_out_regWrite $end
     $var wire 5 "m io_wbIn_writeAddress $end
     $var wire 1 #( Decoder $end
     $var wire 5 #, rs1address $end
     $var wire 1 #E testHarness_registerSetup_setup $end
     $var wire 32 #H testHarness_testUpdates_writeData $end
     $var wire 1 #Q clock $end
     $var wire 32 #S io_in_pc $end
      $scope module registers $end
       $var wire 1 ) testHarness_testUpdates_writeEnable $end
       $var wire 1 , testHarness_setup_setup $end
       $var wire 32 6 testHarness_testUpdates_writeData $end
       $var wire 5 9 readAddress1 $end
       $var wire 1 = clock $end
       $var wire 32 > io_readData1 $end
       $var wire 32 A registerFile $end
       $var wire 1 J testHarness_setup_writeEnable $end
       $var wire 1 Z writeEnable $end
       $var wire 5 b io_readAddress1 $end
       $var wire 5 y testHarness_testUpdates_writeAddress $end
       $var wire 1 ", io_writeEnable $end
       $var wire 32 "; testHarness_setup_writeData $end
       $var wire 32 "K io_writeData $end
       $var wire 5 "j testHarness_setup_readAddress $end
       $var wire 32 "o io_readData2 $end
       $var wire 5 "s writeAddress $end
       $var wire 5 #- io_writeAddress $end
       $var wire 5 #/ io_readAddress2 $end
        $scope module registerFile $end
          $scope module _T_33 $end
           $var wire 1 $ en $end
           $var wire 1 - pipeline_valid_0 $end
           $var wire 1 ; clk $end
           $var wire 5 ~ pipeline_addr_0 $end
           $var wire 1 "* mask $end
           $var wire 1 "D valid $end
           $var wire 5 "f addr $end
           $var wire 32 #' pipeline_data_0 $end
           $var wire 32 #K data $end
          $upscope $end
          $scope module _T_41 $end
           $var wire 32 \ data $end
           $var wire 1 } en $end
           $var wire 1 "Y clk $end
           $var wire 5 #A addr $end
          $upscope $end
          $scope module _T_38 $end
           $var wire 1 g clk $end
           $var wire 1 "? en $end
           $var wire 5 "N addr $end
           $var wire 32 #< data $end
          $upscope $end
        $upscope $end
      $upscope $end
      $scope module Decoder $end
       $var wire 1 | io_op2Select $end
       $var wire 2 "( decodedControlSignals_6 $end
       $var wire 1 "W io_controlSignals_regWrite $end
       $var wire 4 "q io_ALUop $end
       $var wire 1 "t io_op1Select $end
       $var wire 32 "x io_instruction_instruction $end
       $var wire 3 #Z io_immType $end
      $upscope $end
    $upscope $end
    $scope module MEM $end
     $var wire 1 M DMEM $end
     $var wire 32 S testHarness_testUpdates_writeAddress $end
     $var wire 1 ^ io_in_regWrite $end
     $var wire 5 "$ io_out_writeAddress $end
     $var wire 32 ") testHarness_DMEMsetup_dataAddress $end
     $var wire 32 "- io_in_writeData $end
     $var wire 1 "0 io_out_regWrite $end
     $var wire 1 "` testHarness_testUpdates_writeEnable $end
     $var wire 32 "e io_out_writeData $end
     $var wire 1 "l testHarness_DMEMsetup_writeEnable $end
     $var wire 32 "w testHarness_DMEMpeek $end
     $var wire 1 #8 testHarness_DMEMsetup_setup $end
     $var wire 32 #@ testHarness_testUpdates_writeData $end
     $var wire 1 #G clock $end
     $var wire 32 #X testHarness_DMEMsetup_dataIn $end
     $var wire 12 #` io_in_writeAddress $end
      $scope module DMEM $end
       $var wire 32 + testHarness_testUpdates_writeData $end
       $var wire 1 2 _GEN_6 $end
       $var wire 12 : data__T_24_addr_pipe_0 $end
       $var wire 1 G testHarness_testUpdates_writeEnable $end
       $var wire 32 P testHarness_setup_dataAddress $end
       $var wire 32 V testHarness_testUpdates_writeAddress $end
       $var wire 32 k addressSource $end
       $var wire 32 r data $end
       $var wire 1 "a testHarness_setup_writeEnable $end
       $var wire 1 "c testHarness_setup_setup $end
       $var wire 1 #+ clock $end
       $var wire 32 #: testHarness_setup_dataIn $end
       $var wire 32 #N io_dataOut $end
        $scope module data $end
          $scope module _T_26 $end
           $var wire 1 " clk $end
           $var wire 12 ` addr $end
           $var wire 32 l pipeline_data_0 $end
           $var wire 1 "4 pipeline_valid_0 $end
           $var wire 32 "@ data $end
           $var wire 1 #& en $end
           $var wire 12 #1 pipeline_addr_0 $end
           $var wire 1 #= valid $end
           $var wire 1 #R mask $end
          $upscope $end
          $scope module _T_24 $end
           $var wire 32 F data $end
           $var wire 1 "L clk $end
           $var wire 1 #* en $end
           $var wire 12 #3 addr $end
          $upscope $end
        $upscope $end
      $upscope $end
    $upscope $end
    $scope module IFBarrier $end
     $var wire 32 # io_in_instruction_instruction $end
     $var wire 32 C io_out_instruction_instruction $end
     $var wire 1 "S clock $end
     $var wire 32 "T pc $end
     $var wire 32 "v io_in_pc $end
     $var wire 32 #F io_out_pc $end
     $var wire 1 #I reset $end
    $upscope $end
    $scope module IF $end
     $var wire 1 & testHarness_IMEMsetup_setup $end
     $var wire 1 O IMEM $end
     $var wire 32 X testHarness_IMEMsetup_instruction $end
     $var wire 1 ". clock $end
     $var wire 32 "1 testHarness_PC $end
     $var wire 1 "p reset $end
     $var wire 32 "~ testHarness_IMEMsetup_address $end
     $var wire 32 #M io_out_pc $end
     $var wire 32 #O io_out_instruction_instruction $end
     $var wire 32 #U pc $end
     $var wire 32 #[ _GEN_0 $end
      $scope module IMEM $end
       $var wire 32 D testHarness_setupSignals_instruction $end
       $var wire 12 L instructions__T_20_addr_pipe_0 $end
       $var wire 1 s clock $end
       $var wire 32 "> testHarness_setupSignals_address $end
       $var wire 1 "I _GEN_4 $end
       $var wire 32 "Q io_instruction $end
       $var wire 1 "i testHarness_setupSignals_setup $end
       $var wire 32 #2 addressSource $end
       $var wire 32 #> testHarness_requestedAddress $end
       $var wire 32 #P io_instructionAddress $end
       $var wire 32 #W instructions $end
        $scope module instructions $end
          $scope module _T_18 $end
           $var wire 1 1 valid $end
           $var wire 1 ? mask $end
           $var wire 1 ] pipeline_valid_0 $end
           $var wire 12 "" addr $end
           $var wire 1 "' clk $end
           $var wire 32 "X data $end
           $var wire 12 "] pipeline_addr_0 $end
           $var wire 32 #B pipeline_data_0 $end
           $var wire 1 #T en $end
          $upscope $end
          $scope module _T_20 $end
           $var wire 1 q en $end
           $var wire 12 "8 addr $end
           $var wire 1 "U clk $end
           $var wire 32 "| data $end
          $upscope $end
        $upscope $end
      $upscope $end
    $upscope $end
    $scope module EX $end
     $var wire 1 ' io_in_regWrite $end
     $var wire 12 I io_in_writeAddress $end
     $var wire 63 m _GEN_0 $end
     $var wire 32 "% io_in_op2 $end
     $var wire 32 "u io_in_op1 $end
     $var wire 4 #! io_in_aluOP $end
     $var wire 12 #) io_out_writeAddress $end
     $var wire 32 #? io_out_writeData $end
     $var wire 1 #_ io_out_regWrite $end
    $upscope $end
    $scope module MEMBarrier $end
     $var wire 32 ( regs_writeData $end
     $var wire 5 < io_out_writeAddress $end
     $var wire 1 [ io_out_regWrite $end
     $var wire 32 _ io_in_writeData $end
     $var wire 1 "z io_in_regWrite $end
     $var wire 32 "{ io_out_writeData $end
     $var wire 5 #. io_in_writeAddress $end
     $var wire 1 #0 regs_regWrite $end
     $var wire 1 #4 clock $end
     $var wire 5 #6 regs_writeAddress $end
    $upscope $end
    $scope module EXBarrier $end
     $var wire 1 * regs_regWrite $end
     $var wire 1 5 io_in_regWrite $end
     $var wire 1 Q clock $end
     $var wire 12 c io_in_writeAddress $end
     $var wire 1 d io_out_regWrite $end
     $var wire 32 f io_in_writeData $end
     $var wire 32 "! regs_writeData $end
     $var wire 12 #9 regs_writeAddress $end
     $var wire 12 #D io_out_writeAddress $end
     $var wire 32 #b io_out_writeData $end
    $upscope $end
    $scope module IDBarrier $end
     $var wire 12 . io_in_writeAddress $end
     $var wire 1 / regs_regWrite $end
     $var wire 4 @ io_out_aluOP $end
     $var wire 32 H regs_op2 $end
     $var wire 32 W io_in_op2 $end
     $var wire 32 x io_out_op1 $end
     $var wire 32 ": regs_op1 $end
     $var wire 4 "B regs_aluOP $end
     $var wire 4 "C io_in_aluOP $end
     $var wire 1 "H io_out_regWrite $end
     $var wire 32 "M io_in_op1 $end
     $var wire 1 "h io_in_regWrite $end
     $var wire 12 "r regs_writeAddress $end
     $var wire 12 #" io_out_writeAddress $end
     $var wire 32 #Y io_out_op2 $end
     $var wire 1 #d clock $end
    $upscope $end
    $scope module WB $end
     $var wire 5 i io_in_writeAddress $end
     $var wire 32 p io_out_writeData $end
     $var wire 1 "# io_out_writeEnable $end
     $var wire 1 "F io_in_regWrite $end
     $var wire 32 "V io_in_writeData $end
     $var wire 5 #\ io_out_writeAddress $end
    $upscope $end
  $upscope $end
$upscope $end
$enddefinitions $end
$dumpvars
b000000000000 K
0"c
0R
0=
0#c
b00000000000000000000000000000000 #K
b00000000000000000000000000000000 r
b00000000000000000000000000000000 "M
b0000 @
b0000 "B
b00 "=
b00 "(
b00000000000000000000000000000000 E
0/
b00000000000000000000000000000000 "y
b00000000000000000000000000000000 0
0"#
b000000000000 ""
b00000 "[
0"n
0]
b00000000000000000000000000000000 A
b00000000000000000000000000000000 #V
b00000000000000000000000000000000 "u
b000000000000 #1
b00000000000000000000000000000000 "X
b00000000000000000000000000000000 "&
0"l
0#E
0#0
0"d
b00000000000000000000000000000000 T
b00000 "<
b000000000000 #D
0#^
b00000 "j
0"`
b00000 #.
b00000 y
0O
b00000000000000000000000000000000 P
0#$
0".
b00000000000000000000000000000000 3
b00000000000000000000000000000000 #H
b00000000000000000000000000000000 "g
b0000 "q
0"?
b00000000000000000000000000000000 "1
b00000 i
b00000000000000000000000000000000 t
b00000000000000000000000000000000 _
b00000000000000000000000000000000 "%
b00000000000000000000000000000000 #W
b00000000000000000000000000000000 "v
0;
b00000 "m
0#L
0"k
b00000000000000000000000000000000 p
0Z
b000000000000 #`
b00000000000000000000000000000000 "!
b00000000000000000000000000000000 >
b00000000000000000000000000000000 S
0"_
0#_
b00000000000000000000000000000000 #2
b000000000000 #"
b00000000000000000000000000000000 "Q
0|
0J
0-
0"z
b00000000000000000000000000000000 #X
b00000000000000000000000000000000 "w
b00000000000000000000000000000000 "b
b00000000000000000000000000000000 "E
0"+
b00000000000000000000000000000000 #?
b00000000000000000000000000000000 {
0"Y
b00000000000000000000000000000000 "A
b00000000000000000000000000000000 o
0Y
0'
b00000000000000000000000000000000 #J
b00000000000000000000000000000000 "T
0U
b0000 N
b00000 w
b00000 b
0M
0",
b00000000000000000000000000000000 #N
b000000000000 #)
b000000000000 "]
b00000000000000000000000000000000 #F
b00000000000000000000000000000000 "P
b00000000000000000000000000000000 "e
b00000 #6
b00000000000000000000000000000000 "3
b000000000000 :
b00000 #\
b00000 "f
0}
0h
0#=
0#(
0"G
b00000000000000000000000000000000 a
b00000 u
0"\
b00000000000000000000000000000000 H
0G
0*
b00000000000000000000000000000000 +
b00000000000000000000000000000000 #@
b00000000000000000000000000000000 #U
b000000000000000000000000000000000000000000000000000000000000000 m
b000000000000 I
b00000000000000000000000000000000 n
0"L
0"7
b00000 "$
0&
b00000000000000000000000000000000 ">
b00000 v
0#]
b00000000000000000000000000000000 l
0"J
b00000000000000000000000000000000 "2
0#+
0g
0"F
05
b00000000000000000000000000000000 6
1#R
0[
1"*
0)
0%
b00000000000000000000000000000000 "o
b00000000000000000000000000000000 #P
0"U
b00000000000000000000000000000000 (
b000000000000 c
0#d
b00000000000000000000000000000000 #a
0!
0#G
b00000000000000000000000000000000 k
b00000000000000000000000000000000 "9
b00000000000000000000000000000000 V
0"4
12
0#;
0#&
0Q
04
b00000000000000000000000000000000 "~
b00000000000000000000000000000000 #B
b00000000000000000000000000000000 "/
b00000000000000000000000000000000 #[
b00000000000000000000000000000000 #S
b00000000000000000000000000000000 #>
b000000000000 "8
b00000000000000000000000000000000 "@
b00000 "s
0"i
0#5
b00000000000000000000000000000000 D
b000000000000 `
b000000000000 .
b00000 "R
b00000 ~
b00000000000000000000000000000000 j
0"H
b00000000000000000000000000000000 8
b00000000000000000000000000000000 #
b00000000000000000000000000000000 #b
0"
b00000000000000000000000000000000 #M
b00000000000000000000000000000000 ":
b00000 "N
0"a
b00000 z
b00000000000000000000000000000000 f
0"D
1#*
0#%
b00000 #/
b00000000000000000000000000000000 "}
0"'
b000000000000 #9
1"I
0e
b00000000000000000000000000000000 "K
b0000 #!
b00000 <
0"t
b00000 #-
0"W
0##
0#8
b00000000000000000000000000000000 \
01
b00000000000000000000000000000000 "{
b000 #Z
0#Q
0"p
0"h
0#4
b00000000000000000000000000000000 ";
b00000000000000000000000000000000 X
0B
b00000000000000000000000000000000 C
0"S
b000000000000 #3
0"6
0#I
b00000000000000000000000000000000 "Z
b000000000000 L
b00000000000000000000000000000000 7
b00000000000000000000000000000000 #7
b00000000000000000000000000000000 "V
0d
b0000 "C
b00000000000000000000000000000000 "|
b00000 "O
0#C
b00000000000000000000000000000000 "-
0"0
b00000000000000000000000000000000 #Y
b00000000000000000000000000000000 "x
0#T
b00000 #A
0"^
b00000 #,
b00000000000000000000000000000000 x
b00000000000000000000000000000000 #'
b000000000000 "r
b00000000000000000000000000000000 ")
b00000000000000000000000000000000 F
b00000000000000000000000000000000 #<
1q
0s
1?
0^
b00000000000000000000000000000000 W
0,
0"5
b00000 9
b00000000000000000000000000000000 #O
b00000000000000000000000000000000 #:
0$
$end
#0
b1111 N
b00000000000000000000000000000100 #[
b1111 "C
1#;
1"p
b1111 "q
1#]
1#I
#1
1"J
1#G
1"U
b1111 #!
1g
1"_
1"L
1"
1Q
1s
1#4
1;
b1111 @
1"Y
1#d
1#+
1#Q
1"S
1=
b1111 "B
1".
1"'
#6
0#Q
0Q
0"Y
0s
0#G
0=
0#+
0"
0#d
0"'
0".
0"L
0"_
0"J
0#4
0"U
0g
0"S
0;
#11
1"J
1#G
1"U
1g
1"_
1"L
1"
1Q
1s
1#4
1;
1"Y
1#d
1#+
1#Q
1"S
1=
1".
1"'
#16
0#Q
0Q
0"Y
0s
0#G
0=
0#+
0"
0#d
0"'
0".
0"L
0"_
0"J
0#4
0"U
0g
0"S
0;
#21
1"J
1#G
1"U
1g
1"_
1"L
1"
1Q
1s
1#4
1;
1"Y
1#d
1#+
1#Q
1"S
1=
1".
1"'
#26
0#Q
0Q
0"Y
0s
0#G
0=
0#+
0"
0#d
0"'
0".
0"L
0"_
0"J
0#4
0"U
0g
0"S
0;
#31
1"J
1#G
1"U
1g
1"_
1"L
1"
1Q
1s
1#4
1;
1"Y
1#d
1#+
1#Q
1"S
1=
1".
1"'
#36
0#Q
0Q
0"Y
0s
0#G
0=
0#+
0"
0#d
0"'
0".
0"L
0"_
0"J
0#4
0"U
0g
0"S
0;
#41
1"J
1#G
1"U
1g
1"_
1"L
1"
1Q
1s
1#4
1;
1"Y
1#d
1#+
1#Q
1"S
1=
1".
1"'
#46
1,
b00000000000000000000000000010011 "Z
1"i
0Q
b00000000010000000000000010010011 8
0#G
0=
b00000000010000000000000010010011 "y
0#+
1"^
b00000000000000000000000000010011 #O
0"
1#E
1"G
0"_
0"p
b0000 N
0"J
0"U
b00000000000000000000000000010011 C
0"S
b00000000000000000000000000010011 "x
b00000000010000000000000010010011 X
0#Q
1|
b0000 "C
0"Y
0s
1#C
1#T
1"7
b00000000000000000000000000000000 #[
1"h
1"W
1"c
1&
0#]
b0000 "q
0#d
1"k
1#8
0"'
0".
0#;
b00000000010000000000000010010011 "X
0"L
b00000000010000000000000010010011 D
0#4
b00000000000000000000000000010011 #
0g
11
0#I
0;
#51
1"J
1"U
b00000000010000000000000010010011 #B
1g
b00000000010000000000000010010011 "|
1"
1Q
1s
1#4
1"Y
1#d
1#+
1=
b0000 "B
1/
b00000000010000000000000010010011 "Q
1"'
1#G
1"_
1"L
1"H
1;
1"S
1#Q
b0000 @
1".
1]
b0000 #!
1'
#56
0Q
b00000000000000000000000000000100 ">
0#G
0=
0#+
0"
b00000000000000000000000000000100 #2
b000000000100 ""
0"_
b00000000000000000000000000000100 E
0"J
0"U
b00000000000000000000000000000100 3
0"S
0#Q
0"Y
0s
b00000000000000000000000000010011 "X
b00000000000000000000000000010011 "y
b00000000000000000000000000010011 D
0#d
0"'
0".
0"L
b00000000000000000000000000010011 8
0#4
0g
b00000000000000000000000000010011 X
b00000000000000000000000000000100 "~
0;
#61
1"J
1#G
1"U
1g
1"_
1"L
b00000000000000000000000000010011 #B
b00000000000000000000000000010011 "|
1"
1Q
1s
1#4
b00000000000000000000000000010011 "Q
1;
1"Y
1#d
b000000000100 "8
1#+
1#Q
1"S
1=
b000000000100 L
1".
1"'
b000000000100 "]
#66
0#Q
0Q
b000000001000 ""
0"Y
0s
0#G
0=
b00000000000000000000000000001000 E
0#+
0"
0#d
0"'
0".
b00000000000000000000000000001000 #2
0"L
0"_
b00000000000000000000000000001000 "~
0"J
0#4
0"U
0g
b00000000000000000000000000001000 ">
0"S
b00000000000000000000000000001000 3
0;
#71
1"J
1#G
1"U
1g
1"_
1"L
b000000001000 L
1"
1Q
1s
1#4
1;
1"Y
1#d
1#+
1#Q
1"S
1=
b000000001000 "]
1".
1"'
b000000001000 "8
#76
0#Q
0Q
0"Y
0s
0#G
b00000000000000000000000000001100 ">
0=
b00000000000000000000000000001100 E
0#+
b000000001100 ""
0"
0#d
b00000000000000000000000000001100 #2
0"'
0".
0"L
0"_
b00000000000000000000000000001100 3
0"J
0#4
0"U
0g
0"S
b00000000000000000000000000001100 "~
0;
#81
1"J
1#G
1"U
1g
1"_
1"L
1"
b000000001100 "]
1s
1Q
1#4
1;
1"Y
1#d
1#+
b000000001100 "8
1#Q
1=
1"S
b000000001100 L
1".
1"'
#86
b00000000000000000000000000010000 3
b00000000000000000000000000010000 E
0#Q
0Q
b000000010000 ""
0"Y
0s
0#G
b00000000000000000000000000010000 "~
0=
0#+
b00000000000000000000000000010000 #2
0"
0#d
0"'
0".
b00000000000000000000000000010000 ">
0"L
0"_
0"J
0#4
0"U
0g
0"S
0;
#91
1"J
1#G
1"U
1g
1"_
1"L
1"
1Q
1s
1#4
1;
1"Y
1#d
b000000010000 L
1#+
1#Q
1"S
1=
b000000010000 "]
1".
1"'
b000000010000 "8
#96
b00000000000000000000000000010100 E
b00000000010000000000000100010011 X
0Q
b00000000010000000000000100010011 "X
0#G
b00000000000000000000000000010100 3
0=
0#+
0"
b00000000010000000000000100010011 D
0"_
0"J
0"U
b00000000000000000000000000010100 "~
0"S
b00000000000000000000000000010100 ">
b00000000000000000000000000010100 #2
0#Q
b000000010100 ""
0"Y
0s
b00000000010000000000000100010011 "y
0#d
0"'
0".
0"L
0#4
0g
b00000000010000000000000100010011 8
0;
#101
1"J
1#G
1"U
1g
1"_
b00000000010000000000000100010011 "Q
1"L
b00000000010000000000000100010011 #B
b00000000010000000000000100010011 "|
b000000010100 L
1"
1Q
1s
b000000010100 "]
1#4
1;
b000000010100 "8
1"Y
1#d
1#+
1#Q
1"S
1=
1".
1"'
#106
0Q
b00000000000000000000000000011000 #2
b00000000000000000000000000011000 "~
0#G
0=
0#+
b00000000000000000000000000011000 E
b00000000000000000000000000011000 ">
0"
0"_
0"J
0"U
0"S
0#Q
0"Y
0s
b00000000000000000000000000010011 "X
b00000000000000000000000000010011 "y
b000000011000 ""
b00000000000000000000000000010011 D
0#d
b00000000000000000000000000011000 3
0"'
0".
0"L
b00000000000000000000000000010011 8
0#4
0g
b00000000000000000000000000010011 X
0;
#111
1"J
1#G
1"U
1g
1"_
1"L
b000000011000 "8
b00000000000000000000000000010011 #B
b00000000000000000000000000010011 "|
1"
1Q
1s
1#4
b00000000000000000000000000010011 "Q
1;
1"Y
1#d
1#+
1#Q
1"S
1=
b000000011000 "]
b000000011000 L
1".
1"'
#116
0#Q
0Q
b00000000000000000000000000011100 3
0"Y
0s
0#G
b00000000000000000000000000011100 "~
b00000000000000000000000000011100 #2
b00000000000000000000000000011100 ">
0=
0#+
0"
0#d
0"'
0".
b00000000000000000000000000011100 E
0"L
0"_
0"J
0#4
b000000011100 ""
0"U
0g
0"S
0;
#121
1"J
1#G
1"U
1g
1"_
1"L
1"
1Q
1s
1#4
1;
1"Y
1#d
1#+
1#Q
1"S
1=
b000000011100 "]
b000000011100 L
1".
1"'
b000000011100 "8
#126
b00000000000000000000000000100000 #2
0#Q
0Q
b00000000000000000000000000100000 E
0"Y
0s
0#G
0=
0#+
b00000000000000000000000000100000 ">
0"
0#d
0"'
0".
0"L
0"_
0"J
0#4
b00000000000000000000000000100000 3
0"U
0g
b00000000000000000000000000100000 "~
b000000100000 ""
0"S
0;
#131
1"J
1#G
1"U
1g
1"_
1"L
b000000100000 "]
1"
1Q
1s
b000000100000 L
b000000100000 "8
1#4
1;
1"Y
1#d
1#+
1#Q
1"S
1=
1".
1"'
#136
0#Q
b00000000000000000000000000100100 "~
0Q
b000000100100 ""
b00000000000000000000000000100100 ">
0"Y
0s
0#G
0=
0#+
b00000000000000000000000000100100 E
0"
0#d
0"'
0".
0"L
0"_
0"J
0#4
b00000000000000000000000000100100 3
0"U
0g
0"S
b00000000000000000000000000100100 #2
0;
#141
1"J
1#G
1"U
1g
1"_
1"L
1"
1Q
1s
b000000100100 L
1#4
1;
1"Y
1#d
1#+
1#Q
1"S
1=
b000000100100 "8
1".
b000000100100 "]
1"'
#146
0Q
b00000000000000000000000000101000 3
0#G
b00000000010000000000000110010011 8
0=
0#+
b00000000000000000000000000101000 E
b000000101000 ""
0"
b00000000010000000000000110010011 "y
b00000000000000000000000000101000 #2
0"_
b00000000010000000000000110010011 X
0"J
0"U
b00000000010000000000000110010011 "X
0"S
0#Q
b00000000010000000000000110010011 D
0"Y
0s
b00000000000000000000000000101000 "~
b00000000000000000000000000101000 ">
0#d
0"'
0".
0"L
0#4
0g
0;
#151
1"J
1#G
1"U
1g
b00000000010000000000000110010011 #B
1"_
1"L
1"
1Q
1s
b00000000010000000000000110010011 "Q
b000000101000 "8
1#4
1;
1"Y
1#d
1#+
b00000000010000000000000110010011 "|
1#Q
1=
1"S
b000000101000 "]
1".
1"'
b000000101000 L
#156
0Q
0#G
0=
b00000000000000000000000000101100 E
0#+
b000000101100 ""
0"
0"_
0"J
0"U
b00000000000000000000000000101100 #2
b00000000000000000000000000101100 "~
0"S
0#Q
0"Y
0s
b00000000000000000000000000101100 ">
b00000000000000000000000000010011 "X
b00000000000000000000000000010011 "y
b00000000000000000000000000010011 D
0#d
0"'
0".
b00000000000000000000000000101100 3
0"L
b00000000000000000000000000010011 8
0#4
0g
b00000000000000000000000000010011 X
0;
#161
1"J
b000000101100 "]
1#G
1"U
1g
1"_
1"L
b000000101100 L
b00000000000000000000000000010011 #B
b00000000000000000000000000010011 "|
1"
1Q
1s
1#4
b00000000000000000000000000010011 "Q
1;
1"Y
1#d
1#+
b000000101100 "8
1#Q
1=
1"S
1".
1"'
#166
b000000110000 ""
0#Q
0Q
0"Y
0s
0#G
b00000000000000000000000000110000 "~
0=
0#+
b00000000000000000000000000110000 ">
0"
0#d
0"'
0".
0"L
0"_
b00000000000000000000000000110000 E
b00000000000000000000000000110000 #2
0"J
0#4
b00000000000000000000000000110000 3
0"U
0g
0"S
0;
#171
1"J
1#G
b000000110000 "]
1"U
1g
1"_
1"L
1"
1Q
1s
1#4
b000000110000 L
1;
1"Y
b000000110000 "8
1#d
1#+
1#Q
1"S
1=
1".
1"'
#176
b00000000000000000000000000110100 E
0#Q
b000000110100 ""
0Q
b00000000000000000000000000110100 ">
0"Y
0s
0#G
b00000000000000000000000000110100 3
b00000000000000000000000000110100 "~
0=
b00000000000000000000000000110100 #2
0#+
0"
0#d
0"'
0".
0"L
0"_
0"J
0#4
0"U
0g
0"S
0;
#181
1"J
1#G
1"U
1g
1"_
1"L
1"
1Q
1s
1#4
1;
b000000110100 "]
1"Y
1#d
1#+
1#Q
1"S
1=
b000000110100 L
b000000110100 "8
1".
1"'
#186
b00000000000000000000000000111000 #2
b00000000000000000000000000111000 E
0#Q
0Q
0"Y
0s
0#G
b00000000000000000000000000111000 ">
0=
0#+
0"
0#d
0"'
0".
0"L
0"_
0"J
0#4
0"U
0g
0"S
b00000000000000000000000000111000 "~
b000000111000 ""
b00000000000000000000000000111000 3
0;
#191
1"J
1#G
1"U
1g
1"_
1"L
b000000111000 L
1"
1Q
1s
1#4
1;
1"Y
1#d
1#+
1#Q
1"S
1=
b000000111000 "8
1".
1"'
b000000111000 "]
#196
0Q
0#G
0=
0#+
0"
b00000000010000000000001000010011 8
0"_
b00000000000000000000000000111100 "~
b00000000010000000000001000010011 "X
0"J
0"U
0"S
b00000000010000000000001000010011 "y
0#Q
0"Y
0s
b00000000000000000000000000111100 ">
b00000000010000000000001000010011 X
b000000111100 ""
b00000000000000000000000000111100 E
b00000000000000000000000000111100 #2
b00000000000000000000000000111100 3
0#d
0"'
0".
0"L
b00000000010000000000001000010011 D
0#4
0g
0;
#201
1"J
1#G
1"U
1g
1"_
1"L
b00000000010000000000001000010011 #B
b000000111100 "]
1"
1Q
1s
1#4
b000000111100 "8
1;
1"Y
1#d
1#+
1#Q
b00000000010000000000001000010011 "|
1=
1"S
1".
b00000000010000000000001000010011 "Q
1"'
b000000111100 L
#206
b00000000000000000000000001000000 E
0Q
0#G
0=
0#+
b00000000000000000000000001000000 "~
b000001000000 ""
0"
b00000000000000000000000001000000 3
0"_
b00000000000000000000000001000000 #2
0"J
b00000000000000000000000001000000 ">
0"U
0"S
0#Q
0"Y
0s
b00000000000000000000000000010011 "X
b00000000000000000000000000010011 "y
b00000000000000000000000000010011 D
0#d
0"'
0".
0"L
b00000000000000000000000000010011 8
0#4
0g
b00000000000000000000000000010011 X
0;
#211
1"J
1#G
1"U
1g
b000001000000 "]
1"_
1"L
b00000000000000000000000000010011 #B
b00000000000000000000000000010011 "|
1"
1Q
1s
1#4
b00000000000000000000000000010011 "Q
1;
1"Y
1#d
1#+
1#Q
1"S
1=
b000001000000 "8
b000001000000 L
1".
1"'
