waveforms/searchRegularO0.s.vcd
$date
2022-11-08T08:54+0000
$end
$version
0.2
$end
$comment

$end
$timescale 1ns  $end
$scope module Tile $end
 $var wire 1 ; io_regsWriteEnable $end
 $var wire 32 > io_regsReadData $end
 $var wire 32 V io_IMEMAddress $end
 $var wire 1 g io_regsDeviceWriteEnable $end
 $var wire 32 "B io_DMEMAddress $end
 $var wire 32 "p io_DMEMWriteData $end
 $var wire 1 "v CPU $end
 $var wire 32 #" io_regsDeviceWriteData $end
 $var wire 5 #) io_regsDeviceWriteAddress $end
 $var wire 1 #A clock $end
 $var wire 32 #G io_currentPC $end
 $var wire 5 #K io_regsAddress $end
 $var wire 1 #a io_DMEMWriteEnable $end
 $var wire 32 #d io_memDeviceWriteAddress $end
 $var wire 32 #{ io_IMEMWriteData $end
 $var wire 32 $! io_memDeviceWriteData $end
 $var wire 32 $H io_DMEMReadData $end
 $var wire 1 $Q reset $end
 $var wire 1 $[ io_setup $end
 $var wire 1 $h io_memDeviceWriteEnable $end
 $var wire 32 %( io_regsWriteData $end
  $scope module CPU.MEMBarrier $end
  $upscope $end
  $scope module CPU.EX $end
  $upscope $end
  $scope module CPU.EXBarrier $end
  $upscope $end
  $scope module CPU.MEM $end
  $upscope $end
  $scope module CPU.WB $end
  $upscope $end
  $scope module CPU.JBarrier $end
  $upscope $end
  $scope module CPU.IDBarrier $end
  $upscope $end
  $scope module CPU.ID $end
  $upscope $end
  $scope module CPU.ID.registers $end
  $upscope $end
  $scope module CPU.IFBarrier $end
  $upscope $end
  $scope module CPU.IF $end
  $upscope $end
  $scope module CPU.IF.IMEM $end
  $upscope $end
  $scope module CPU.MEM.DMEM $end
  $upscope $end
  $scope module CPU.ID.Decoder $end
  $upscope $end
  $scope module CPU $end
   $var wire 1 ' IDBarrier $end
   $var wire 32 : testHarness_setupSignals_IMEMsignals_address $end
   $var wire 32 A testHarness_setupSignals_IMEMsignals_instruction $end
   $var wire 1 T testHarness_regUpdates_writeEnable $end
   $var wire 1 l ID $end
   $var wire 1 "/ testHarness_memUpdates_writeEnable $end
   $var wire 32 "G testHarness_regUpdates_writeData $end
   $var wire 5 "J testHarness_regUpdates_writeAddress $end
   $var wire 5 "L testHarness_setupSignals_registerSignals_readAddress $end
   $var wire 32 "Q testHarness_testReadouts_registerRead $end
   $var wire 32 "\ testHarness_currentPC $end
   $var wire 1 "c IF $end
   $var wire 32 "q testHarness_memUpdates_writeAddress $end
   $var wire 1 "y IFBarrier $end
   $var wire 1 "z testHarness_setupSignals_DMEMsignals_setup $end
   $var wire 1 "| JBarrier $end
   $var wire 32 #1 testHarness_testReadouts_DMEMread $end
   $var wire 32 #5 testHarness_setupSignals_DMEMsignals_dataIn $end
   $var wire 1 #= testHarness_setupSignals_IMEMsignals_setup $end
   $var wire 1 #\ clock $end
   $var wire 32 #_ testHarness_setupSignals_DMEMsignals_dataAddress $end
   $var wire 1 #i testHarness_setupSignals_registerSignals_setup $end
   $var wire 1 #m MEM $end
   $var wire 1 $( testHarness_setupSignals_registerSignals_writeEnable $end
   $var wire 1 $) WB $end
   $var wire 1 $+ EXBarrier $end
   $var wire 1 $G EX $end
   $var wire 32 $f testHarness_memUpdates_writeData $end
   $var wire 32 $u testHarness_setupSignals_registerSignals_writeData $end
   $var wire 1 %" reset $end
   $var wire 1 %# MEMBarrier $end
   $var wire 1 %) testHarness_setupSignals_DMEMsignals_writeEnable $end
    $scope module ID $end
     $var wire 1 ! testHarness_registerSetup_writeEnable $end
     $var wire 5 & io_ex_writeAddress $end
     $var wire 32 ) io_ex_writeData $end
     $var wire 32 4 io_out_op2 $end
     $var wire 32 7 io_wb_writeData $end
     $var wire 1 = _GEN_21 $end
     $var wire 5 ^ io_out_writeAddress $end
     $var wire 4 ` io_out_aluOP $end
     $var wire 32 c b $end
     $var wire 5 i _GEN_18 $end
     $var wire 32 j io_fwdOut_address2 $end
     $var wire 32 k testHarness_registerPeek $end
     $var wire 32 n _GEN_1 $end
     $var wire 1 o io_stall $end
     $var wire 32 r _GEN_4 $end
     $var wire 1 v io_wb_writeEnable $end
     $var wire 1 x io_outJ_jump $end
     $var wire 32 "! io_out_memData $end
     $var wire 1 "+ reset $end
     $var wire 1 ". testHarness_testUpdates_writeEnable $end
     $var wire 32 "4 immediate $end
     $var wire 32 "6 savedInstruction_instruction $end
     $var wire 1 "; _GEN_7 $end
     $var wire 32 "> io_outJ_nextPC $end
     $var wire 1 "? sigEX_STALL $end
     $var wire 32 "@ testHarness_registerSetup_writeData $end
     $var wire 5 "K testHarness_testUpdates_writeAddress $end
     $var wire 5 "P rdaddress $end
     $var wire 1 "h io_mem_memRead $end
     $var wire 32 "k io_out_op1 $end
     $var wire 1 "r io_ex_memRead $end
     $var wire 5 "x _GEN_20 $end
     $var wire 1 "} stalled $end
     $var wire 1 ## _GEN_6 $end
     $var wire 32 #* _GEN_0 $end
     $var wire 5 #- io_mem_writeAddress $end
     $var wire 32 #/ io_fwdOut_address1 $end
     $var wire 32 #0 a $end
     $var wire 1 #9 io_mem_regWrite $end
     $var wire 1 #: io_fwdOut_op2sel $end
     $var wire 1 #< io_ex_regWrite $end
     $var wire 5 #H testHarness_registerSetup_readAddress $end
     $var wire 4 #J _GEN_3 $end
     $var wire 32 #S io_in_instruction_instruction $end
     $var wire 5 #T rs2address $end
     $var wire 1 #U registers $end
     $var wire 1 #V io_out_memRead $end
     $var wire 1 #X io_out_regWrite $end
     $var wire 32 #f io_mem_writeData $end
     $var wire 5 #l io_wb_writeAddress $end
     $var wire 32 #n io_fwdOut_memDSrc $end
     $var wire 1 #x sigMEM_STALL $end
     $var wire 32 $" _GEN_2 $end
     $var wire 32 $# io_fwdOut_imm $end
     $var wire 1 $* stopped $end
     $var wire 1 $. Decoder $end
     $var wire 5 $0 _GEN_19 $end
     $var wire 5 $5 rs1address $end
     $var wire 1 $6 _GEN_5 $end
     $var wire 1 $K stalled2 $end
     $var wire 2 $N _GEN_22 $end
     $var wire 32 $O pcReal $end
     $var wire 1 $\ io_out_memWrite $end
     $var wire 1 $` testHarness_registerSetup_setup $end
     $var wire 5 $c _GEN_8 $end
     $var wire 32 $d testHarness_testUpdates_writeData $end
     $var wire 1 $m clock $end
     $var wire 32 $o io_in_pc $end
      $scope module registers $end
       $var wire 1 , testHarness_testUpdates_writeEnable $end
       $var wire 1 / testHarness_setup_setup $end
       $var wire 32 ? testHarness_testUpdates_writeData $end
       $var wire 5 B readAddress1 $end
       $var wire 1 J clock $end
       $var wire 32 M io_readData1 $end
       $var wire 32 R registerFile $end
       $var wire 1 ] testHarness_setup_writeEnable $end
       $var wire 1 w writeEnable $end
       $var wire 5 "( io_readAddress1 $end
       $var wire 5 "O testHarness_testUpdates_writeAddress $end
       $var wire 1 "d io_writeEnable $end
       $var wire 32 #( testHarness_setup_writeData $end
       $var wire 32 #B io_writeData $end
       $var wire 5 #h testHarness_setup_readAddress $end
       $var wire 32 #p io_readData2 $end
       $var wire 5 #t writeAddress $end
       $var wire 5 $8 io_writeAddress $end
       $var wire 5 $: io_readAddress2 $end
        $scope module registerFile $end
          $scope module _T_33 $end
           $var wire 1 % en $end
           $var wire 1 1 pipeline_valid_0 $end
           $var wire 1 D clk $end
           $var wire 5 "V pipeline_addr_0 $end
           $var wire 1 "b mask $end
           $var wire 1 #4 valid $end
           $var wire 5 #b addr $end
           $var wire 32 $- pipeline_data_0 $end
           $var wire 32 $g data $end
          $upscope $end
          $scope module _T_41 $end
           $var wire 32 z data $end
           $var wire 1 "S en $end
           $var wire 1 #R clk $end
           $var wire 5 $Y addr $end
          $upscope $end
          $scope module _T_38 $end
           $var wire 1 "0 clk $end
           $var wire 1 #, en $end
           $var wire 5 #E addr $end
           $var wire 32 $S data $end
          $upscope $end
        $upscope $end
      $upscope $end
      $scope module Decoder $end
       $var wire 1 9 io_controlSignals_memWrite $end
       $var wire 1 K io_controlSignals_memRead $end
       $var wire 1 "R io_op2Select $end
       $var wire 2 "_ decodedControlSignals_6 $end
       $var wire 1 #P io_controlSignals_regWrite $end
       $var wire 4 #s io_ALUop $end
       $var wire 1 #u io_op1Select $end
       $var wire 32 #z io_instruction_instruction $end
       $var wire 1 $T io_controlSignals_jump $end
       $var wire 3 $r io_branchType $end
       $var wire 1 $| io_controlSignals_branch $end
       $var wire 3 $} io_immType $end
      $upscope $end
    $upscope $end
    $scope module MEM $end
     $var wire 1 G io_out_memRead $end
     $var wire 1 a DMEM $end
     $var wire 32 h testHarness_testUpdates_writeAddress $end
     $var wire 1 } io_in_regWrite $end
     $var wire 32 "T io_in_memData $end
     $var wire 5 "Z io_out_writeAddress $end
     $var wire 32 "a testHarness_DMEMsetup_dataAddress $end
     $var wire 32 "f io_in_writeData $end
     $var wire 1 "m io_out_regWrite $end
     $var wire 1 "s io_in_memWrite $end
     $var wire 1 #] testHarness_testUpdates_writeEnable $end
     $var wire 32 #c io_out_writeData $end
     $var wire 1 #k testHarness_DMEMsetup_writeEnable $end
     $var wire 32 #y testHarness_DMEMpeek $end
     $var wire 32 $2 io_dmemReadResult $end
     $var wire 1 $I testHarness_DMEMsetup_setup $end
     $var wire 32 $X testHarness_testUpdates_writeData $end
     $var wire 1 $b clock $end
     $var wire 1 $w io_in_memRead $end
     $var wire 32 $z testHarness_DMEMsetup_dataIn $end
     $var wire 5 %% io_in_writeAddress $end
      $scope module DMEM $end
       $var wire 32 0 testHarness_testUpdates_writeData $end
       $var wire 1 8 _GEN_6 $end
       $var wire 12 C data__T_24_addr_pipe_0 $end
       $var wire 1 Y testHarness_testUpdates_writeEnable $end
       $var wire 32 d testHarness_setup_dataAddress $end
       $var wire 12 e io_dataAddress $end
       $var wire 32 m testHarness_testUpdates_writeAddress $end
       $var wire 32 "5 addressSource $end
       $var wire 32 "E data $end
       $var wire 1 "{ io_writeEnable $end
       $var wire 1 #^ testHarness_setup_writeEnable $end
       $var wire 1 #` testHarness_setup_setup $end
       $var wire 1 $4 clock $end
       $var wire 32 $P testHarness_setup_dataIn $end
       $var wire 32 $_ io_dataIn $end
       $var wire 32 $j io_dataOut $end
        $scope module data $end
          $scope module _T_26 $end
           $var wire 1 " clk $end
           $var wire 12 "# addr $end
           $var wire 32 "8 pipeline_data_0 $end
           $var wire 1 "t pipeline_valid_0 $end
           $var wire 32 #. data $end
           $var wire 1 $, en $end
           $var wire 12 $A pipeline_addr_0 $end
           $var wire 1 $U valid $end
           $var wire 1 $n mask $end
          $upscope $end
          $scope module _T_24 $end
           $var wire 32 X data $end
           $var wire 1 #C clk $end
           $var wire 1 $3 en $end
           $var wire 12 $C addr $end
          $upscope $end
        $upscope $end
      $upscope $end
    $upscope $end
    $scope module IF $end
     $var wire 1 # io_stall $end
     $var wire 1 ( testHarness_IMEMsetup_setup $end
     $var wire 1 b IMEM $end
     $var wire 32 q testHarness_IMEMsetup_instruction $end
     $var wire 32 "< io_inJ_nextPC $end
     $var wire 1 "N io_inJ_jump $end
     $var wire 32 "i _GEN_2 $end
     $var wire 1 "j clock $end
     $var wire 32 "n instruction_instruction $end
     $var wire 32 "o testHarness_PC $end
     $var wire 1 #q reset $end
     $var wire 32 $$ testHarness_IMEMsetup_address $end
     $var wire 1 $? stalled $end
     $var wire 32 $@ lastInstruction_instruction $end
     $var wire 32 $i io_out_pc $end
     $var wire 32 $k io_out_instruction_instruction $end
     $var wire 32 $s pc $end
     $var wire 32 $~ _GEN_0 $end
      $scope module IMEM $end
       $var wire 32 U testHarness_setupSignals_instruction $end
       $var wire 12 _ instructions__T_20_addr_pipe_0 $end
       $var wire 1 "F clock $end
       $var wire 32 #+ testHarness_setupSignals_address $end
       $var wire 1 #? _GEN_4 $end
       $var wire 32 #I io_instruction $end
       $var wire 1 #g testHarness_setupSignals_setup $end
       $var wire 32 $B addressSource $end
       $var wire 32 $V testHarness_requestedAddress $end
       $var wire 32 $l io_instructionAddress $end
       $var wire 32 $v instructions $end
        $scope module instructions $end
          $scope module _T_18 $end
           $var wire 1 5 valid $end
           $var wire 1 N mask $end
           $var wire 1 | pipeline_valid_0 $end
           $var wire 12 "X addr $end
           $var wire 1 "] clk $end
           $var wire 32 #Q data $end
           $var wire 12 #W pipeline_addr_0 $end
           $var wire 32 $Z pipeline_data_0 $end
           $var wire 1 $q en $end
          $upscope $end
          $scope module _T_20 $end
           $var wire 1 "D en $end
           $var wire 12 "~ addr $end
           $var wire 1 #N clk $end
           $var wire 32 #~ data $end
          $upscope $end
        $upscope $end
      $upscope $end
    $upscope $end
    $scope module IFBarrier $end
     $var wire 32 $ io_in_instruction_instruction $end
     $var wire 32 S io_out_instruction_instruction $end
     $var wire 1 #L clock $end
     $var wire 32 #M pc $end
     $var wire 32 #w io_in_pc $end
     $var wire 32 $a io_out_pc $end
     $var wire 1 $e reset $end
    $upscope $end
    $scope module MEMBarrier $end
     $var wire 32 * regs_writeData $end
     $var wire 5 H io_out_writeAddress $end
     $var wire 1 y io_out_regWrite $end
     $var wire 32 ~ io_in_writeData $end
     $var wire 1 "" io_in_memRead $end
     $var wire 1 "* regs_memRead $end
     $var wire 1 #Y io_out_memRead $end
     $var wire 1 #| io_in_regWrite $end
     $var wire 32 #} io_out_writeData $end
     $var wire 5 $9 io_in_writeAddress $end
     $var wire 1 $= regs_regWrite $end
     $var wire 1 $E clock $end
     $var wire 5 $F regs_writeAddress $end
    $upscope $end
    $scope module EX $end
     $var wire 1 + io_in_regWrite $end
     $var wire 32 . io_fwdIn_address1 $end
     $var wire 32 E x $end
     $var wire 5 P io_wb_writeAddress $end
     $var wire 5 Z io_mem_writeAddress $end
     $var wire 5 \ io_in_writeAddress $end
     $var wire 63 t _GEN_6 $end
     $var wire 1 "$ io_fwdIn_op2sel $end
     $var wire 1 "% io_out_memWrite $end
     $var wire 32 "& io_mem_writeData $end
     $var wire 1 "3 io_in_memWrite $end
     $var wire 32 "7 _GEN_0 $end
     $var wire 32 "H io_wb_writeData $end
     $var wire 32 "[ io_in_op2 $end
     $var wire 32 "^ io_ex_writeData $end
     $var wire 32 "` io_fwdIn_imm $end
     $var wire 5 "e io_ex_writeAddress $end
     $var wire 32 "u io_in_memData $end
     $var wire 32 "w io_out_memData $end
     $var wire 32 #& _GEN_2 $end
     $var wire 32 #; io_fwdIn_memDSrc $end
     $var wire 1 #[ io_ex_regWrite $end
     $var wire 32 #j y $end
     $var wire 32 #v io_in_op1 $end
     $var wire 4 $% io_in_aluOP $end
     $var wire 5 $1 io_out_writeAddress $end
     $var wire 32 $7 io_fwdIn_address2 $end
     $var wire 1 $< io_mem_regWrite $end
     $var wire 1 $L io_in_memRead $end
     $var wire 1 $M io_out_memRead $end
     $var wire 32 $R _GEN_1 $end
     $var wire 32 $W io_out_writeData $end
     $var wire 1 $p io_wb_writeEnable $end
     $var wire 1 %$ io_out_regWrite $end
    $upscope $end
    $scope module EXBarrier $end
     $var wire 1 - regs_regWrite $end
     $var wire 1 < io_in_regWrite $end
     $var wire 1 f clock $end
     $var wire 5 ") io_in_writeAddress $end
     $var wire 1 ", io_out_regWrite $end
     $var wire 32 "- io_in_writeData $end
     $var wire 1 ": regs_memWrite $end
     $var wire 32 "= regs_memData $end
     $var wire 1 "U io_in_memWrite $end
     $var wire 32 "W regs_writeData $end
     $var wire 1 "l io_in_memRead $end
     $var wire 1 #6 io_out_memWrite $end
     $var wire 32 #8 io_out_memData $end
     $var wire 1 #o regs_memRead $end
     $var wire 5 $J regs_writeAddress $end
     $var wire 5 $^ io_out_writeAddress $end
     $var wire 1 $t io_out_memRead $end
     $var wire 32 %& io_in_memData $end
     $var wire 32 %' io_out_writeData $end
    $upscope $end
    $scope module IDBarrier $end
     $var wire 5 2 io_in_writeAddress $end
     $var wire 1 3 regs_regWrite $end
     $var wire 32 @ io_out_memData $end
     $var wire 32 F io_oFw_address2 $end
     $var wire 32 I io_iFw_memDSrc $end
     $var wire 1 L regs_memRead $end
     $var wire 4 O io_out_aluOP $end
     $var wire 1 Q io_in_memWrite $end
     $var wire 32 [ regs_op2 $end
     $var wire 32 p io_in_op2 $end
     $var wire 32 s regFw_imm $end
     $var wire 32 u regFw_memDSrc $end
     $var wire 32 { regFw_address1 $end
     $var wire 32 "' io_oFw_memDSrc $end
     $var wire 32 "2 io_iFw_imm $end
     $var wire 1 "A regs_memWrite $end
     $var wire 1 "I io_iFw_op2sel $end
     $var wire 32 "M io_out_op1 $end
     $var wire 1 "g io_oFw_op2sel $end
     $var wire 32 #! io_oFw_address1 $end
     $var wire 32 #$ io_iFw_address2 $end
     $var wire 1 #% io_out_memRead $end
     $var wire 32 #' regs_op1 $end
     $var wire 4 #2 regs_aluOP $end
     $var wire 4 #3 io_in_aluOP $end
     $var wire 1 #> io_out_regWrite $end
     $var wire 1 #@ io_in_memRead $end
     $var wire 32 #D io_in_op1 $end
     $var wire 32 #F io_oFw_imm $end
     $var wire 32 #Z regs_memData $end
     $var wire 1 #e io_in_regWrite $end
     $var wire 5 #r regs_writeAddress $end
     $var wire 5 $& io_out_writeAddress $end
     $var wire 1 $' regFw_op2sel $end
     $var wire 32 $; regFw_address2 $end
     $var wire 1 $D io_out_memWrite $end
     $var wire 32 $] io_iFw_address1 $end
     $var wire 32 $y io_in_memData $end
     $var wire 32 ${ io_out_op2 $end
     $var wire 1 %* clock $end
    $upscope $end
    $scope module JBarrier $end
     $var wire 1 6 io_in_jump $end
     $var wire 32 W io_out_nextPC $end
     $var wire 32 "9 io_in_nextPC $end
     $var wire 1 $> io_out_jump $end
    $upscope $end
    $scope module WB $end
     $var wire 5 "1 io_in_writeAddress $end
     $var wire 32 "C io_out_writeData $end
     $var wire 1 "Y io_out_writeEnable $end
     $var wire 1 #7 io_in_regWrite $end
     $var wire 32 #O io_in_writeData $end
     $var wire 32 $/ io_dmemData $end
     $var wire 1 $x io_in_memRead $end
     $var wire 5 %! io_out_writeAddress $end
    $upscope $end
  $upscope $end
$upscope $end
$enddefinitions $end
$dumpvars
0o
b00000000000000000000000000000000 ${
b0000 $%
0"c
b00000 $c
0=
b00000000000000000000000000000000 #}
0$D
b00000 $1
b00000 "Z
b00000000000000000000000000000000 r
b00000000000000000000000000000000 "M
b00000000000000000000000000000000 #.
b00000000000000000000000000000000 "8
0$U
b000 $}
1N
0"v
b00000000000000000000000000000000 #*
b00000000000000000000000000000000 "4
b00 $N
0$4
0"r
1"b
0a
0L
b00000000000000000000000000000000 $X
b00000000000000000000000000000000 #w
0D
0/
b00000000000000000000000000000000 #Z
b00000000000000000000000000000000 0
b00000000000000000000000000000000 E
b00000000000000000000000000000000 $P
b00000000000000000000000000000000 "\
b00000000000000000000000000000000 "G
b00000000000000000000000000000000 #(
b00000000000000000000000000000000 $;
b00000000000000000000000000000000 s
0]
b00000000000000000000000000000000 $i
b00000000000000000000000000000000 $~
b00000 ")
b00000000000000000000000000000000 A
0+
b00000000000000000000000000000000 "u
b00000000000000000000000000000000 $7
b00000000000000000000000000000000 $
b0000 `
b00000000000000000000000000000000 "C
b00000000000000000000000000000000 #$
b00000000000000000000000000000000 "&
b000000000000 _
b00000 #l
0$`
b00000 $0
0"l
0$.
b00000000000000000000000000000000 q
0"d
0%$
b00000000000000000000000000000000 ?
0$q
b00000 $^
0$T
b00000 #K
0#^
0"}
b00000000000000000000000000000000 m
0#A
0#,
0l
0$?
b00000000000000000000000000000000 #z
0".
b00000000000000000000000000000000 %'
b00000000000000000000000000000000 "5
b00000000000000000000000000000000 $l
0"?
b00000000000000000000000000000000 $W
0"*
b00000000000000000000000000000000 #v
b00000000000000000000000000000000 #D
b00000 i
b00000000000000000000000000000000 #j
0#m
0#P
b00000000000000000000000000000000 "W
b00000000000000000000000000000000 #8
b00000000000000000000000000000000 $j
0$|
0$t
0;
b00000000000000000000000000000000 %(
b00000000000000000000000000000000 #f
b00000 H
0#a
0#L
0%#
b00000000000000000000000000000000 p
b00000000000000000000000000000000 [
b00000000000000000000000000000000 $f
b00000000000000000000000000000000 "6
b00000000000000000000000000000000 S
b00000000000000000000000000000000 "!
b00000000000000000000000000000000 >
b000000000000 $A
0"N
0#@
09
b00000 $J
b00000000000000000000000000000000 #y
b00000000000000000000000000000000 $Z
b00000000000000000000000000000000 #G
b00000000000000000000000000000000 "f
b00000000000000000000000000000000 "Q
b000000000000000000000000000000000000000000000000000000000000000 t
b000000000000 C
0|
0J
b00000000000000000000000000000000 $V
b00000 $F
b00000000000000000000000000000000 .
0$Q
b00000000000000000000000000000000 "w
0$<
0-
b00000 "J
0#>
0"]
b00000000000000000000000000000000 M
b00000000000000000000000000000000 "E
0"+
b00000000000000000000000000000000 #&
0"z
b00000 #H
b00000000000000000000000000000000 $$
b00000 B
0#[
0$b
b00000000000000000000000000000000 "^
b00000000000000000000000000000000 {
0#:
b00000000000000000000000000000000 #"
0"Y
0#`
0%"
0Y
b00000000000000000000000000000000 $z
b000000000000 "~
0<
b00000000000000000000000000000000 $H
b00000 $8
0'
b00000000000000000000000000000000 "q
b00000000000000000000000000000000 "i
b00000000000000000000000000000000 #5
b00000000000000000000000000000000 "T
b00000000000000000000000000000000 "7
0#\
0$=
0"{
b00000000000000000000000000000000 $v
b00000000000000000000000000000000 $a
0"I
b00000 #h
0#
b00000000000000000000000000000000 #c
0",
b00000000000000000000000000000000 $/
b00000000000000000000000000000000 #F
b00000000000000000000000000000000 #1
0$\
0$m
0#o
0"y
b00000000000000000000000000000000 ~
0#R
0#=
0}
0K
0$L
0#k
b00000 $9
b00000000000000000000000000000000 z
0#N
0#9
0y
0"m
0G
b00000000000000000000000000000000 $S
b000000000000 $C
b00000000000000000000000000000000 @
b00000 "(
0";
b00000000000000000000000000000000 $!
b00000000000000000000000000000000 "B
b0000 #J
b00000000000000000000000000000000 n
b00000000000000000000000000000000 $d
b00000000000000000000000000000000 $O
0""
b00000 P
b00000000000000000000000000000000 #n
b00000000000000000000000000000000 #Q
b00000000000000000000000000000000 "p
b00000000000000000000000000000000 $2
b00000000000000000000000000000000 ">
0$x
0$p
0$[
0#]
0$)
0"g
0$>
0"|
b0000 O
b00000000000000000000000000000000 "2
b00000000000000000000000000000000 :
b00000000000000000000000000000000 %&
b00000000000000000000000000000000 #d
1#?
b00000 $Y
b00000 %%
0#Y
b00000 "P
b00000000000000000000000000000000 $"
0g
b00000 #)
b00000000000000000000000000000000 h
b00000000000000000000000000000000 "`
0#<
05
b00000 "e
b00000000000000000000000000000000 $s
0"F
0x
1$3
b00000000000000000000000000000000 $g
b00000000000000000000000000000000 $R
0":
b00000 "x
0$M
b00000 $:
b000000000000 e
18
b00000 #r
0%
0$I
0%*
b00000 2
0$,
0"U
b00000000000000000000000000000000 "=
0#6
0"j
0v
b00000000000000000000000000000000 "o
06
0!
b00000000000000000000000000000000 $B
b00000000000000000000000000000000 "k
0$E
b00000000000000000000000000000000 $-
b00000000000000000000000000000000 #/
b00000000000000000000000000000000 "9
b00000000000000000000000000000000 V
0$(
b00000000000000000000000000000000 k
0#X
0f
0Q
b000000000000 #W
b00000 ^
b00000000000000000000000000000000 $@
b00000000000000000000000000000000 #_
b00000000000000000000000000000000 "a
b00000000000000000000000000000000 #B
b00000000000000000000000000000000 $#
0#i
b000 $r
0w
0b
0#7
b00000 Z
b00000000000000000000000000000000 #p
0"$
0(
b00000000000000000000000000000000 )
b00000000000000000000000000000000 #S
b00000000000000000000000000000000 "H
b000000000000 "#
0#V
b00000000000000000000000000000000 #!
b00000000000000000000000000000000 "@
0#|
0%)
b00000 #T
b00000 $5
0#g
b00000 "V
0$+
b00000000000000000000000000000000 "<
b00000000000000000000000000000000 "'
0#x
0$'
b00000000000000000000000000000000 j
b00000000000000000000000000000000 $u
0T
0"3
b00000000000000000000000000000000 U
0"
b00000000000000000000000000000000 #M
b00000000000000000000000000000000 #0
b00000000000000000000000000000000 $y
0#%
0"/
b00000000000000000000000000000000 I
b00000000000000000000000000000000 #{
b00000000000000000000000000000000 4
b000000000000 "X
03
b00000000000000000000000000000000 #I
b00000 "1
0$h
b00000 #t
b00000 %!
0$K
0#U
b00000 "L
b00000 #-
0$6
b00000000000000000000000000000000 $o
0##
b00000000000000000000000000000000 d
0"t
01
0"%
b00000000000000000000000000000000 *
b0000 #2
0$G
b00000000000000000000000000000000 u
0"h
b00000000000000000000000000000000 $k
0"S
b00000000000000000000000000000000 X
0$*
0#4
b00000000000000000000000000000000 #;
0$w
b00000000000000000000000000000000 $_
b00000000000000000000000000000000 #~
b00000000000000000000000000000000 7
1$n
b0000 #s
b00 "_
b00000 \
b00000 #b
0#u
b00000 #E
b00000 "O
0#C
b00000 $&
b00000000000000000000000000000000 R
b00000000000000000000000000000000 $]
b00000000000000000000000000000000 "-
0"0
b00000000000000000000000000000000 #+
1"D
0#q
b00000 &
b00000 "K
b00000000000000000000000000000000 "[
b00000000000000000000000000000000 c
0"s
0"A
b00000000000000000000000000000000 #'
b00000000000000000000000000000000 F
0#e
0"R
b0000 #3
b00000000000000000000000000000000 W
0$e
0,
b00000000000000000000000000000000 "n
b00000000000000000000000000000000 #O
$end
#0
b1111 #3
1$Q
1"+
1$e
1#q
b1111 `
b00000000000000000000000000000100 $~
1%"
b00000000000000000000000000000100 "i
b1111 #J
b1111 #s
#1
1#L
1"j
1$m
1$E
1%*
1f
b1111 O
1#C
1#\
1$4
1"
1#A
1#N
1J
1D
1"]
b1111 #2
1"F
1"0
b1111 $%
1$b
1#R
#6
0#N
0$b
0"]
0#C
0"F
0"0
0"j
0#A
0$E
0$4
0%*
0f
0D
0J
0#L
0#\
0#R
0"
0$m
#11
1#L
1"j
1$m
1$E
1%*
1f
1#C
1#\
1$4
1"
1#A
1#N
1J
1D
1"]
1"F
1"0
1$b
1#R
#16
0#N
0$b
0"]
0#C
0"F
0"0
0"j
0#A
0$E
0$4
0%*
0f
0D
0J
0#L
0#\
0#R
0"
0$m
#21
1#L
1"j
1$m
1$E
1%*
1f
1#C
1#\
1$4
1"
1#A
1#N
1J
1D
1"]
1"F
1"0
1$b
1#R
#26
0#N
0$b
0"]
0#C
0"F
0"0
0"j
0#A
0$E
0$4
0%*
0f
0D
0J
0#L
0#\
0#R
0"
0$m
#31
1#L
1"j
1$m
1$E
1%*
1f
1#C
1#\
1$4
1"
1#A
1#N
1J
1D
1"]
1"F
1"0
1$b
1#R
#36
0#N
0$b
0"]
0#C
0"F
0"0
0"j
0#A
0$E
0$4
0%*
0f
0D
0J
0#L
0#\
0#R
0"
0$m
#41
1#L
1"j
1$m
1$E
1%*
1f
1#C
1#\
1$4
1"
1#A
1#N
1J
1D
1"]
1"F
1"0
1$b
1#R
#46
b0000 #s
b00000000000000000000000000010011 $k
1/
1"z
b11111110000000010000000100010011 #Q
1$`
1"R
0D
1$I
0%"
0#R
1#i
0$b
b00000000000000000000000000010011 S
0"0
1#X
b11111110000000010000000100010011 q
b00000000000000000000000000010011 #S
b00000000000000000000000000010011 #z
b0000 #J
1";
b0000 `
1#=
b11111110000000010000000100010011 #{
0#C
1#:
0"j
1"I
0#A
0$4
0f
b00000000000000000000000000000000 $~
0#L
0$e
0#\
b00000000000000000000000000010011 "n
0$m
0#N
0"]
0"F
0#q
1#`
b11111110000000010000000100010011 U
0"+
1$q
1#e
0$E
b0000 #3
1$[
0%*
15
b00000000000000000000000000010011 $
0J
1#P
0$Q
b11111110000000010000000100010011 A
0"
1(
1#g
#51
b0000 $%
1#L
1"j
1$m
1$E
1%*
1f
1#C
13
1#\
1#N
1#A
b0000 O
1D
1"g
1"]
1"F
b11111110000000010000000100010011 #~
b11111110000000010000000100010011 $Z
1$'
1"$
1|
1$4
1"
1J
b0000 #2
1+
1#>
1"0
b00000000000000000000000000010011 $@
1$b
b11111110000000010000000100010011 #I
1#R
#56
b00000000000000000000000000000100 $B
b00000000000100010010111000100011 q
0#C
b00000000000000000000000000000100 V
0"j
b00000000000100010010111000100011 U
0#A
0$4
b00000000000100010010111000100011 #{
b00000000000000000000000000000100 $$
0f
0D
0#L
0#\
b000000000100 "X
b00000000000000000000000000000100 #+
0#R
0$m
0#N
0$b
0"]
0"F
b00000000000100010010111000100011 A
0"0
b00000000000100010010111000100011 #Q
0$E
b00000000000000000000000000000100 :
0%*
0J
0"
#61
b000000000100 #W
1#L
1"j
1$m
1$E
1%*
1f
1#C
b00000000000100010010111000100011 $Z
1#\
1$4
1"
1#A
1#N
1J
b00000000000100010010111000100011 #I
1D
b000000000100 _
1"]
b000000000100 "~
b00000000000100010010111000100011 #~
1"F
1"0
1$b
1#R
#66
0#C
b00000000000000000000000000001000 :
b00000000100000010010110000100011 U
b00000000100000010010110000100011 A
0"j
0#A
0$4
b00000000100000010010110000100011 q
0f
0D
0#L
b00000000000000000000000000001000 #+
0#\
b00000000000000000000000000001000 $$
0#R
0$m
0#N
0$b
b000000001000 "X
0"]
0"F
0"0
b00000000000000000000000000001000 V
b00000000100000010010110000100011 #{
0$E
0%*
0J
b00000000100000010010110000100011 #Q
b00000000000000000000000000001000 $B
0"
#71
1#L
1"j
1$m
b00000000100000010010110000100011 $Z
1$E
1%*
1f
b000000001000 "~
1#C
b000000001000 #W
1#\
b00000000100000010010110000100011 #I
1$4
1"
1#A
1#N
1J
1D
b000000001000 _
1"]
1"F
b00000000100000010010110000100011 #~
1"0
1$b
1#R
#76
0#C
0"j
b00000010000000010000010000010011 U
b00000000000000000000000000001100 $B
b00000010000000010000010000010011 #{
0#A
0$4
0f
0D
b00000000000000000000000000001100 V
0#L
0#\
0#R
0$m
0#N
0$b
b00000000000000000000000000001100 :
0"]
b000000001100 "X
0"F
0"0
0$E
b00000010000000010000010000010011 #Q
0%*
0J
b00000010000000010000010000010011 A
b00000010000000010000010000010011 q
b00000000000000000000000000001100 $$
b00000000000000000000000000001100 #+
0"
