waveforms/square.s.vcd
$date
2022-11-08T13:42+0000
$end
$version
0.2
$end
$comment

$end
$timescale 1ns  $end
$scope module Tile $end
 $var wire 1 < io_regsWriteEnable $end
 $var wire 32 ? io_regsReadData $end
 $var wire 32 W io_IMEMAddress $end
 $var wire 1 h io_regsDeviceWriteEnable $end
 $var wire 32 "C io_DMEMAddress $end
 $var wire 32 "q io_DMEMWriteData $end
 $var wire 1 "w CPU $end
 $var wire 32 ## io_regsDeviceWriteData $end
 $var wire 5 #* io_regsDeviceWriteAddress $end
 $var wire 1 #B clock $end
 $var wire 32 #H io_currentPC $end
 $var wire 5 #L io_regsAddress $end
 $var wire 1 #b io_DMEMWriteEnable $end
 $var wire 32 #e io_memDeviceWriteAddress $end
 $var wire 32 #{ io_IMEMWriteData $end
 $var wire 32 $! io_memDeviceWriteData $end
 $var wire 32 $H io_DMEMReadData $end
 $var wire 1 $Q reset $end
 $var wire 1 $[ io_setup $end
 $var wire 1 $h io_memDeviceWriteEnable $end
 $var wire 32 %( io_regsWriteData $end
  $scope module CPU.MEMBarrier $end
  $upscope $end
  $scope module CPU.EX $end
  $upscope $end
  $scope module CPU.EXBarrier $end
  $upscope $end
  $scope module CPU.MEM $end
  $upscope $end
  $scope module CPU.WB $end
  $upscope $end
  $scope module CPU.JBarrier $end
  $upscope $end
  $scope module CPU.IDBarrier $end
  $upscope $end
  $scope module CPU.ID $end
  $upscope $end
  $scope module CPU.ID.registers $end
  $upscope $end
  $scope module CPU.IFBarrier $end
  $upscope $end
  $scope module CPU.IF $end
  $upscope $end
  $scope module CPU.IF.IMEM $end
  $upscope $end
  $scope module CPU.MEM.DMEM $end
  $upscope $end
  $scope module CPU.ID.Decoder $end
  $upscope $end
  $scope module CPU $end
   $var wire 1 ' IDBarrier $end
   $var wire 32 ; testHarness_setupSignals_IMEMsignals_address $end
   $var wire 32 B testHarness_setupSignals_IMEMsignals_instruction $end
   $var wire 1 U testHarness_regUpdates_writeEnable $end
   $var wire 1 m ID $end
   $var wire 1 "0 testHarness_memUpdates_writeEnable $end
   $var wire 32 "H testHarness_regUpdates_writeData $end
   $var wire 5 "K testHarness_regUpdates_writeAddress $end
   $var wire 5 "M testHarness_setupSignals_registerSignals_readAddress $end
   $var wire 32 "R testHarness_testReadouts_registerRead $end
   $var wire 32 "] testHarness_currentPC $end
   $var wire 1 "d IF $end
   $var wire 32 "r testHarness_memUpdates_writeAddress $end
   $var wire 1 "z IFBarrier $end
   $var wire 1 "{ testHarness_setupSignals_DMEMsignals_setup $end
   $var wire 1 "} JBarrier $end
   $var wire 32 #2 testHarness_testReadouts_DMEMread $end
   $var wire 32 #6 testHarness_setupSignals_DMEMsignals_dataIn $end
   $var wire 1 #> testHarness_setupSignals_IMEMsignals_setup $end
   $var wire 1 #] clock $end
   $var wire 32 #` testHarness_setupSignals_DMEMsignals_dataAddress $end
   $var wire 1 #j testHarness_setupSignals_registerSignals_setup $end
   $var wire 1 #n MEM $end
   $var wire 1 $( testHarness_setupSignals_registerSignals_writeEnable $end
   $var wire 1 $) WB $end
   $var wire 1 $+ EXBarrier $end
   $var wire 1 $G EX $end
   $var wire 32 $f testHarness_memUpdates_writeData $end
   $var wire 32 $u testHarness_setupSignals_registerSignals_writeData $end
   $var wire 1 %" reset $end
   $var wire 1 %# MEMBarrier $end
   $var wire 1 %) testHarness_setupSignals_DMEMsignals_writeEnable $end
    $scope module ID $end
     $var wire 1 ! testHarness_registerSetup_writeEnable $end
     $var wire 5 & io_ex_writeAddress $end
     $var wire 32 ) io_ex_writeData $end
     $var wire 1 * sigMEM_STALL_BR $end
     $var wire 32 5 io_out_op2 $end
     $var wire 32 8 io_wb_writeData $end
     $var wire 1 > _GEN_21 $end
     $var wire 5 _ io_out_writeAddress $end
     $var wire 4 a io_out_aluOP $end
     $var wire 32 d b $end
     $var wire 5 j _GEN_18 $end
     $var wire 32 k io_fwdOut_address2 $end
     $var wire 32 l testHarness_registerPeek $end
     $var wire 32 o _GEN_1 $end
     $var wire 1 p io_stall $end
     $var wire 32 s _GEN_4 $end
     $var wire 1 w io_wb_writeEnable $end
     $var wire 1 y io_outJ_jump $end
     $var wire 32 "" io_out_memData $end
     $var wire 1 ", reset $end
     $var wire 1 "/ testHarness_testUpdates_writeEnable $end
     $var wire 32 "5 immediate $end
     $var wire 32 "7 savedInstruction_instruction $end
     $var wire 1 "< _GEN_7 $end
     $var wire 32 "? io_outJ_nextPC $end
     $var wire 1 "@ sigEX_STALL $end
     $var wire 32 "A testHarness_registerSetup_writeData $end
     $var wire 5 "L testHarness_testUpdates_writeAddress $end
     $var wire 5 "Q rdaddress $end
     $var wire 1 "i io_mem_memRead $end
     $var wire 32 "l io_out_op1 $end
     $var wire 1 "s io_ex_memRead $end
     $var wire 5 "y _GEN_20 $end
     $var wire 1 "~ stalled $end
     $var wire 1 #$ _GEN_6 $end
     $var wire 32 #+ _GEN_0 $end
     $var wire 5 #. io_mem_writeAddress $end
     $var wire 32 #0 io_fwdOut_address1 $end
     $var wire 32 #1 a $end
     $var wire 1 #: io_mem_regWrite $end
     $var wire 1 #; io_fwdOut_op2sel $end
     $var wire 1 #= io_ex_regWrite $end
     $var wire 5 #I testHarness_registerSetup_readAddress $end
     $var wire 4 #K _GEN_3 $end
     $var wire 32 #T io_in_instruction_instruction $end
     $var wire 5 #U rs2address $end
     $var wire 1 #V registers $end
     $var wire 1 #W io_out_memRead $end
     $var wire 1 #Y io_out_regWrite $end
     $var wire 32 #g io_mem_writeData $end
     $var wire 5 #m io_wb_writeAddress $end
     $var wire 32 #o io_fwdOut_memDSrc $end
     $var wire 32 $" _GEN_2 $end
     $var wire 32 $# io_fwdOut_imm $end
     $var wire 1 $* stopped $end
     $var wire 1 $. Decoder $end
     $var wire 5 $0 _GEN_19 $end
     $var wire 5 $5 rs1address $end
     $var wire 1 $6 _GEN_5 $end
     $var wire 1 $K stalled2 $end
     $var wire 2 $N _GEN_22 $end
     $var wire 32 $O pcReal $end
     $var wire 1 $\ io_out_memWrite $end
     $var wire 1 $` testHarness_registerSetup_setup $end
     $var wire 5 $c _GEN_8 $end
     $var wire 32 $d testHarness_testUpdates_writeData $end
     $var wire 1 $m clock $end
     $var wire 32 $o io_in_pc $end
      $scope module registers $end
       $var wire 1 - testHarness_testUpdates_writeEnable $end
       $var wire 1 0 testHarness_setup_setup $end
       $var wire 32 @ testHarness_testUpdates_writeData $end
       $var wire 5 C readAddress1 $end
       $var wire 1 K clock $end
       $var wire 32 N io_readData1 $end
       $var wire 32 S registerFile $end
       $var wire 1 ^ testHarness_setup_writeEnable $end
       $var wire 1 x writeEnable $end
       $var wire 5 ") io_readAddress1 $end
       $var wire 5 "P testHarness_testUpdates_writeAddress $end
       $var wire 1 "e io_writeEnable $end
       $var wire 32 #) testHarness_setup_writeData $end
       $var wire 32 #C io_writeData $end
       $var wire 5 #i testHarness_setup_readAddress $end
       $var wire 32 #q io_readData2 $end
       $var wire 5 #u writeAddress $end
       $var wire 5 $8 io_writeAddress $end
       $var wire 5 $: io_readAddress2 $end
        $scope module registerFile $end
          $scope module _T_33 $end
           $var wire 1 % en $end
           $var wire 1 2 pipeline_valid_0 $end
           $var wire 1 E clk $end
           $var wire 5 "W pipeline_addr_0 $end
           $var wire 1 "c mask $end
           $var wire 1 #5 valid $end
           $var wire 5 #c addr $end
           $var wire 32 $- pipeline_data_0 $end
           $var wire 32 $g data $end
          $upscope $end
          $scope module _T_41 $end
           $var wire 32 { data $end
           $var wire 1 "T en $end
           $var wire 1 #S clk $end
           $var wire 5 $Y addr $end
          $upscope $end
          $scope module _T_38 $end
           $var wire 1 "1 clk $end
           $var wire 1 #- en $end
           $var wire 5 #F addr $end
           $var wire 32 $S data $end
          $upscope $end
        $upscope $end
      $upscope $end
      $scope module Decoder $end
       $var wire 1 : io_controlSignals_memWrite $end
       $var wire 1 L io_controlSignals_memRead $end
       $var wire 1 "S io_op2Select $end
       $var wire 2 "` decodedControlSignals_6 $end
       $var wire 1 #Q io_controlSignals_regWrite $end
       $var wire 4 #t io_ALUop $end
       $var wire 1 #v io_op1Select $end
       $var wire 32 #z io_instruction_instruction $end
       $var wire 1 $T io_controlSignals_jump $end
       $var wire 3 $r io_branchType $end
       $var wire 1 $| io_controlSignals_branch $end
       $var wire 3 $} io_immType $end
      $upscope $end
    $upscope $end
    $scope module MEM $end
     $var wire 1 H io_out_memRead $end
     $var wire 1 b DMEM $end
     $var wire 32 i testHarness_testUpdates_writeAddress $end
     $var wire 1 ~ io_in_regWrite $end
     $var wire 32 "U io_in_memData $end
     $var wire 5 "[ io_out_writeAddress $end
     $var wire 32 "b testHarness_DMEMsetup_dataAddress $end
     $var wire 32 "g io_in_writeData $end
     $var wire 1 "n io_out_regWrite $end
     $var wire 1 "t io_in_memWrite $end
     $var wire 1 #^ testHarness_testUpdates_writeEnable $end
     $var wire 32 #d io_out_writeData $end
     $var wire 1 #l testHarness_DMEMsetup_writeEnable $end
     $var wire 32 #y testHarness_DMEMpeek $end
     $var wire 32 $2 io_dmemReadResult $end
     $var wire 1 $I testHarness_DMEMsetup_setup $end
     $var wire 32 $X testHarness_testUpdates_writeData $end
     $var wire 1 $b clock $end
     $var wire 1 $w io_in_memRead $end
     $var wire 32 $z testHarness_DMEMsetup_dataIn $end
     $var wire 5 %% io_in_writeAddress $end
      $scope module DMEM $end
       $var wire 32 1 testHarness_testUpdates_writeData $end
       $var wire 1 9 _GEN_6 $end
       $var wire 12 D data__T_24_addr_pipe_0 $end
       $var wire 1 Z testHarness_testUpdates_writeEnable $end
       $var wire 32 e testHarness_setup_dataAddress $end
       $var wire 12 f io_dataAddress $end
       $var wire 32 n testHarness_testUpdates_writeAddress $end
       $var wire 32 "6 addressSource $end
       $var wire 32 "F data $end
       $var wire 1 "| io_writeEnable $end
       $var wire 1 #_ testHarness_setup_writeEnable $end
       $var wire 1 #a testHarness_setup_setup $end
       $var wire 1 $4 clock $end
       $var wire 32 $P testHarness_setup_dataIn $end
       $var wire 32 $_ io_dataIn $end
       $var wire 32 $j io_dataOut $end
        $scope module data $end
          $scope module _T_26 $end
           $var wire 1 " clk $end
           $var wire 12 "$ addr $end
           $var wire 32 "9 pipeline_data_0 $end
           $var wire 1 "u pipeline_valid_0 $end
           $var wire 32 #/ data $end
           $var wire 1 $, en $end
           $var wire 12 $A pipeline_addr_0 $end
           $var wire 1 $U valid $end
           $var wire 1 $n mask $end
          $upscope $end
          $scope module _T_24 $end
           $var wire 32 Y data $end
           $var wire 1 #D clk $end
           $var wire 1 $3 en $end
           $var wire 12 $C addr $end
          $upscope $end
        $upscope $end
      $upscope $end
    $upscope $end
    $scope module IF $end
     $var wire 1 # io_stall $end
     $var wire 1 ( testHarness_IMEMsetup_setup $end
     $var wire 1 c IMEM $end
     $var wire 32 r testHarness_IMEMsetup_instruction $end
     $var wire 32 "= io_inJ_nextPC $end
     $var wire 1 "O io_inJ_jump $end
     $var wire 32 "j _GEN_2 $end
     $var wire 1 "k clock $end
     $var wire 32 "o instruction_instruction $end
     $var wire 32 "p testHarness_PC $end
     $var wire 1 #r reset $end
     $var wire 32 $$ testHarness_IMEMsetup_address $end
     $var wire 1 $? stalled $end
     $var wire 32 $@ lastInstruction_instruction $end
     $var wire 32 $i io_out_pc $end
     $var wire 32 $k io_out_instruction_instruction $end
     $var wire 32 $s pc $end
     $var wire 32 $~ _GEN_0 $end
      $scope module IMEM $end
       $var wire 32 V testHarness_setupSignals_instruction $end
       $var wire 12 ` instructions__T_20_addr_pipe_0 $end
       $var wire 1 "G clock $end
       $var wire 32 #, testHarness_setupSignals_address $end
       $var wire 1 #@ _GEN_4 $end
       $var wire 32 #J io_instruction $end
       $var wire 1 #h testHarness_setupSignals_setup $end
       $var wire 32 $B addressSource $end
       $var wire 32 $V testHarness_requestedAddress $end
       $var wire 32 $l io_instructionAddress $end
       $var wire 32 $v instructions $end
        $scope module instructions $end
          $scope module _T_18 $end
           $var wire 1 6 valid $end
           $var wire 1 O mask $end
           $var wire 1 } pipeline_valid_0 $end
           $var wire 12 "Y addr $end
           $var wire 1 "^ clk $end
           $var wire 32 #R data $end
           $var wire 12 #X pipeline_addr_0 $end
           $var wire 32 $Z pipeline_data_0 $end
           $var wire 1 $q en $end
          $upscope $end
          $scope module _T_20 $end
           $var wire 1 "E en $end
           $var wire 12 #! addr $end
           $var wire 1 #O clk $end
           $var wire 32 #~ data $end
          $upscope $end
        $upscope $end
      $upscope $end
    $upscope $end
    $scope module IFBarrier $end
     $var wire 32 $ io_in_instruction_instruction $end
     $var wire 32 T io_out_instruction_instruction $end
     $var wire 1 #M clock $end
     $var wire 32 #N pc $end
     $var wire 32 #x io_in_pc $end
     $var wire 32 $a io_out_pc $end
     $var wire 1 $e reset $end
    $upscope $end
    $scope module MEMBarrier $end
     $var wire 32 + regs_writeData $end
     $var wire 5 I io_out_writeAddress $end
     $var wire 1 z io_out_regWrite $end
     $var wire 32 "! io_in_writeData $end
     $var wire 1 "# io_in_memRead $end
     $var wire 1 "+ regs_memRead $end
     $var wire 1 #Z io_out_memRead $end
     $var wire 1 #| io_in_regWrite $end
     $var wire 32 #} io_out_writeData $end
     $var wire 5 $9 io_in_writeAddress $end
     $var wire 1 $= regs_regWrite $end
     $var wire 1 $E clock $end
     $var wire 5 $F regs_writeAddress $end
    $upscope $end
    $scope module EX $end
     $var wire 1 , io_in_regWrite $end
     $var wire 32 / io_fwdIn_address1 $end
     $var wire 32 F x $end
     $var wire 5 Q io_wb_writeAddress $end
     $var wire 5 [ io_mem_writeAddress $end
     $var wire 5 ] io_in_writeAddress $end
     $var wire 63 u _GEN_6 $end
     $var wire 1 "% io_fwdIn_op2sel $end
     $var wire 1 "& io_out_memWrite $end
     $var wire 32 "' io_mem_writeData $end
     $var wire 1 "4 io_in_memWrite $end
     $var wire 32 "8 _GEN_0 $end
     $var wire 32 "I io_wb_writeData $end
     $var wire 32 "\ io_in_op2 $end
     $var wire 32 "_ io_ex_writeData $end
     $var wire 32 "a io_fwdIn_imm $end
     $var wire 5 "f io_ex_writeAddress $end
     $var wire 32 "v io_in_memData $end
     $var wire 32 "x io_out_memData $end
     $var wire 32 #' _GEN_2 $end
     $var wire 32 #< io_fwdIn_memDSrc $end
     $var wire 1 #\ io_ex_regWrite $end
     $var wire 32 #k y $end
     $var wire 32 #w io_in_op1 $end
     $var wire 4 $% io_in_aluOP $end
     $var wire 5 $1 io_out_writeAddress $end
     $var wire 32 $7 io_fwdIn_address2 $end
     $var wire 1 $< io_mem_regWrite $end
     $var wire 1 $L io_in_memRead $end
     $var wire 1 $M io_out_memRead $end
     $var wire 32 $R _GEN_1 $end
     $var wire 32 $W io_out_writeData $end
     $var wire 1 $p io_wb_writeEnable $end
     $var wire 1 %$ io_out_regWrite $end
    $upscope $end
    $scope module EXBarrier $end
     $var wire 1 . regs_regWrite $end
     $var wire 1 = io_in_regWrite $end
     $var wire 1 g clock $end
     $var wire 5 "* io_in_writeAddress $end
     $var wire 1 "- io_out_regWrite $end
     $var wire 32 ". io_in_writeData $end
     $var wire 1 "; regs_memWrite $end
     $var wire 32 "> regs_memData $end
     $var wire 1 "V io_in_memWrite $end
     $var wire 32 "X regs_writeData $end
     $var wire 1 "m io_in_memRead $end
     $var wire 1 #7 io_out_memWrite $end
     $var wire 32 #9 io_out_memData $end
     $var wire 1 #p regs_memRead $end
     $var wire 5 $J regs_writeAddress $end
     $var wire 5 $^ io_out_writeAddress $end
     $var wire 1 $t io_out_memRead $end
     $var wire 32 %& io_in_memData $end
     $var wire 32 %' io_out_writeData $end
    $upscope $end
    $scope module IDBarrier $end
     $var wire 5 3 io_in_writeAddress $end
     $var wire 1 4 regs_regWrite $end
     $var wire 32 A io_out_memData $end
     $var wire 32 G io_oFw_address2 $end
     $var wire 32 J io_iFw_memDSrc $end
     $var wire 1 M regs_memRead $end
     $var wire 4 P io_out_aluOP $end
     $var wire 1 R io_in_memWrite $end
     $var wire 32 \ regs_op2 $end
     $var wire 32 q io_in_op2 $end
     $var wire 32 t regFw_imm $end
     $var wire 32 v regFw_memDSrc $end
     $var wire 32 | regFw_address1 $end
     $var wire 32 "( io_oFw_memDSrc $end
     $var wire 32 "3 io_iFw_imm $end
     $var wire 1 "B regs_memWrite $end
     $var wire 1 "J io_iFw_op2sel $end
     $var wire 32 "N io_out_op1 $end
     $var wire 1 "h io_oFw_op2sel $end
     $var wire 32 #" io_oFw_address1 $end
     $var wire 32 #% io_iFw_address2 $end
     $var wire 1 #& io_out_memRead $end
     $var wire 32 #( regs_op1 $end
     $var wire 4 #3 regs_aluOP $end
     $var wire 4 #4 io_in_aluOP $end
     $var wire 1 #? io_out_regWrite $end
     $var wire 1 #A io_in_memRead $end
     $var wire 32 #E io_in_op1 $end
     $var wire 32 #G io_oFw_imm $end
     $var wire 32 #[ regs_memData $end
     $var wire 1 #f io_in_regWrite $end
     $var wire 5 #s regs_writeAddress $end
     $var wire 5 $& io_out_writeAddress $end
     $var wire 1 $' regFw_op2sel $end
     $var wire 32 $; regFw_address2 $end
     $var wire 1 $D io_out_memWrite $end
     $var wire 32 $] io_iFw_address1 $end
     $var wire 32 $y io_in_memData $end
     $var wire 32 ${ io_out_op2 $end
     $var wire 1 %* clock $end
    $upscope $end
    $scope module JBarrier $end
     $var wire 1 7 io_in_jump $end
     $var wire 32 X io_out_nextPC $end
     $var wire 32 ": io_in_nextPC $end
     $var wire 1 $> io_out_jump $end
    $upscope $end
    $scope module WB $end
     $var wire 5 "2 io_in_writeAddress $end
     $var wire 32 "D io_out_writeData $end
     $var wire 1 "Z io_out_writeEnable $end
     $var wire 1 #8 io_in_regWrite $end
     $var wire 32 #P io_in_writeData $end
     $var wire 32 $/ io_dmemData $end
     $var wire 1 $x io_in_memRead $end
     $var wire 5 %! io_out_writeAddress $end
    $upscope $end
  $upscope $end
$upscope $end
$enddefinitions $end
$dumpvars
b00 "`
b00000000000000000000000000000000 ${
b0000 $%
0#D
0R
0=
b00000000000000000000000000000000 #}
b00000 _
0"1
b00000 $1
b00000000000000000000000000000000 "j
b00000000000000000000000000000000 "U
b00000000000000000000000000000000 r
0$D
b00000000000000000000000000000000 #6
b00000000000000000000000000000000 "8
b00000 #m
b00000 $c
0$U
b0000 #t
b000 $}
0#W
0m
b00000000000000000000000000000000 "I
b00 $N
0~
0$4
0#S
0L
b00000000000000000000000000000000 #w
b00000000000000000000000000000000 $X
1"E
b00000000000000000000000000000000 $P
0"#
b00000000000000000000000000000000 $;
b00000000000000000000000000000000 #o
0"@
b00000000000000000000000000000000 "\
b00000000000000000000000000000000 #(
0z
0#O
b00000 "[
b00000000000000000000000000000000 s
b00000000000000000000000000000000 $~
0H
b00000 ")
b00000000000000000000000000000000 $i
b00000000000000000000000000000000 A
b00000000000000000000000000000000 #k
b00000 j
0"<
b00000000000000000000000000000000 $
b00000000000000000000000000000000 $7
b00000000000000000000000000000000 "X
b00000000000000000000000000000000 "C
b00000000000000000000000000000000 #9
0"n
0$`
b00000 I
0%$
0$.
0#b
b00000000000000000000000000000000 q
0"d
0"O
0#M
b00000000000000000000000000000000 T
b00000000000000000000000000000000 ?
b00000 $0
0>
0p
b00000 $^
0$q
0$T
0#^
0$?
0"}
b00000 #.
b0000 P
0#A
b00000000000000000000000000000000 e
b00000000000000000000000000000000 #z
b00000000000000000000000000000000 %'
0#$
b00000 "M
0:
b00000000000000000000000000000000 "g
b00000000000000000000000000000000 #H
b00000000000000000000000000000000 #e
b00000000000000000000000000000000 "5
b000000000000000000000000000000000000000000000000000000000000000 u
b00000000000000000000000000000000 $l
b00000000000000000000000000000000 $W
b00000000000000000000000000000000 /
b00000 "y
b00000000000000000000000000000000 t
b00000000000000000000000000000000 $j
b00000 "*
b00000000000000000000000000000000 B
b00000000000000000000000000000000 "v
0$|
0$t
b00000000000000000000000000000000 %(
0#a
0"k
0%#
b00000 3
0Z
b00000000000000000000000000000000 $f
b000000000000 $A
b00000000000000000000000000000000 S
b00000000000000000000000000000000 "6
b00000000000000000000000000000000 "!
b00000 #i
0"-
b00000 [
b00000000000000000000000000000000 $Z
b00000 #L
b00000000000000000000000000000000 #G
0#_
b00000 $J
b00000000000000000000000000000000 #y
0"~
b00000000000000000000000000000000 #2
b00000 $F
b00000000000000000000000000000000 $V
0$Q
0$<
b00000000000000000000000000000000 $$
0"z
b00000000000000000000000000000000 "b
0#p
b00000000000000000000000000000000 #C
0-
0#>
0"+
b00000000000000000000000000000000 "(
0$b
b00000000000000000000000000000000 {
0#:
b00000000000000000000000000000000 "A
b00000000000000000000000000000000 #"
0%"
b0000 #K
b00000000000000000000000000000000 o
b00000000000000000000000000000000 $z
1O
0<
b00000000000000000000000000000000 $H
0'
b00000000000000000000000000000000 "q
b00000000000000000000000000000000 #g
b00000000000000000000000000000000 #R
b00000 $8
b00000000000000000000000000000000 "?
b00000000000000000000000000000000 #J
b00000000000000000000000000000000 "7
b00000000000000000000000000000000 ""
0#\
0$=
0"{
b00000000000000000000000000000000 $v
b00000000000000000000000000000000 $a
0U
0M
0$\
0",
b00000000000000000000000000000000 $/
b00000000000000000000000000000000 N
b00000000000000000000000000000000 #N
0#
b00000000000000000000000000000000 #1
1"c
b00000000000000000000000000000000 #x
b00000000000000000000000000000000 "3
0$m
0#Z
b00000 "f
0}
b0000 a
b00000 #*
0h
0"G
0#=
0K
b00000 $9
0$L
0y
0"m
0";
b00000000000000000000000000000000 $S
0"&
b00000000000000000000000000000000 +
b00000000000000000000000000000000 @
b00000000000000000000000000000000 "_
b00000000000000000000000000000000 $!
0*
b000000000000 $C
b00000000000000000000000000000000 ##
b000000000000 f
b00000000000000000000000000000000 n
19
b00000000000000000000000000000000 $d
0#-
b00000000000000000000000000000000 Y
b00000000000000000000000000000000 $O
b00000000000000000000000000000000 "p
b00000000000000000000000000000000 $2
b00000000000000000000000000000000 ">
0$x
0$p
0$[
0#]
b00000000000000000000000000000000 #E
0$>
b00000000000000000000000000000000 l
0$)
0"J
0"|
b00000000000000000000000000000000 %&
b00000000000000000000000000000000 #d
b00000 $Y
b00000 #c
0#v
b00000 %%
0#n
0#Y
b00000000000000000000000000000000 $"
b00000 #F
0g
b00000000000000000000000000000000 $s
b00000 "P
b000000000000 #X
b00000000000000000000000000000000 ".
b00000000000000000000000000000000 #`
0x
1$3
b00000000000000000000000000000000 $g
b00000000000000000000000000000000 $R
b00000000000000000000000000000000 #q
b00000 $:
b00000000000000000000000000000000 #T
0$M
0#l
b000000000000 "$
b0000 #4
b00000000000000000000000000000000 ;
0$I
b00000000000000000000000000000000 "o
b00000 #U
0%*
0$,
b00000000000000000000000000000000 "R
0#h
b00000000000000000000000000000000 #P
b00000 "W
0%
b00000000000000000000000000000000 "=
b000000000000 D
06
0!
b00000000000000000000000000000000 $B
b00000 C
b00000000000000000000000000000000 $-
0$E
b00000000000000000000000000000000 #/
b00000000000000000000000000000000 k
b00000000000000000000000000000000 V
0$(
0"4
b00000000000000000000000000000000 "9
b00000000000000000000000000000000 "N
0"w
b00000000000000000000000000000000 |
0#;
1#@
0#&
0"Z
04
b00000000000000000000000000000000 $@
b000000000000 "Y
b00000000000000000000000000000000 J
b00000000000000000000000000000000 $#
b00000 "Q
b00000000000000000000000000000000 i
b00000000000000000000000000000000 "a
b00000000000000000000000000000000 "D
b00000000000000000000000000000000 #%
b000 $r
0w
0b
0"V
0#7
0E
b00000 #u
00
b00000000000000000000000000000000 #[
0(
0"u
b00000000000000000000000000000000 "r
b00000000000000000000000000000000 #)
b00000000000000000000000000000000 "H
b00000000000000000000000000000000 )
0#V
b00000000000000000000000000000000 "]
0#|
b00000 $5
0%)
0$+
0"T
0"i
b00000000000000000000000000000000 "'
0#5
b000000000000 `
0$'
0"e
b00000000000000000000000000000000 $u
07
b00000000000000000000000000000000 8
b00000000000000000000000000000000 "l
0"
b00000000000000000000000000000000 #0
b00000000000000000000000000000000 ":
0#B
b00000000000000000000000000000000 $y
b00000000000000000000000000000000 #{
0"/
b00000 ]
b00000000000000000000000000000000 #,
0$h
0#r
b00000 %!
b00000 Q
0#j
0$K
0"t
b00000 "L
b00000000000000000000000000000000 d
b00000000000000000000000000000000 $o
0"B
0#8
b00000000000000000000000000000000 G
b00000000000000000000000000000000 \
0"%
0c
0$6
0#f
0#Q
0$G
0"h
b00000000000000000000000000000000 $k
0$*
0"S
b00000000000000000000000000000000 X
0$w
b00000000000000000000000000000000 #~
b00000000000000000000000000000000 $_
1$n
02
b00000 $&
b00000000000000000000000000000000 #+
b00000 "2
0"0
b00000000000000000000000000000000 $]
b00000000000000000000000000000000 5
b00000 #s
0.
b00000 #I
b00000000000000000000000000000000 "x
b00000 &
b00000 "K
b00000000000000000000000000000000 #<
0#?
b00000000000000000000000000000000 "F
0"^
0"s
b00000000000000000000000000000000 F
b00000000000000000000000000000000 1
b00000000000000000000000000000000 #'
b000000000000 #!
0^
b0000 #3
b00000000000000000000000000000000 W
0$e
0,
b00000000000000000000000000000000 v
$end
#0
b1111 #4
1%"
1$e
b1111 a
1$Q
1",
b00000000000000000000000000000100 $~
b1111 #K
b00000000000000000000000000000100 "j
1#r
b1111 #t
#1
1#B
1#O
b1111 P
1"G
1$b
1"
b1111 $%
1$E
1$m
1$4
1#D
1"1
1E
b1111 #3
1"k
1#M
1#]
1%*
1K
1g
1"^
1#S
#6
0"^
0"k
0#S
0K
0#O
0"1
0%*
0E
0g
0#]
0#B
0#D
0"
0$4
0$E
0#M
0$b
0$m
0"G
#11
1#B
1#O
1"G
1$b
1"
1$E
1$m
1$4
1#D
1"1
1E
1"k
1#M
1#]
1%*
1K
1g
1"^
1#S
#16
0"^
0"k
0#S
0K
0#O
0"1
0%*
0E
0g
0#]
0#B
0#D
0"
0$4
0$E
0#M
0$b
0$m
0"G
#21
1#B
1#O
1"G
1$b
1"
1$E
1$m
1$4
1#D
1"1
1E
1"k
1#M
1#]
1%*
1K
1g
1"^
1#S
#26
0"^
0"k
0#S
0K
0#O
0"1
0%*
0E
0g
0#]
0#B
0#D
0"
0$4
0$E
0#M
0$b
0$m
0"G
#31
1#B
1#O
1"G
1$b
1"
1$E
1$m
1$4
1#D
1"1
1E
1"k
1#M
1#]
1%*
1K
1g
1"^
1#S
#36
0"^
0"k
0#S
0K
0#O
0"1
0%*
0E
0g
0#]
0#B
0#D
0"
0$4
0$E
0#M
0$b
0$m
0"G
#41
1#B
1#O
1"G
1$b
1"
1$E
1$m
1$4
1#D
1"1
1E
1"k
1#M
1#]
1%*
1K
1g
1"^
1#S
#46
0"^
1(
b0000 #4
0g
0#]
b00000000000000000000000000010011 $
1$[
1"S
1#>
b00000000000000000000000000010011 #z
1"<
b0000 a
1#;
0%"
1$I
1#h
1"{
b0000 #t
0"1
0%*
b00000000000000000000000000010011 $k
0#B
1$`
0$4
0#M
0#r
1#f
1#a
0"k
b11111110000000010000000100010011 #R
16
0K
0$e
0#O
b00000000000000000000000000010011 "o
0E
0",
0#D
0$Q
1$q
0$E
b00000000000000000000000000010011 #T
0$m
1#j
b00000000000000000000000000010011 T
0"G
1#Q
1"J
0#S
b11111110000000010000000100010011 V
b11111110000000010000000100010011 #{
b00000000000000000000000000000000 $~
b0000 #K
0"
b11111110000000010000000100010011 B
10
0$b
1#Y
b11111110000000010000000100010011 r
#51
b11111110000000010000000100010011 #~
1#B
1,
1}
1"
1$m
1$4
1"k
1#M
1#]
b0000 $%
1%*
1K
14
1"^
1g
b11111110000000010000000100010011 $Z
b00000000000000000000000000010011 $@
1#O
b11111110000000010000000100010011 #J
1"G
1$b
1"h
1$E
1#?
1"%
1#D
1"1
1E
b0000 #3
1$'
b0000 P
1#S
#56
0"^
0"k
b00000000000000000000000000000100 #,
0K
0#O
b00000000000100010010111000100011 B
0E
0g
0#]
0#D
b00000000000100010010111000100011 #{
0$E
0$m
0"G
0#S
b00000000000000000000000000000100 $B
b00000000000100010010111000100011 #R
0"1
b00000000000100010010111000100011 r
0%*
b000000000100 "Y
0#B
b00000000000000000000000000000100 W
b00000000000100010010111000100011 V
b00000000000000000000000000000100 $$
0"
0$4
0#M
b00000000000000000000000000000100 ;
0$b
#61
b00000000000100010010111000100011 #J
b00000000000100010010111000100011 $Z
1#B
1#O
b00000000000100010010111000100011 #~
1"G
1$b
1"
b000000000100 #!
b000000000100 `
1$E
1$m
1$4
b000000000100 #X
1#D
1"1
1E
1"k
1#M
1#]
1%*
1K
1g
1"^
1#S
#66
0"^
0"k
0K
0#O
0E
0g
0#]
b00000000000000000000000000001000 $$
0#D
0$E
b00000000100000010010110000100011 B
b000000001000 "Y
0$m
0"G
b00000000000000000000000000001000 W
0#S
b00000000100000010010110000100011 #{
b00000000000000000000000000001000 $B
0"1
0%*
b00000000000000000000000000001000 #,
b00000000000000000000000000001000 ;
b00000000100000010010110000100011 r
0#B
0"
0$4
0#M
b00000000100000010010110000100011 #R
0$b
b00000000100000010010110000100011 V
#71
b000000001000 `
1#B
1#O
1"G
1$b
1"
1$E
b00000000100000010010110000100011 #J
1$m
b00000000100000010010110000100011 #~
1$4
1#D
1"1
b000000001000 #!
1E
1"k
1#M
1#]
b000000001000 #X
1%*
b00000000100000010010110000100011 $Z
1K
1g
1"^
1#S
#76
0"^
0"k
b00000000100100010010101000100011 #R
0K
0#O
b00000000100100010010101000100011 r
0E
b000000001100 "Y
0g
0#]
b00000000000000000000000000001100 W
0#D
b00000000000000000000000000001100 $$
0$E
b00000000000000000000000000001100 ;
b00000000100100010010101000100011 B
0$m
b00000000000000000000000000001100 $B
0"G
0#S
0"1
b00000000000000000000000000001100 #,
0%*
b00000000100100010010101000100011 V
0#B
b00000000100100010010101000100011 #{
0"
0$4
0#M
0$b
